NO,PROVINSI,KABUPATEN/ KOTA,PROGRAM,KEGIATAN,PENERIMA MANFAAT,KETERANGAN,UNIT,ANGGARAN,TAHUN,,,,,,,,,,
994,GORONTALO,KOTA GORONTALO,RUMAH SUSUN,Pembangunan baru,TNI,"Lanal Gorontalo, Jalan R. Atje Slamet, Kel. Leato Selatan, Kec. Dumbo Raya (TB. 1, T.45, L.3)",35,11232818,2016,,,,,,,,,,
995,GORONTALO,KOTA GORONTALO,RUMAH SUSUN,Pembangunan baru,TNI,"Jl. R. Atje Slamet, Kel. Leato Selatan, Kec. Dumbo Raya, Kota Gorontalo T. 45 / 3 Lt", - , - ,2017,,,,,,,,,,
996,JAMBI,KABUPATEN BATANGHARI,RUMAH SWADAYA,Peningkatan Kualitas,Masyarakat Berpenghasilan Rendah (MBR),Kec. Bajubang Ds. Bajubang,24,360000,2017,,,,,,,,,,
997,JAMBI,KABUPATEN BATANGHARI,RUMAH SWADAYA,Peningkatan Kualitas,Masyarakat Berpenghasilan Rendah (MBR),Kec. Bajubang Ds. Ladang Peris,31,465000,2017,,,,,,,,,,
998,JAMBI,KABUPATEN BATANGHARI,RUMAH SWADAYA,Peningkatan Kualitas,Masyarakat Berpenghasilan Rendah (MBR),Kec. Bajubang Ds. Penerokan,36,540000,2017,,,,,,,,,,
999,JAMBI,KABUPATEN BATANGHARI,RUMAH SWADAYA,Peningkatan Kualitas,Masyarakat Berpenghasilan Rendah (MBR),Kec. Pemayung Ds. Lubuk Ruso,28,420000,2017,,,,,,,,,,
1000,JAMBI,KABUPATEN BATANGHARI,RUMAH SWADAYA,Peningkatan Kualitas,Masyarakat Berpenghasilan Rendah (MBR),Kec. Pemayung Ds. Serasah,31,465000,2017,,,,,,,,,,
1001,JAMBI,KABUPATEN BATANGHARI,RUMAH SWADAYA,Peningkatan Kualitas,Masyarakat Berpenghasilan Rendah (MBR),Kec. Pemayung Ds. Teluk,69,1035000,2017,,,,,,,,,,
1002,JAMBI,KABUPATEN BATANGHARI,RUMAH SWADAYA,Peningkatan Kualitas,Masyarakat Berpenghasilan Rendah (MBR),Kec. Pemayung Ds. Ture,32,480000,2017,,,,,,,,,,
1003,JAMBI,KABUPATEN BUNGO,RUMAH SWADAYA,Peningkatan Kualitas,Masyarakat Berpenghasilan Rendah (MBR),"Kec. Tanah Bumbu, Ds.Renah Jelmu",117,1200000,2015,,,,,,,,,,
1004,JAMBI,KABUPATEN BUNGO,RUMAH SWADAYA,Peningkatan Kualitas,Masyarakat Berpenghasilan Rendah (MBR),"Kec. Tanah Bumbu, Ds.Perenti Luweh",56,560000,2015,,,,,,,,,,
1005,JAMBI,KABUPATEN BUNGO,RUMAH SWADAYA,Peningkatan Kualitas,Masyarakat Berpenghasilan Rendah (MBR),"Kec. Tanah Bumbu, Ds.Kato Jayo Tanah Tumbu",62,650000,2015,,,,,,,,,,
1006,JAMBI,KABUPATEN BUNGO,RUMAH SWADAYA,Peningkatan Kualitas,Masyarakat Berpenghasilan Rendah (MBR),"Kec. Tanah Bumbu, Ds.Tanah Tumbu",40,399975,2015,,,,,,,,,,
1007,JAMBI,KABUPATEN BUNGO,RUMAH SWADAYA,Peningkatan Kualitas,Masyarakat Berpenghasilan Rendah (MBR),"Kec. Tanah Bumbu, Ds.Teluk Kecibung",34,340000,2015,,,,,,,,,,
1008,JAMBI,KABUPATEN BUNGO,RUMAH SWADAYA,Peningkatan Kualitas,Masyarakat Berpenghasilan Rendah (MBR),"Kec. Tanah Bumbu, Ds.Pedukun",42,420000,2015,,,,,,,,,,
1009,JAMBI,KABUPATEN BUNGO,RUMAH SWADAYA,Peningkatan Kualitas,Masyarakat Berpenghasilan Rendah (MBR),"Kec. Tanah Bumbu, Ds.Tebing Tinggi Uleh",36,360000,2015,,,,,,,,,,
1010,JAMBI,KABUPATEN BUNGO,RUMAH SWADAYA,Peningkatan Kualitas,Masyarakat Berpenghasilan Rendah (MBR),"Kec. Tanah Bumbu, Ds.Lubuk Niur",54,540000,2015,,,,,,,,,,
1011,JAMBI,KABUPATEN BUNGO,RUMAH SWADAYA,Peningkatan Kualitas,Masyarakat Berpenghasilan Rendah (MBR),"Kec. Bathin III Ulu, Ds. Aur Cino",30,327500,2016,,,,,,,,,,
1012,JAMBI,KABUPATEN BUNGO,RUMAH SWADAYA,Peningkatan Kualitas,Masyarakat Berpenghasilan Rendah (MBR),"Kec. Bathin III Ulu, Ds. Buat",30,385000,2016,,,,,,,,,,
1013,JAMBI,KABUPATEN BUNGO,RUMAH SWADAYA,Peningkatan Kualitas,Masyarakat Berpenghasilan Rendah (MBR),"Kec. Bathin III Ulu, Ds. Karak",30,345000,2016,,,,,,,,,,
1014,JAMBI,KABUPATEN BUNGO,RUMAH SWADAYA,Peningkatan Kualitas,Masyarakat Berpenghasilan Rendah (MBR),"Kec. Bathin III Ulu, Ds. Laman Panjang",30,395000,2016,,,,,,,,,,
1015,JAMBI,KABUPATEN BUNGO,RUMAH SWADAYA,Peningkatan Kualitas,Masyarakat Berpenghasilan Rendah (MBR),"Kec. Bathin III Ulu, Ds. Muara Buat",30,297500,2016,,,,,,,,,,
1016,JAMBI,KABUPATEN BUNGO,RUMAH SWADAYA,Peningkatan Kualitas,Masyarakat Berpenghasilan Rendah (MBR),"Kec. Bathin III Ulu, Ds. Senamat Ulu",40,497500,2016,,,,,,,,,,
1017,JAMBI,KABUPATEN BUNGO,RUMAH SWADAYA,Peningkatan Kualitas,Masyarakat Berpenghasilan Rendah (MBR),"Kec. Bathin III Ulu, Ds. Sungai Telang",30,300000,2016,,,,,,,,,,
1018,JAMBI,KABUPATEN BUNGO,RUMAH SWADAYA,Peningkatan Kualitas,Masyarakat Berpenghasilan Rendah (MBR),"Kec. Bathin III Ulu, Ds. Timbolasi",30,300000,2016,,,,,,,,,,
1019,JAMBI,KABUPATEN BUNGO,RUMAH SWADAYA,Peningkatan Kualitas,Masyarakat Berpenghasilan Rendah (MBR),Kec. Tanah Sepenggal Ds. Pasar Lubuk Landai,30,450000,2017,,,,,,,,,,
1020,JAMBI,KABUPATEN BUNGO,RUMAH SWADAYA,Peningkatan Kualitas,Masyarakat Berpenghasilan Rendah (MBR),Kec. Tanah Sepenggal Ds. Empelu,31,465000,2017,,,,,,,,,,
1021,JAMBI,KABUPATEN BUNGO,RUMAH SWADAYA,Peningkatan Kualitas,Masyarakat Berpenghasilan Rendah (MBR),Kec. Tanah Sepenggal Ds. Teluk Pandak,26,390000,2017,,,,,,,,,,
1022,JAMBI,KABUPATEN BUNGO,RUMAH SWADAYA,Peningkatan Kualitas,Masyarakat Berpenghasilan Rendah (MBR),Kec. Tanah Sepenggal Ds. Candi,19,285000,2017,,,,,,,,,,
1023,JAMBI,KABUPATEN BUNGO,RUMAH SWADAYA,Peningkatan Kualitas,Masyarakat Berpenghasilan Rendah (MBR),Kec. Tanah Sepenggal Ds. Telentam,23,345000,2017,,,,,,,,,,
1024,JAMBI,KABUPATEN BUNGO,RUMAH SWADAYA,Peningkatan Kualitas,Masyarakat Berpenghasilan Rendah (MBR),Kec. Tanah Sepenggal Ds. Tenam,30,450000,2017,,,,,,,,,,
1025,JAMBI,KABUPATEN BUNGO,RUMAH SWADAYA,Peningkatan Kualitas,Masyarakat Berpenghasilan Rendah (MBR),Kec. Tanah Sepenggal Ds. Tanjung,28,420000,2017,,,,,,,,,,
1026,JAMBI,KABUPATEN BUNGO,RUMAH SWADAYA,Peningkatan Kualitas,Masyarakat Berpenghasilan Rendah (MBR),Kec. Tanah Sepenggal Ds. Pasar Rantau Embacang,28,420000,2017,,,,,,,,,,
1027,JAMBI,KABUPATEN BUNGO,RUMAH SWADAYA,Peningkatan Kualitas,Masyarakat Berpenghasilan Rendah (MBR),Kec. Tanah Sepenggal Ds. Sungai Gambir,26,390000,2017,,,,,,,,,,
1028,JAMBI,KABUPATEN BUNGO,RUMAH SWADAYA,Peningkatan Kualitas,Masyarakat Berpenghasilan Rendah (MBR),Kec. Tanah Sepenggal Ds. Tanah Bekali,21,315000,2017,,,,,,,,,,
1029,JAMBI,KABUPATEN KERINCI,RUMAH SWADAYA,Pembangunan baru,Masyarakat Berpenghasilan Rendah (MBR),"Kec. Gunung Tujuh, Ds.Bunbun Duri",17,275000,2015,,,,,,,,,,
1030,JAMBI,KABUPATEN KERINCI,RUMAH SWADAYA,Pembangunan baru,Masyarakat Berpenghasilan Rendah (MBR),"Kec. Gunung Tujuh, Ds.Jernih Jaya",64,972425,2015,,,,,,,,,,
1031,JAMBI,KABUPATEN KERINCI,RUMAH SWADAYA,Pembangunan baru,Masyarakat Berpenghasilan Rendah (MBR),"Kec. Gunung Tujuh, Ds.Pauh Tinggi",42,655000,2015,,,,,,,,,,
1032,JAMBI,KABUPATEN KERINCI,RUMAH SWADAYA,Pembangunan baru,Masyarakat Berpenghasilan Rendah (MBR),"Kec. Gunung Tujuh, Ds.Pelompek",36,555000,2015,,,,,,,,,,
1033,JAMBI,KABUPATEN KERINCI,RUMAH SWADAYA,Pembangunan baru,Masyarakat Berpenghasilan Rendah (MBR),"Kec. Gunung Tujuh, Ds.Tangkil",51,747500,2015,,,,,,,,,,
1034,JAMBI,KABUPATEN KERINCI,RUMAH SWADAYA,Pembangunan baru,Masyarakat Berpenghasilan Rendah (MBR),"Kec. Gunung Tujuh, Ds.Telun Berasap",18,280000,2015,,,,,,,,,,
1035,JAMBI,KABUPATEN KERINCI,RUMAH SWADAYA,Pembangunan baru,Masyarakat Berpenghasilan Rendah (MBR),"Kec. Gunung Tujuh, Ds.Lubuk Pauh",15,245000,2015,,,,,,,,,,
1036,JAMBI,KABUPATEN KERINCI,RUMAH SWADAYA,Pembangunan baru,Masyarakat Berpenghasilan Rendah (MBR),"Kec. Gunung Tujuh, Ds.Pelompek Pasar Baru",15,225000,2015,,,,,,,,,,
1037,JAMBI,KABUPATEN KERINCI,RUMAH SWADAYA,Pembangunan baru,Masyarakat Berpenghasilan Rendah (MBR),"Kec. Tabir Barat, Ds.Batang Kibul",81,1215000,2015,,,,,,,,,,
1038,JAMBI,KABUPATEN KERINCI,RUMAH SWADAYA,Pembangunan baru,Masyarakat Berpenghasilan Rendah (MBR),"Kec. Tabir Barat, Ds.Muara Kibul",60,900000,2015,,,,,,,,,,
1039,JAMBI,KABUPATEN KERINCI,RUMAH SWADAYA,Pembangunan baru,Masyarakat Berpenghasilan Rendah (MBR),"Kec. Tabir Barat, Ds.Pulau Lebar",28,420000,2015,,,,,,,,,,
1040,JAMBI,KABUPATEN KERINCI,RUMAH SWADAYA,Pembangunan baru,Masyarakat Berpenghasilan Rendah (MBR),"Kec. Tabir Barat, Ds.Pulau Terbakar",80,1200000,2015,,,,,,,,,,
1041,JAMBI,KABUPATEN KERINCI,RUMAH SWADAYA,Pembangunan baru,Masyarakat Berpenghasilan Rendah (MBR),"Kec. Tabir Barat, Ds.Tanjung Beringin",26,390000,2015,,,,,,,,,,
1042,JAMBI,KABUPATEN KERINCI,RUMAH SWADAYA,Peningkatan Kualitas,Masyarakat Berpenghasilan Rendah (MBR),"Kec. Gunung Tujuh, Ds.Bunbun Duri",14,140000,2015,,,,,,,,,,
1043,JAMBI,KABUPATEN KERINCI,RUMAH SWADAYA,Peningkatan Kualitas,Masyarakat Berpenghasilan Rendah (MBR),"Kec. Gunung Tujuh, Ds.Jernih Jaya",26,254995,2015,,,,,,,,,,
1044,JAMBI,KABUPATEN KERINCI,RUMAH SWADAYA,Peningkatan Kualitas,Masyarakat Berpenghasilan Rendah (MBR),"Kec. Gunung Tujuh, Ds.Pauh Tinggi",4,40000,2015,,,,,,,,,,
1045,JAMBI,KABUPATEN KERINCI,RUMAH SWADAYA,Peningkatan Kualitas,Masyarakat Berpenghasilan Rendah (MBR),"Kec. Gunung Tujuh, Ds.Pelompek",7,70000,2015,,,,,,,,,,
1046,JAMBI,KABUPATEN KERINCI,RUMAH SWADAYA,Peningkatan Kualitas,Masyarakat Berpenghasilan Rendah (MBR),"Kec. Gunung Tujuh, Ds.Tangkil",19,190000,2015,,,,,,,,,,
1047,JAMBI,KABUPATEN KERINCI,RUMAH SWADAYA,Peningkatan Kualitas,Masyarakat Berpenghasilan Rendah (MBR),"Kec. Gunung Tujuh, Ds.Telun Berasap",16,160000,2015,,,,,,,,,,
1048,JAMBI,KABUPATEN KERINCI,RUMAH SWADAYA,Peningkatan Kualitas,Masyarakat Berpenghasilan Rendah (MBR),"Kec. Gunung Tujuh, Ds.Lubuk Pauh",14,140000,2015,,,,,,,,,,
1049,JAMBI,KABUPATEN KERINCI,RUMAH SWADAYA,Peningkatan Kualitas,Masyarakat Berpenghasilan Rendah (MBR),"Kec. Gunung Tujuh, Ds.Pelompek Pasar Baru",10,100000,2015,,,,,,,,,,
1050,JAMBI,KABUPATEN KERINCI,RUMAH SWADAYA,Peningkatan Kualitas,Masyarakat Berpenghasilan Rendah (MBR),"Kec. Batang Merangin, Ds. Batang Merangin",30,450000,2016,,,,,,,,,,
1051,JAMBI,KABUPATEN KERINCI,RUMAH SWADAYA,Peningkatan Kualitas,Masyarakat Berpenghasilan Rendah (MBR),"Kec. Batang Merangin, Ds. Lubuk Paku",32,480000,2016,,,,,,,,,,
1052,JAMBI,KABUPATEN KERINCI,RUMAH SWADAYA,Peningkatan Kualitas,Masyarakat Berpenghasilan Rendah (MBR),"Kec. Batang Merangin, Ds. Pematang Lingkung",44,660000,2016,,,,,,,,,,
1053,JAMBI,KABUPATEN KERINCI,RUMAH SWADAYA,Peningkatan Kualitas,Masyarakat Berpenghasilan Rendah (MBR),"Kec. Gunung Tujuh, Ds. Bengkolan Duo",52,757500,2016,,,,,,,,,,
1054,JAMBI,KABUPATEN KERINCI,RUMAH SWADAYA,Peningkatan Kualitas,Masyarakat Berpenghasilan Rendah (MBR),"Kec. Gunung Tujuh, Ds. Sungai Jernih",38,570000,2016,,,,,,,,,,
1055,JAMBI,KABUPATEN KERINCI,RUMAH SWADAYA,Peningkatan Kualitas,Masyarakat Berpenghasilan Rendah (MBR),"Kec. Gunung Tujuh, Ds. Sungai Rumpun",36,530000,2016,,,,,,,,,,
1056,JAMBI,KABUPATEN KERINCI,RUMAH SWADAYA,Peningkatan Kualitas,Masyarakat Berpenghasilan Rendah (MBR),"Kec. Gunung Tujuh, Ds. Sungai Sikai",56,800000,2016,,,,,,,,,,
1057,JAMBI,KABUPATEN KERINCI,RUMAH SWADAYA,Peningkatan Kualitas,Masyarakat Berpenghasilan Rendah (MBR),"Kec. Kayu Aro, Ds. Mekar Sari",48,690000,2016,,,,,,,,,,
1058,JAMBI,KABUPATEN KERINCI,RUMAH SWADAYA,Peningkatan Kualitas,Masyarakat Berpenghasilan Rendah (MBR),"Kec. Gunung Kerinci, Ds. Danau Tinggi",64,960000,2016,,,,,,,,,,
1059,JAMBI,KABUPATEN KERINCI,RUMAH SWADAYA,Peningkatan Kualitas,Masyarakat Berpenghasilan Rendah (MBR),Kec. Bukit Kerman Ds. Pengasi Lama,28,420000,2017,,,,,,,,,,
1060,JAMBI,KABUPATEN KERINCI,RUMAH SWADAYA,Peningkatan Kualitas,Masyarakat Berpenghasilan Rendah (MBR),Kec. Batang Merangin Ds. Dusun Baru Pulau Sangkar,35,525000,2017,,,,,,,,,,
1061,JAMBI,KABUPATEN KERINCI,RUMAH SWADAYA,Peningkatan Kualitas,Masyarakat Berpenghasilan Rendah (MBR),Kec. Batang Merangin Ds. Pasar Tamiai,53,795000,2017,,,,,,,,,,
1062,JAMBI,KABUPATEN KERINCI,RUMAH SWADAYA,Peningkatan Kualitas,Masyarakat Berpenghasilan Rendah (MBR),Kec. Batang Merangin Ds. Tarutung,37,555000,2017,,,,,,,,,,
1063,JAMBI,KABUPATEN KERINCI,RUMAH SWADAYA,Peningkatan Kualitas,Masyarakat Berpenghasilan Rendah (MBR),Kec. Batang Merangin Ds. Tamiai,80,1200000,2017,,,,,,,,,,
1064,JAMBI,KABUPATEN MERANGIN,RUMAH SUSUN,Pembangunan baru,Masyarakat Berpenghasilan Rendah (MBR),"Jl. Tuanku Imam Bonjol, Desa/Kel. Pematang Kandis, Kec. Bangko, Kab. Merangin T. 36 / 5 Lt",70,25250000,2017,,,,,,,,,,
1065,JAMBI,KABUPATEN MERANGIN,RUMAH SWADAYA,Peningkatan Kualitas,Masyarakat Berpenghasilan Rendah (MBR),"Kec. Bangko, Ds.Mudo",20,300000,2016,,,,,,,,,,
1066,JAMBI,KABUPATEN MERANGIN,RUMAH SWADAYA,Peningkatan Kualitas,Masyarakat Berpenghasilan Rendah (MBR),"Kec. Tabir Lintas, Ds. Sidolego",30,360000,2016,,,,,,,,,,
1067,JAMBI,KABUPATEN MERANGIN,RUMAH SWADAYA,Peningkatan Kualitas,Masyarakat Berpenghasilan Rendah (MBR),"Kec. Tiang Pumpung, Ds.Sekancing Ilir",30,310000,2016,,,,,,,,,,
1068,JAMBI,KABUPATEN MERANGIN,RUMAH KHUSUS,Pembangunan baru,POLRI,"POLRES MERANGIN, Rumdin Polres Merangin, Desa Salambuku, Kec. Bangko",5,912065,2016,,,,,,,,,,
1069,JAMBI,KABUPATEN MUARO JAMBI,RUMAH SWADAYA,Peningkatan Kualitas,Masyarakat Berpenghasilan Rendah (MBR),"Kec. Jambi Luar Kota, Ds. Kedemangan",35,395000,2016,,,,,,,,,,
1070,JAMBI,KABUPATEN MUARO JAMBI,RUMAH SWADAYA,Peningkatan Kualitas,Masyarakat Berpenghasilan Rendah (MBR),"Kec. Jambi Luar Kota, Ds. Penyengat Olak",32,355000,2016,,,,,,,,,,
1071,JAMBI,KABUPATEN MUARO JAMBI,RUMAH SWADAYA,Peningkatan Kualitas,Masyarakat Berpenghasilan Rendah (MBR),"Kec. Jambi Luar Kota, Ds. Rengas Bandung",34,407500,2016,,,,,,,,,,
1072,JAMBI,KABUPATEN MUARO JAMBI,RUMAH SWADAYA,Peningkatan Kualitas,Masyarakat Berpenghasilan Rendah (MBR),"Kec. Jambi Luar Kota, Ds. Senaung",50,727035,2016,,,,,,,,,,
1073,JAMBI,KABUPATEN MUARO JAMBI,RUMAH SWADAYA,Peningkatan Kualitas,Masyarakat Berpenghasilan Rendah (MBR),"Kec. Jambi Luar Kota, Ds. Simpang Limo",34,445000,2016,,,,,,,,,,
1074,JAMBI,KABUPATEN MUARO JAMBI,RUMAH SWADAYA,Peningkatan Kualitas,Masyarakat Berpenghasilan Rendah (MBR),"Kec. Jambi Luar Kota, Ds. Simpang Sei Duren",32,387500,2016,,,,,,,,,,
1075,JAMBI,KABUPATEN MUARO JAMBI,RUMAH SWADAYA,Peningkatan Kualitas,Masyarakat Berpenghasilan Rendah (MBR),"Kec. Jambi Luar Kota, Ds. Sungai Duren",33,395000,2016,,,,,,,,,,
1076,JAMBI,KABUPATEN MUARO JAMBI,RUMAH SWADAYA,Peningkatan Kualitas,Masyarakat Berpenghasilan Rendah (MBR),Kec. Jambi Luar Kota Ds. Danau Sarang Elang,28,420000,2017,,,,,,,,,,
1077,JAMBI,KABUPATEN MUARO JAMBI,RUMAH SWADAYA,Peningkatan Kualitas,Masyarakat Berpenghasilan Rendah (MBR),Kec. Jambi Luar Kota Kel. Pijoan,21,315000,2017,,,,,,,,,,
1078,JAMBI,KABUPATEN MUARO JAMBI,RUMAH SWADAYA,Peningkatan Kualitas,Masyarakat Berpenghasilan Rendah (MBR),Kec. Jambi Luar Kota Ds. Muara Pijoan,49,735000,2017,,,,,,,,,,
1079,JAMBI,KABUPATEN MUARO JAMBI,RUMAH SWADAYA,Peningkatan Kualitas,Masyarakat Berpenghasilan Rendah (MBR),Kec. Jambi Luar Kota Ds. Pematang Gajah,24,360000,2017,,,,,,,,,,
1080,JAMBI,KABUPATEN MUARO JAMBI,RUMAH SWADAYA,Peningkatan Kualitas,Masyarakat Berpenghasilan Rendah (MBR),Kec. Kumpeh Ulu Ds. Solok,28,420000,2017,,,,,,,,,,
1081,JAMBI,KABUPATEN MUARO JAMBI,RUMAH SWADAYA,Peningkatan Kualitas,Masyarakat Berpenghasilan Rendah (MBR),Kec. Kumpeh Ulu Ds. Pudak,24,360000,2017,,,,,,,,,,
1082,JAMBI,KABUPATEN MUARO JAMBI,RUMAH SWADAYA,Peningkatan Kualitas,Masyarakat Berpenghasilan Rendah (MBR),Kec. Sungai Gelam Ds. Ladang Panjang,33,495000,2017,,,,,,,,,,
1083,JAMBI,KABUPATEN MUARO JAMBI,RUMAH SWADAYA,Peningkatan Kualitas,Masyarakat Berpenghasilan Rendah (MBR),Kec. Sungai Gelam Ds. Sungai Gelam,31,465000,2017,,,,,,,,,,
1084,JAMBI,KABUPATEN MUARO JAMBI,RUMAH UMUM DAN KOMERSIAL,PEMBANGUNAN PSU,Masyarakat Berpenghasilan Rendah (MBR),Mandalo Hill,150,981779,2016,,,,,,,,,,
1085,JAMBI,KABUPATEN MUARO JAMBI,RUMAH UMUM DAN KOMERSIAL,PEMBANGUNAN PSU,Masyarakat Berpenghasilan Rendah (MBR),Mandalo Park,200,1090005,2016,,,,,,,,,,
1086,JAMBI,KABUPATEN MUARO JAMBI,RUMAH UMUM DAN KOMERSIAL,PEMBANGUNAN PSU,Masyarakat Berpenghasilan Rendah (MBR),Perumahan Bakung Citra Lestari,64,243104,2017,,,,,,,,,,
1087,JAMBI,KABUPATEN MUARO JAMBI,RUMAH UMUM DAN KOMERSIAL,PEMBANGUNAN PSU,Masyarakat Berpenghasilan Rendah (MBR),Perumahan Puri Indah Permai,84,344402,2017,,,,,,,,,,
1088,JAMBI,KABUPATEN MUARO JAMBI,RUMAH KHUSUS,Pembangunan baru,POLRI,"Polres Muaro Jambi, Rumdin Polsubsektor Bahar Selatan, T.36 4 Unit dan T.54 1 Unit",5,682619,2015,,,,,,,,,,
1089,JAMBI,KABUPATEN MUARO JAMBI,RUMAH KHUSUS,Pembangunan baru,POLRI,"Polres Muaro Jambi, Rumdin Polsek Kumpeh Ulu, T.36 Koppel",4,546095,2015,,,,,,,,,,
1090,JAMBI,KABUPATEN MUARO JAMBI,RUMAH KHUSUS,Pembangunan baru,POLRI,"Polres Muaro Jambi, Rumdin Polsek Kumpeh Ilir,T.36 Koppel",4,546095,2015,,,,,,,,,,
1091,JAMBI,KABUPATEN MUARO JAMBI,RUMAH KHUSUS,Pembangunan baru,POLRI,"Polres Muaro Jambi, Rumdin Polsek Maro Sebo, T.36 Koppel",4,546095,2015,,,,,,,,,,
1092,JAMBI,KABUPATEN MUARO JAMBI,RUMAH SUSUN,Pembangunan baru,Santri,"PP. An-Nur Tangkit, Jl. An-Nur Rt.08 Rw.03, Ds.Tangkit, Kec. Sungai Gelam (12 LOS,L. 3)",30,8566470,2016,,,,,,,,,,
1093,JAMBI,KABUPATEN SAROLANGUN,RUMAH SWADAYA,Peningkatan Kualitas,Masyarakat Berpenghasilan Rendah (MBR),Kec. Air Hitam Ds. Bukit Suban,40,600000,2017,,,,,,,,,,
