NO,PROVINSI,KABUPATEN/ KOTA,PROGRAM,KEGIATAN,PENERIMA MANFAAT,KETERANGAN,UNIT,ANGGARAN,TAHUN,,,,,,,,,,
2190,JAWA TENGAH,KABUPATEN WONOSOBO,RUMAH SWADAYA,Peningkatan Kualitas,Masyarakat Berpenghasilan Rendah (MBR),"Kec. Sapuran, Ds. Surojoyo",30,450000,2016,,,,,,,,,,
2191,JAWA TENGAH,KABUPATEN WONOSOBO,RUMAH SWADAYA,Peningkatan Kualitas,Masyarakat Berpenghasilan Rendah (MBR),"Kec. Kaliwiro, Ds. Medono",28,420000,2016,,,,,,,,,,
2192,JAWA TENGAH,KABUPATEN WONOSOBO,RUMAH SWADAYA,Peningkatan Kualitas,Masyarakat Berpenghasilan Rendah (MBR),"Kec. Kertek, Ds. Reco",30,450000,2016,,,,,,,,,,
2193,JAWA TENGAH,KABUPATEN WONOSOBO,RUMAH SWADAYA,Peningkatan Kualitas,Masyarakat Berpenghasilan Rendah (MBR),"Kec. Garung, Ds. Sitiharjo",30,450000,2016,,,,,,,,,,
2194,JAWA TENGAH,KABUPATEN WONOSOBO,RUMAH SWADAYA,Peningkatan Kualitas,Masyarakat Berpenghasilan Rendah (MBR),"Kec. Kalibawang, Ds. Dempel",30,450000,2016,,,,,,,,,,
2195,JAWA TENGAH,KABUPATEN WONOSOBO,RUMAH SWADAYA,Peningkatan Kualitas,Masyarakat Berpenghasilan Rendah (MBR),Kec. Garung Ds. Garung,55,825000,2017,,,,,,,,,,
2196,JAWA TENGAH,KABUPATEN WONOSOBO,RUMAH SWADAYA,Peningkatan Kualitas,Masyarakat Berpenghasilan Rendah (MBR),Kec. Garung Ds. Tegalsari,113,1695000,2017,,,,,,,,,,
2197,JAWA TENGAH,KABUPATEN WONOSOBO,RUMAH SWADAYA,Peningkatan Kualitas,Masyarakat Berpenghasilan Rendah (MBR),Kec. Kalibawang Ds. Kalikarung,37,555000,2017,,,,,,,,,,
2198,JAWA TENGAH,KABUPATEN WONOSOBO,RUMAH SWADAYA,Peningkatan Kualitas,Masyarakat Berpenghasilan Rendah (MBR),Kec. Kalibawang Ds. Mergolangu,46,690000,2017,,,,,,,,,,
2199,JAWA TENGAH,KABUPATEN WONOSOBO,RUMAH SWADAYA,Peningkatan Kualitas,Masyarakat Berpenghasilan Rendah (MBR),Kec. Kalibawang Ds. Pengarengan,64,960000,2017,,,,,,,,,,
2200,JAWA TENGAH,KABUPATEN WONOSOBO,RUMAH UMUM DAN KOMERSIAL,PEMBANGUNAN PSU,Masyarakat Berpenghasilan Rendah (MBR),Griya Nirwana Asri,84,277282,2016,,,,,,,,,,
2201,JAWA TENGAH,KOTA PEKALONGAN,RUMAH SUSUN,Pembangunan baru,Masyarakat Berpenghasilan Rendah (MBR),"Pemerintah Kota Pekalongan, Jl. Pantaisari Kel. Panjang baru,  Kec. Pekalongan Utara (T.24,L5)",114,19934317,2016,,,,,,,,,,
2202,JAWA TENGAH,KOTA PEKALONGAN,RUMAH SWADAYA,Peningkatan Kualitas,Masyarakat Berpenghasilan Rendah (MBR),Kec. Pekalongan Selatan Des. Kuripan Yosorejo,25,265000,2015,,,,,,,,,,
2203,JAWA TENGAH,KOTA PEKALONGAN,RUMAH SWADAYA,Peningkatan Kualitas,Masyarakat Berpenghasilan Rendah (MBR),Kec. Pekalongan Utara Des. Panjang Wetan,13,165000,2015,,,,,,,,,,
2204,JAWA TENGAH,KOTA PEKALONGAN,RUMAH SWADAYA,Peningkatan Kualitas,Masyarakat Berpenghasilan Rendah (MBR),Kec. Pekalongan Utara Des. Panjang Baru,12,130000,2015,,,,,,,,,,
2205,JAWA TENGAH,KOTA PEKALONGAN,RUMAH SWADAYA,Peningkatan Kualitas,Masyarakat Berpenghasilan Rendah (MBR),"Kec. Pekalongan Utara, Ds. Kedangpanjang",50,645000,2016,,,,,,,,,,
2206,JAWA TENGAH,KOTA PEKALONGAN,RUMAH SWADAYA,Peningkatan Kualitas,Masyarakat Berpenghasilan Rendah (MBR),"Kec. Pekalongan Utara, Ds. Degayu",50,525000,2016,,,,,,,,,,
2207,JAWA TENGAH,KOTA PEKALONGAN,RUMAH SWADAYA,Peningkatan Kualitas,Masyarakat Berpenghasilan Rendah (MBR),"Kec. Pekalongan Utara, Ds. Panjang Baru",75,950000,2016,,,,,,,,,,
2208,JAWA TENGAH,KOTA PEKALONGAN,RUMAH SWADAYA,Peningkatan Kualitas,Masyarakat Berpenghasilan Rendah (MBR),"Kec. Pekalongan Barat, Ds. Pasir Kraton Kramat",48,180000,2016,,,,,,,,,,
2209,JAWA TENGAH,KOTA PEKALONGAN,RUMAH UMUM DAN KOMERSIAL,PEMBANGUNAN PSU,Masyarakat Berpenghasilan Rendah (MBR),Korpri Prajamulya,70,322126,2016,,,,,,,,,,
2210,JAWA TENGAH,KOTA SALATIGA,RUMAH UMUM DAN KOMERSIAL,PEMBANGUNAN PSU,Masyarakat Berpenghasilan Rendah (MBR),PNS  Prajamukti,152,697791,2016,,,,,,,,,,
2211,JAWA TENGAH,KOTA SALATIGA,RUMAH SUSUN,Pembangunan baru,Pekerja Industri,"Pemkot Salatiga, Kel. Noborejo, Kec. Argomulyo, (TB. 1,T.24,L5)",114,20822566,2016,,,,,,,,,,
2212,JAWA TENGAH,KOTA SEMARANG,RUMAH SUSUN,Pembangunan baru,Mahasiswa / Siswa,"PGRI Semarang, Jl. Sidodadi Timur No. 24 Kota Semarang T. 24 / 3 Lt", - , - ,2017,,,,,,,,,,
2213,JAWA TENGAH,KOTA SEMARANG,RUMAH SUSUN,Pembangunan baru,Pekerja Industri,"PEMKOT SEMARANG (RUSUNAWA KSP), Jl. Stasiun Raya, Kelurahan Jerakah, Kecamatan Tugu (T.45, L.3)",104,24791781,2015,,,,,,,,,,
2214,JAWA TENGAH,KOTA SEMARANG,RUMAH SUSUN,Pembangunan baru,PERGURUAN TINGGI,"Universitas Diponegoro, Jl. Prof. Sudarso, Kel. Bulusan, Kec. Tembalang (TB. 1,T.24,L5)",114,21233694,2016,,,,,,,,,,
2215,JAWA TENGAH,KOTA SEMARANG,RUMAH SUSUN,Pembangunan baru,POLRI,"POLDA JATENG, Jl. Jend Anton Sudjarwo No 218 Srondol (T.36, L.3)",48,12504947,2015,,,,,,,,,,
2216,JAWA TENGAH,KOTA SEMARANG,RUMAH SUSUN,Pembangunan baru,POLRI,"Asrama Rejomulyo, Jl. Purwosari Raya RT 05 RW 02 Kel. Rejosari Kec. Semarang Timur (T.36, L.3)",47,13663468,2016,,,,,,,,,,
2217,JAWA TENGAH,KOTA SEMARANG,RUMAH SUSUN,Pembangunan baru,POLRI,Jl. Purwosari Raya RT 05 RW 02 Kel. Rejosari Kec. Semarang Timur T. 36 / 3 Lt, - , - ,2017,,,,,,,,,,
2218,JAWA TENGAH,KOTA SEMARANG,RUMAH SUSUN,Pembangunan baru,TNI,"TNI AD, Yon Arhanudse 15/DBY, Jl. Kesatrian Jatingaleh Jati (T.45, L.3)",35,13145968,2015,,,,,,,,,,
2219,JAWA TENGAH,KOTA SURAKARTA,RUMAH SUSUN,Pembangunan baru,Mahasiswa / Siswa,"Jl. Agung Timur Mipitan, Kel. Mojosongo, Kota Surakarta T. 24 / 3 Lt",37, - ,2017,,,,,,,,,,
2220,JAWA TENGAH,KOTA SURAKARTA,RUMAH SUSUN,Pembangunan baru,Masyarakat Berpenghasilan Rendah (MBR),"HP 20, Kel. Mojosongo, Kota Surakarta T. 36 / 5 Lt",70,21750000,2017,,,,,,,,,,
2221,JAWA TENGAH,KOTA SURAKARTA,RUMAH SWADAYA,Peningkatan Kualitas,Masyarakat Berpenghasilan Rendah (MBR),"Kec. Jebres, Ds. Gendekan",26,390000,2016,,,,,,,,,,
2222,JAWA TENGAH,KOTA SURAKARTA,RUMAH SWADAYA,Peningkatan Kualitas,Masyarakat Berpenghasilan Rendah (MBR),"Kec. Jebres , Ds. Sewu",15,225000,2016,,,,,,,,,,
2223,JAWA TENGAH,KOTA SURAKARTA,RUMAH SWADAYA,Peningkatan Kualitas,Masyarakat Berpenghasilan Rendah (MBR),"Kec. Pasar Kliwon , Ds. Kedunglumbu",15,225000,2016,,,,,,,,,,
2224,JAWA TENGAH,KOTA SURAKARTA,RUMAH SWADAYA,Peningkatan Kualitas,Masyarakat Berpenghasilan Rendah (MBR),"Kec. Pasar Kliwon , Ds. Sangkrah",88,1320000,2016,,,,,,,,,,
2225,JAWA TENGAH,KOTA SURAKARTA,RUMAH SWADAYA,Peningkatan Kualitas,Masyarakat Berpenghasilan Rendah (MBR),"Kec. Pasar Kliwon , Ds. Semanggi",99,1484999,2016,,,,,,,,,,
2226,JAWA TENGAH,KOTA SURAKARTA,RUMAH SWADAYA,Peningkatan Kualitas,Masyarakat Berpenghasilan Rendah (MBR),"Kec. Banjarsari, Ds. Kadipiro",81,1210000,2016,,,,,,,,,,
2227,JAWA TENGAH,KOTA SURAKARTA,RUMAH SWADAYA,Peningkatan Kualitas,Masyarakat Berpenghasilan Rendah (MBR),"Kec. Jebres, Ds. Nusukan",79,875000,2016,,,,,,,,,,
2228,JAWA TENGAH,KOTA SURAKARTA,RUMAH SWADAYA,Peningkatan Kualitas,Masyarakat Berpenghasilan Rendah (MBR),"Kec. Jebres, Ds. Mojosongo",47,585000,2016,,,,,,,,,,
2229,JAWA TENGAH,KOTA SURAKARTA,RUMAH SWADAYA,Peningkatan Kualitas,Masyarakat Berpenghasilan Rendah (MBR),"Kec. Jebres, Ds. Jagalan",25,295000,2016,,,,,,,,,,
2230,JAWA TENGAH,KOTA SURAKARTA,RUMAH SWADAYA,Peningkatan Kualitas,Masyarakat Berpenghasilan Rendah (MBR),,200,3000000,2017,,,,,,,,,,
2231,JAWA TENGAH,KOTA SURAKARTA,RUMAH SUSUN,Pembangunan baru,Pekerja Industri,"Pemkot Surakarta, Kampung Jatirejo, Kel. Mojosongo, Kec. Jebres, Kota Surakarta (TB. 1,T.24,L5)",75,21985586,2016,,,,,,,,,,
2232,JAWA TENGAH,KOTA SURAKARTA,RUMAH SUSUN,Pembangunan baru,PERGURUAN TINGGI,"STIKES Aisyiah Surakarta, Jl. KH. Dewantara No. 10 Kentingan, Jebres Surakarta (T.24, L.4)",50,13922567,2015,,,,,,,,,,
2233,JAWA TENGAH,KOTA SURAKARTA,RUMAH SUSUN,Pembangunan baru,PERGURUAN TINGGI,"AKPER Mambaul Ulum Surakarta, Jl. Ring Road Utara Km. 0,3 Tawangsari Mojosongo Jebres Surakarta (T.24, L.4)",50,14291600,2015,,,,,,,,,,
2234,JAWA TENGAH,KOTA SURAKARTA,RUMAH SUSUN,Pembangunan baru,PERGURUAN TINGGI,"Universitas Negeri Sebelas Maret, Jl. Ir. Sutami 36A, Kec. Kentingan, Kota Surakarta (TB. 1,T.24,L5)",114,18184894,2016,,,,,,,,,,
2235,JAWA TENGAH,KOTA TEGAL,RUMAH SUSUN,Pembangunan baru,Masyarakat Berpenghasilan Rendah (MBR),"Jl. Belanak, Kel. Tegalsari, Kec. Tegal Barat, Kota Tegal T. 36/5 Lt",70,22500000,2017,,,,,,,,,,
2236,JAWA TIMUR,KABUPATEN BANYUWANGI,RUMAH SUSUN,Pembangunan baru,PERGURUAN TINGGI,"Sekolah Tinggi Agama Islam Darusalam (STAIDA) Banyuwangi, JL. PP. Darusalam Blokagung Jajag Banyuwangi Dusun Blokagung, Desa Karangdoro Kec. Tegal Sari (T.24, L.4)",50,10556939,2015,,,,,,,,,,
2237,JAWA TIMUR,KABUPATEN BLITAR,RUMAH SWADAYA,Pembangunan baru,Masyarakat Berpenghasilan Rendah (MBR),Kec. Wlingi Des. Babadan,9,180000,2015,,,,,,,,,,
2238,JAWA TIMUR,KABUPATEN BLITAR,RUMAH SWADAYA,Pembangunan baru,Masyarakat Berpenghasilan Rendah (MBR),Kec. Wlingi Des. Tembalang,3,60000,2015,,,,,,,,,,
2239,JAWA TIMUR,KABUPATEN BLITAR,RUMAH SWADAYA,Pembangunan baru,Masyarakat Berpenghasilan Rendah (MBR),Kec. Wlingi Des. Ngadirenggo,8,160000,2015,,,,,,,,,,
2240,JAWA TIMUR,KABUPATEN BLITAR,RUMAH SWADAYA,Pembangunan baru,Masyarakat Berpenghasilan Rendah (MBR),Kec. Kesamben Des. Bumirejo,5,100000,2015,,,,,,,,,,
2241,JAWA TIMUR,KABUPATEN BLITAR,RUMAH SWADAYA,Pembangunan baru,Masyarakat Berpenghasilan Rendah (MBR),Kec. Kesamben Des. Jugo,9,180000,2015,,,,,,,,,,
2242,JAWA TIMUR,KABUPATEN BLITAR,RUMAH SWADAYA,Pembangunan baru,Masyarakat Berpenghasilan Rendah (MBR),Kec. Kesamben Des. Kemirigede,7,140000,2015,,,,,,,,,,
2243,JAWA TIMUR,KABUPATEN BLITAR,RUMAH SWADAYA,Pembangunan baru,Masyarakat Berpenghasilan Rendah (MBR),Kec. Kesamben Des. Pagergunung,11,220000,2015,,,,,,,,,,
2244,JAWA TIMUR,KABUPATEN BLITAR,RUMAH SWADAYA,Pembangunan baru,Masyarakat Berpenghasilan Rendah (MBR),Kec. Kesamben Des. Pagerwojo,6,120000,2015,,,,,,,,,,
2245,JAWA TIMUR,KABUPATEN BLITAR,RUMAH SWADAYA,Pembangunan baru,Masyarakat Berpenghasilan Rendah (MBR),Kec. Kesamben Des. Sukoanyar,7,140000,2015,,,,,,,,,,
2246,JAWA TIMUR,KABUPATEN BLITAR,RUMAH SWADAYA,Pembangunan baru,Masyarakat Berpenghasilan Rendah (MBR),Kec. Kesamben Des. Tapakrejo,2,40000,2015,,,,,,,,,,
2247,JAWA TIMUR,KABUPATEN BLITAR,RUMAH SWADAYA,Pembangunan baru,Masyarakat Berpenghasilan Rendah (MBR),Kec. Kesamben Des. Tepas,1,20000,2015,,,,,,,,,,
2248,JAWA TIMUR,KABUPATEN BLITAR,RUMAH SWADAYA,Peningkatan Kualitas,Masyarakat Berpenghasilan Rendah (MBR),Kec. Wlingi Des. Babadan,10,120000,2015,,,,,,,,,,
2249,JAWA TIMUR,KABUPATEN BLITAR,RUMAH SWADAYA,Peningkatan Kualitas,Masyarakat Berpenghasilan Rendah (MBR),Kec. Wlingi Des. Tembalang,13,145000,2015,,,,,,,,,,
2250,JAWA TIMUR,KABUPATEN BLITAR,RUMAH SWADAYA,Peningkatan Kualitas,Masyarakat Berpenghasilan Rendah (MBR),Kec. Wlingi Des. Ngadirenggo,13,165000,2015,,,,,,,,,,
2251,JAWA TIMUR,KABUPATEN BLITAR,RUMAH SWADAYA,Peningkatan Kualitas,Masyarakat Berpenghasilan Rendah (MBR),Kec. Kesamben Des. Bumirejo,11,130000,2015,,,,,,,,,,
2252,JAWA TIMUR,KABUPATEN BLITAR,RUMAH SWADAYA,Peningkatan Kualitas,Masyarakat Berpenghasilan Rendah (MBR),Kec. Kesamben Des. Jugo,15,180000,2015,,,,,,,,,,
2253,JAWA TIMUR,KABUPATEN BLITAR,RUMAH SWADAYA,Peningkatan Kualitas,Masyarakat Berpenghasilan Rendah (MBR),Kec. Kesamben Des. Kemirigede,15,195000,2015,,,,,,,,,,
2254,JAWA TIMUR,KABUPATEN BLITAR,RUMAH SWADAYA,Peningkatan Kualitas,Masyarakat Berpenghasilan Rendah (MBR),Kec. Kesamben Des. Pagergunung,9,125000,2015,,,,,,,,,,
2255,JAWA TIMUR,KABUPATEN BLITAR,RUMAH SWADAYA,Peningkatan Kualitas,Masyarakat Berpenghasilan Rendah (MBR),Kec. Kesamben Des. Pagerwojo,19,255000,2015,,,,,,,,,,
2256,JAWA TIMUR,KABUPATEN BLITAR,RUMAH SWADAYA,Peningkatan Kualitas,Masyarakat Berpenghasilan Rendah (MBR),Kec. Kesamben Des. Sukoanyar,11,165000,2015,,,,,,,,,,
2257,JAWA TIMUR,KABUPATEN BLITAR,RUMAH SWADAYA,Peningkatan Kualitas,Masyarakat Berpenghasilan Rendah (MBR),Kec. Kesamben Des. Tapakrejo,14,180000,2015,,,,,,,,,,
2258,JAWA TIMUR,KABUPATEN BLITAR,RUMAH SWADAYA,Peningkatan Kualitas,Masyarakat Berpenghasilan Rendah (MBR),Kec. Kesamben Des. Tepas,19,255000,2015,,,,,,,,,,
2259,JAWA TIMUR,KABUPATEN BLITAR,RUMAH SWADAYA,Peningkatan Kualitas,Masyarakat Berpenghasilan Rendah (MBR),"Kec. Selorejo, Ds. Banjarsari",9,130000,2016,,,,,,,,,,
2260,JAWA TIMUR,KABUPATEN BLITAR,RUMAH SWADAYA,Peningkatan Kualitas,Masyarakat Berpenghasilan Rendah (MBR),"Kec. Selorejo, Ds. Pohgajih",34,490000,2016,,,,,,,,,,
2261,JAWA TIMUR,KABUPATEN BLITAR,RUMAH SWADAYA,Peningkatan Kualitas,Masyarakat Berpenghasilan Rendah (MBR),"Kec. Selorejo, Ds. Selorejo",19,285000,2016,,,,,,,,,,
2262,JAWA TIMUR,KABUPATEN BLITAR,RUMAH SWADAYA,Peningkatan Kualitas,Masyarakat Berpenghasilan Rendah (MBR),"Kec. Selorejo, Ds. Ngrendeng",29,435000,2016,,,,,,,,,,
2263,JAWA TIMUR,KABUPATEN BLITAR,RUMAH SWADAYA,Peningkatan Kualitas,Masyarakat Berpenghasilan Rendah (MBR),"Kec. Selorejo, Ds. Sidomulyo",21,315000,2016,,,,,,,,,,
2264,JAWA TIMUR,KABUPATEN BLITAR,RUMAH SWADAYA,Peningkatan Kualitas,Masyarakat Berpenghasilan Rendah (MBR),"Kec. Selorejo, Ds. Ampelgading",25,375000,2016,,,,,,,,,,
2265,JAWA TIMUR,KABUPATEN BLITAR,RUMAH SWADAYA,Peningkatan Kualitas,Masyarakat Berpenghasilan Rendah (MBR),"Kec. Selorejo, Ds. Olak Alen",19,270000,2016,,,,,,,,,,
2266,JAWA TIMUR,KABUPATEN BLITAR,RUMAH SWADAYA,Peningkatan Kualitas,Masyarakat Berpenghasilan Rendah (MBR),Kec. Doko Ds. Kalimanis,44,660000,2017,,,,,,,,,,
2267,JAWA TIMUR,KABUPATEN BLITAR,RUMAH SWADAYA,Peningkatan Kualitas,Masyarakat Berpenghasilan Rendah (MBR),Kec. Doko Ds. Resapombo,32,480000,2017,,,,,,,,,,
2268,JAWA TIMUR,KABUPATEN BLITAR,RUMAH SWADAYA,Peningkatan Kualitas,Masyarakat Berpenghasilan Rendah (MBR),Kec. Doko Ds. Sumber Urip,37,555000,2017,,,,,,,,,,
2269,JAWA TIMUR,KABUPATEN BLITAR,RUMAH SWADAYA,Peningkatan Kualitas,Masyarakat Berpenghasilan Rendah (MBR),Kec. Gandusari Ds. Krisik,92,1380000,2017,,,,,,,,,,
2270,JAWA TIMUR,KABUPATEN BLITAR,RUMAH SWADAYA,Peningkatan Kualitas,Masyarakat Berpenghasilan Rendah (MBR),Kec. Gandusari Ds. Ngaringan,67,1005000,2017,,,,,,,,,,
2271,JAWA TIMUR,KABUPATEN BOJONEGORO,RUMAH KHUSUS,Pembangunan baru,POLRI,"POLRES BOJONEGORO, Jl. Lisman 60 Ds. Campurejo",8,1444815,2016,,,,,,,,,,
2272,JAWA TIMUR,KABUPATEN GRESIK,RUMAH KHUSUS,Pembangunan baru,TNI,"Mabes AD, DAM V BRW Korem 084 Surabaya, Desa Wedoro Anom, Briyorejo,
Gresik",20,4350155,2015,,,,,,,,,,
2273,JAWA TIMUR,KABUPATEN GRESIK,RUMAH KHUSUS,Pembangunan baru,TNI,"KODAM V/BRW, Asrama Gabungan, Ds. Wedoro Anom",10,2562716,2016,,,,,,,,,,
2274,JAWA TIMUR,KABUPATEN JEMBER,RUMAH SWADAYA,Peningkatan Kualitas,Masyarakat Berpenghasilan Rendah (MBR),Kec. Kalisat Ds. Ajung,117,1755000,2017,,,,,,,,,,
2275,JAWA TIMUR,KABUPATEN JEMBER,RUMAH SWADAYA,Peningkatan Kualitas,Masyarakat Berpenghasilan Rendah (MBR),Kec. Sukowono Ds. Mojogeni,80,1200000,2017,,,,,,,,,,
2276,JAWA TIMUR,KABUPATEN JEMBER,RUMAH SWADAYA,Peningkatan Kualitas,Masyarakat Berpenghasilan Rendah (MBR),Kec. Sukowono Ds. Sukorejo,50,750000,2017,,,,,,,,,,
2277,JAWA TIMUR,KABUPATEN JEMBER,RUMAH SWADAYA,Peningkatan Kualitas,Masyarakat Berpenghasilan Rendah (MBR),Kec. Sukowono Ds. Sumberdanti,50,750000,2017,,,,,,,,,,
2278,JAWA TIMUR,KABUPATEN JEMBER,RUMAH UMUM DAN KOMERSIAL,PEMBANGUNAN PSU,Masyarakat Berpenghasilan Rendah (MBR),Istana Tegal Besar,350,1742790,2015,,,,,,,,,,
2279,JAWA TIMUR,KABUPATEN JEMBER,RUMAH UMUM DAN KOMERSIAL,PEMBANGUNAN PSU,Masyarakat Berpenghasilan Rendah (MBR),Queen Gardenia,170,845531,2015,,,,,,,,,,
2280,JAWA TIMUR,KABUPATEN JEMBER,RUMAH UMUM DAN KOMERSIAL,PEMBANGUNAN PSU,Masyarakat Berpenghasilan Rendah (MBR),Royal City Residence,103,443956,2016,,,,,,,,,,
2281,JAWA TIMUR,KABUPATEN JEMBER,RUMAH SUSUN,Pembangunan baru,PERGURUAN TINGGI,"STAIN JEMBER, Jl. WR Supratman no 5 (T.24, L.4)",50,10669195,2015,,,,,,,,,,
2282,JAWA TIMUR,KABUPATEN JEMBER,RUMAH SUSUN,Pembangunan baru,Santri,"PP. Darul Falah Jember, Desa Wirowongso Kec. Ajung (LOS.12, L.3)",30,8055118,2015,,,,,,,,,,
2283,JAWA TIMUR,KABUPATEN JEMBER,RUMAH SUSUN,Pembangunan baru,TNI,"KOSTRAD, Yonif 509/BY, Jl. Tidar Sukorejo (T.45, L.3)",35,12648077,2015,,,,,,,,,,
2284,JAWA TIMUR,KABUPATEN JEMBER,RUMAH SUSUN,Pembangunan baru,TNI,"KOSTRAD, Yonif 515/UTY, Jl. Dr. Subandi Tanggul (T.45, L.3)",35,13697198,2015,,,,,,,,,,
2285,JAWA TIMUR,KABUPATEN JOMBANG,RUMAH SWADAYA,Pembangunan baru,Masyarakat Berpenghasilan Rendah (MBR),Kec. Ploso Des. Ploso,56,840000,2015,,,,,,,,,,
2286,JAWA TIMUR,KABUPATEN JOMBANG,RUMAH SWADAYA,Pembangunan baru,Masyarakat Berpenghasilan Rendah (MBR),Kec. Ploso Des. Jatigedong,63,945000,2015,,,,,,,,,,
2287,JAWA TIMUR,KABUPATEN JOMBANG,RUMAH SWADAYA,Pembangunan baru,Masyarakat Berpenghasilan Rendah (MBR),Kec. Ploso Des. Rejoagung,200,3000000,2015,,,,,,,,,,
2288,JAWA TIMUR,KABUPATEN JOMBANG,RUMAH SWADAYA,Pembangunan baru,Masyarakat Berpenghasilan Rendah (MBR),Kec. Kabuh Des. Sumberaji,166,2490000,2015,,,,,,,,,,
