NO,PROVINSI,KABUPATEN/ KOTA,PROGRAM,KEGIATAN,PENERIMA MANFAAT,KETERANGAN,UNIT,ANGGARAN,TAHUN,,,,,,,,,,
500,BENGKULU,KABUPATEN KEPAHIANG,RUMAH SWADAYA,Peningkatan Kualitas,Masyarakat Berpenghasilan Rendah (MBR),Kec. Bermani Ilir Ds. Sosokan Cinto Mandi,28,420000,2017,,,,,,,,,,
501,BENGKULU,KABUPATEN KEPAHIANG,RUMAH KHUSUS,Pembangunan baru,POLRI,"POLRES KEPAHYANG Pemb Rumdin Ba Polres Kepahyang, T.36 Koppel, Jln Raya Kepahyang Curup-Kec.Kepahyang",10,1110726,2015,,,,,,,,,,
502,BENGKULU,KABUPATEN LEBONG,RUMAH SWADAYA,Peningkatan Kualitas,Masyarakat Berpenghasilan Rendah (MBR),"Kec. Kecamatan Lebong Utara, Ds. Ladang Palembang",72,799996,2015,,,,,,,,,,
503,BENGKULU,KABUPATEN LEBONG,RUMAH SWADAYA,Peningkatan Kualitas,Masyarakat Berpenghasilan Rendah (MBR),"Kec. Kecamatan Lebong Utara, Ds. Lokasari",46,529271,2015,,,,,,,,,,
504,BENGKULU,KABUPATEN LEBONG,RUMAH SWADAYA,Peningkatan Kualitas,Masyarakat Berpenghasilan Rendah (MBR),"Kec. Kecamatan Lebong Utara, Ds. Gandung",22,259938,2015,,,,,,,,,,
505,BENGKULU,KABUPATEN LEBONG,RUMAH SWADAYA,Peningkatan Kualitas,Masyarakat Berpenghasilan Rendah (MBR),"Kec. Kecamatan Lebong Utara, Ds. Gandung Baru",43,514854,2015,,,,,,,,,,
506,BENGKULU,KABUPATEN LEBONG,RUMAH SWADAYA,Peningkatan Kualitas,Masyarakat Berpenghasilan Rendah (MBR),"Kec. Kecamatan Lebong Utara, Ds. Kampung Muara Aman",17,169985,2015,,,,,,,,,,
507,BENGKULU,KABUPATEN LEBONG,RUMAH SWADAYA,Peningkatan Kualitas,Masyarakat Berpenghasilan Rendah (MBR),"Kec. Kecamatan Lebong Utara, Ds. Pasar Muara Aman",11,144998,2015,,,,,,,,,,
508,BENGKULU,KABUPATEN LEBONG,RUMAH SWADAYA,Peningkatan Kualitas,Masyarakat Berpenghasilan Rendah (MBR),"Kec. Kecamatan Lebong Utara, Ds. Tunggang",40,484540,2015,,,,,,,,,,
509,BENGKULU,KABUPATEN LEBONG,RUMAH SWADAYA,Peningkatan Kualitas,Masyarakat Berpenghasilan Rendah (MBR),"Kec. Lebong Utara, Ds. Tunggang",41,487500,2016,,,,,,,,,,
510,BENGKULU,KABUPATEN LEBONG,RUMAH SWADAYA,Peningkatan Kualitas,Masyarakat Berpenghasilan Rendah (MBR),"Kec. Lebong Utara, Ds. Nangai Amen",78,995000,2016,,,,,,,,,,
511,BENGKULU,KABUPATEN LEBONG,RUMAH SWADAYA,Peningkatan Kualitas,Masyarakat Berpenghasilan Rendah (MBR),"Kec. Lebong Selatan, Ds. Tes",83,1132500,2016,,,,,,,,,,
512,BENGKULU,KABUPATEN LEBONG,RUMAH SWADAYA,Peningkatan Kualitas,Masyarakat Berpenghasilan Rendah (MBR),"Kec. Lebong Atas, Ds. Sukau Kayo",44,535000,2016,,,,,,,,,,
513,BENGKULU,KABUPATEN LEBONG,RUMAH SWADAYA,Peningkatan Kualitas,Masyarakat Berpenghasilan Rendah (MBR),"Kec. Lebong Atas, Ds. Tabeak Blau",56,640000,2016,,,,,,,,,,
514,BENGKULU,KABUPATEN LEBONG,RUMAH SWADAYA,Peningkatan Kualitas,Masyarakat Berpenghasilan Rendah (MBR),"Kec. Pelabai, Ds. Pelabai",74,887500,2016,,,,,,,,,,
515,BENGKULU,KABUPATEN LEBONG,RUMAH SWADAYA,Peningkatan Kualitas,Masyarakat Berpenghasilan Rendah (MBR),Kec. Rimbo Pengadang Ds. Rimbo Pengadang,26,390000,2017,,,,,,,,,,
516,BENGKULU,KABUPATEN LEBONG,RUMAH SWADAYA,Peningkatan Kualitas,Masyarakat Berpenghasilan Rendah (MBR),Kec. Rimbo Pengadang Ds. Teluk Dien,39,585000,2017,,,,,,,,,,
517,BENGKULU,KABUPATEN LEBONG,RUMAH SWADAYA,Peningkatan Kualitas,Masyarakat Berpenghasilan Rendah (MBR),Kec. Lebong Selatan Ds. Taba Anyar,30,450000,2017,,,,,,,,,,
518,BENGKULU,KABUPATEN LEBONG,RUMAH SWADAYA,Peningkatan Kualitas,Masyarakat Berpenghasilan Rendah (MBR),Kec. Lebong Selatan Ds. Manai Blau,39,585000,2017,,,,,,,,,,
519,BENGKULU,KABUPATEN LEBONG,RUMAH SWADAYA,Peningkatan Kualitas,Masyarakat Berpenghasilan Rendah (MBR),Kec. Lebong Selatan Ds. Suko Sari,30,450000,2017,,,,,,,,,,
520,BENGKULU,KABUPATEN LEBONG,RUMAH SWADAYA,Peningkatan Kualitas,Masyarakat Berpenghasilan Rendah (MBR),Kec. Lebong Selatan Ds. Mangku Rajo,44,660000,2017,,,,,,,,,,
521,BENGKULU,KABUPATEN LEBONG,RUMAH SWADAYA,Peningkatan Kualitas,Masyarakat Berpenghasilan Rendah (MBR),Kec. Lebong Selatan Ds. Tik Jeniak,32,480000,2017,,,,,,,,,,
522,BENGKULU,KABUPATEN MUKOMUKO,RUMAH KHUSUS,Pembangunan baru,POLRI,"BRIMOB, Pemb Rumdin Ba Kie Por Curup, T.36 Koppel, Jln Terminal Simpang Nangka",10,1110726,2015,,,,,,,,,,
523,BENGKULU,KABUPATEN MUKOMUKO,RUMAH SWADAYA,Peningkatan Kualitas,Masyarakat Berpenghasilan Rendah (MBR),Kec. Air Manjunto Ds. Pondok Makmur,26,390000,2017,,,,,,,,,,
524,BENGKULU,KABUPATEN MUKOMUKO,RUMAH SWADAYA,Peningkatan Kualitas,Masyarakat Berpenghasilan Rendah (MBR),Kec. Air Manjunto Ds. Tirta Makmur,36,540000,2017,,,,,,,,,,
525,BENGKULU,KABUPATEN MUKOMUKO,RUMAH SWADAYA,Peningkatan Kualitas,Masyarakat Berpenghasilan Rendah (MBR),Kec. Air Rami Ds. Air Rami,26,390000,2017,,,,,,,,,,
526,BENGKULU,KABUPATEN MUKOMUKO,RUMAH SWADAYA,Peningkatan Kualitas,Masyarakat Berpenghasilan Rendah (MBR),Kec. Air Rami Ds. Dusun Pulau,30,450000,2017,,,,,,,,,,
527,BENGKULU,KABUPATEN MUKOMUKO,RUMAH SWADAYA,Peningkatan Kualitas,Masyarakat Berpenghasilan Rendah (MBR),Kec. Ipuh Ds. Semundam,34,510000,2017,,,,,,,,,,
528,BENGKULU,KABUPATEN MUKOMUKO,RUMAH SWADAYA,Peningkatan Kualitas,Masyarakat Berpenghasilan Rendah (MBR),Kec. Penarik Ds. Sido Mulyo,52,780000,2017,,,,,,,,,,
529,BENGKULU,KABUPATEN REJANG LEBONG,RUMAH SWADAYA,Peningkatan Kualitas,Masyarakat Berpenghasilan Rendah (MBR),Kec. Bermani Ulu Ds. Air Pikat,67,1005000,2017,,,,,,,,,,
530,BENGKULU,KABUPATEN REJANG LEBONG,RUMAH SWADAYA,Peningkatan Kualitas,Masyarakat Berpenghasilan Rendah (MBR),Kec. Bermani Ulu Ds. Baru Manis,22,330000,2017,,,,,,,,,,
531,BENGKULU,KABUPATEN REJANG LEBONG,RUMAH SWADAYA,Peningkatan Kualitas,Masyarakat Berpenghasilan Rendah (MBR),Kec. Bermani Ulu Ds. Kampung Melayu,45,675000,2017,,,,,,,,,,
532,BENGKULU,KABUPATEN REJANG LEBONG,RUMAH SWADAYA,Peningkatan Kualitas,Masyarakat Berpenghasilan Rendah (MBR),Kec. Bermani Ulu Ds. Pagar Gunung,49,735000,2017,,,,,,,,,,
533,BENGKULU,KABUPATEN REJANG LEBONG,RUMAH SWADAYA,Peningkatan Kualitas,Masyarakat Berpenghasilan Rendah (MBR),Kec. Bermani Ulu Ds. Purwodadi,37,555000,2017,,,,,,,,,,
534,BENGKULU,KABUPATEN SELUMA,RUMAH SWADAYA,Peningkatan Kualitas,Masyarakat Berpenghasilan Rendah (MBR),"Kec. Suka Raja, Ds. Sukaraja",104,1387500,2016,,,,,,,,,,
535,BENGKULU,KABUPATEN SELUMA,RUMAH SWADAYA,Peningkatan Kualitas,Masyarakat Berpenghasilan Rendah (MBR),"Kec. Suka Raja, Ds. Cahaya Negeri",90,1222500,2016,,,,,,,,,,
536,BENGKULU,KABUPATEN SELUMA,RUMAH SWADAYA,Peningkatan Kualitas,Masyarakat Berpenghasilan Rendah (MBR),"Kec. Periukan, Ds. Talang Sebaris",51,745000,2016,,,,,,,,,,
537,BENGKULU,KABUPATEN SELUMA,RUMAH SWADAYA,Peningkatan Kualitas,Masyarakat Berpenghasilan Rendah (MBR),"Kec. Semidang Alas Maras, Ds. Gunung Bantan",30,397500,2016,,,,,,,,,,
538,BENGKULU,KABUPATEN SELUMA,RUMAH SWADAYA,Peningkatan Kualitas,Masyarakat Berpenghasilan Rendah (MBR),"Kec. Ilir Talo, Ds. Pasar Talo",38,510000,2016,,,,,,,,,,
539,BENGKULU,KABUPATEN SELUMA,RUMAH SWADAYA,Peningkatan Kualitas,Masyarakat Berpenghasilan Rendah (MBR),"Kec. Tanah Abang, Ds. Gunung Bantan",39,580000,2016,,,,,,,,,,
540,BENGKULU,KABUPATEN SELUMA,RUMAH SWADAYA,Peningkatan Kualitas,Masyarakat Berpenghasilan Rendah (MBR),Kec. Ilir Talo Ds. Dusun Baru,33,495000,2017,,,,,,,,,,
541,BENGKULU,KABUPATEN SELUMA,RUMAH SWADAYA,Peningkatan Kualitas,Masyarakat Berpenghasilan Rendah (MBR),Kec. Ilir Talo Ds. Padang Cekur,28,420000,2017,,,,,,,,,,
542,BENGKULU,KABUPATEN SELUMA,RUMAH SWADAYA,Peningkatan Kualitas,Masyarakat Berpenghasilan Rendah (MBR),Kec. Ilir Talo Ds. Penago I,21,315000,2017,,,,,,,,,,
543,BENGKULU,KABUPATEN SELUMA,RUMAH SWADAYA,Peningkatan Kualitas,Masyarakat Berpenghasilan Rendah (MBR),Kec. Ilir Talo Ds. Penago II,26,390000,2017,,,,,,,,,,
544,BENGKULU,KABUPATEN SELUMA,RUMAH SWADAYA,Peningkatan Kualitas,Masyarakat Berpenghasilan Rendah (MBR),Kec. Ilir Talo Ds. Talang Kabu,44,660000,2017,,,,,,,,,,
545,BENGKULU,KABUPATEN SELUMA,RUMAH SWADAYA,Peningkatan Kualitas,Masyarakat Berpenghasilan Rendah (MBR),Kec. Ilir Talo Ds. Talang Panjang,31,465000,2017,,,,,,,,,,
546,BENGKULU,KABUPATEN SELUMA,RUMAH SWADAYA,Peningkatan Kualitas,Masyarakat Berpenghasilan Rendah (MBR),Kec. Sukaraja Ds. Kuti Agung,41,615000,2017,,,,,,,,,,
547,BENGKULU,KABUPATEN SELUMA,RUMAH KHUSUS,Pembangunan baru,POLRI,"POLRES SELUMA, Asrama Polres Seluma, Kel.Sembayat ",18,3362190,2016,,,,,,,,,,
548,BENGKULU,KABUPATEN SELUMA,RUMAH KHUSUS,Pembangunan baru,POLRI,"POLRES SELUMA, Pemb Rumdin Ba Polres Seluma, T.36 Koppel, Jln Raya Bengkulu- Manna Des.Selebar Kec. Seluma Timur",10,1110726,2015,,,,,,,,,,
549,BENGKULU,KABUPATEN SELUMA,RUMAH KHUSUS,Pembangunan baru,TNI,"TNI AD, DAM II SWJ Kodim 0425/Seluma, Desa Tals ",20,3916642,2015,,,,,,,,,,
550,BENGKULU,KOTA BENGKULU,RUMAH SWADAYA,Peningkatan Kualitas,Masyarakat Berpenghasilan Rendah (MBR),"Kec. Selebar, Ds. Betungan",65,832500,2016,,,,,,,,,,
551,BENGKULU,KOTA BENGKULU,RUMAH SWADAYA,Peningkatan Kualitas,Masyarakat Berpenghasilan Rendah (MBR),"Kec. Muara Bangkahulu, Ds. Kandang Limun",50,605000,2016,,,,,,,,,,
552,BENGKULU,KOTA BENGKULU,RUMAH SWADAYA,Peningkatan Kualitas,Masyarakat Berpenghasilan Rendah (MBR),"Kec. Muara Bangkahulu, Ds. Bentiring Permai",45,565000,2016,,,,,,,,,,
553,BENGKULU,KOTA BENGKULU,RUMAH SWADAYA,Peningkatan Kualitas,Masyarakat Berpenghasilan Rendah (MBR),"Kec. Kampung Melayu, Ds. Kandang",34,457500,2016,,,,,,,,,,
554,BENGKULU,KOTA BENGKULU,RUMAH SWADAYA,Peningkatan Kualitas,Masyarakat Berpenghasilan Rendah (MBR),"Kec. Kampung Melayu, Ds. Sumberjaya",73,957500,2016,,,,,,,,,,
555,BENGKULU,KOTA BENGKULU,RUMAH UMUM DAN KOMERSIAL,PEMBANGUNAN PSU,Masyarakat Berpenghasilan Rendah (MBR),Betungan Rafflesia Asri,202,1404424,2016,,,,,,,,,,
556,BENGKULU,KOTA BENGKULU,RUMAH UMUM DAN KOMERSIAL,PEMBANGUNAN PSU,Masyarakat Berpenghasilan Rendah (MBR),Ejukha Residence Permai,90,625707,2016,,,,,,,,,,
557,BENGKULU,KOTA BENGKULU,RUMAH UMUM DAN KOMERSIAL,PEMBANGUNAN PSU,Masyarakat Berpenghasilan Rendah (MBR),Bumi Persada Indah,79,430121,2016,,,,,,,,,,
558,BENGKULU,KOTA BENGKULU,RUMAH UMUM DAN KOMERSIAL,PEMBANGUNAN PSU,Masyarakat Berpenghasilan Rendah (MBR),Perumahan Royal Residence 2,119,462688,2017,,,,,,,,,,
559,BENGKULU,KOTA BENGKULU,RUMAH UMUM DAN KOMERSIAL,PEMBANGUNAN PSU,Masyarakat Berpenghasilan Rendah (MBR),Perumahan Pondok Kharisma Permai,71,276435,2017,,,,,,,,,,
560,BENGKULU,KOTA BENGKULU,RUMAH UMUM DAN KOMERSIAL,PEMBANGUNAN PSU,Masyarakat Berpenghasilan Rendah (MBR),Perumahan Sukarami Indah Estate,70,324925,2017,,,,,,,,,,
561,BENGKULU,KOTA BENGKULU,RUMAH KHUSUS,Pembangunan baru,NELAYAN,"Desa Sumberjaya, Kec. Kampung Melayu",52,7183542,2016,,,,,,,,,,
562,BENGKULU,KOTA BENGKULU,RUMAH KHUSUS,Pembangunan baru,NELAYAN,Desa Sumberjaya,50,8250000,2017,,,,,,,,,,
563,BENGKULU,KOTA BENGKULU,RUMAH SUSUN,Pembangunan baru,PERGURUAN TINGGI,"Universitas Muhammadiyah Bengkulu (Pengganti UGM), Jalan Adam Malik Km 9, Kelurahan Gading Cempaka, Kec. Cempaka Permai (T.24, L.4)",90,17992221,2016,,,,,,,,,,
564,DI YOGYAKARTA,KABUPATEN BANTUL,RUMAH SWADAYA,Pembangunan baru,Masyarakat Berpenghasilan Rendah (MBR),Kec. Dlingo Des. Mangunan an,67,1005000,2015,,,,,,,,,,
565,DI YOGYAKARTA,KABUPATEN BANTUL,RUMAH SWADAYA,Pembangunan baru,Masyarakat Berpenghasilan Rendah (MBR),Kec. Dlingo Des. Jatimulyo,214,3600000,2015,,,,,,,,,,
566,DI YOGYAKARTA,KABUPATEN BANTUL,RUMAH SWADAYA,Pembangunan baru,Masyarakat Berpenghasilan Rendah (MBR),Kec. Dlingo Des. Temuwuh,351,5640000,2015,,,,,,,,,,
567,DI YOGYAKARTA,KABUPATEN BANTUL,RUMAH SWADAYA,Pembangunan baru,Masyarakat Berpenghasilan Rendah (MBR),Kec. Dlingo Des. Dlingo,45,1035000,2015,,,,,,,,,,
568,DI YOGYAKARTA,KABUPATEN BANTUL,RUMAH SWADAYA,Pembangunan baru,Masyarakat Berpenghasilan Rendah (MBR),Kec. Dlingo Des. Terong,114,2145000,2015,,,,,,,,,,
569,DI YOGYAKARTA,KABUPATEN BANTUL,RUMAH SWADAYA,Pembangunan baru,Masyarakat Berpenghasilan Rendah (MBR),Kec. Dlingo Des. Muntuk,147,2715000,2015,,,,,,,,,,
570,DI YOGYAKARTA,KABUPATEN BANTUL,RUMAH SWADAYA,Peningkatan Kualitas,Masyarakat Berpenghasilan Rendah (MBR),Kec. Dlingo Des. Mangunan an,1,10000,2015,,,,,,,,,,
571,DI YOGYAKARTA,KABUPATEN BANTUL,RUMAH SWADAYA,Peningkatan Kualitas,Masyarakat Berpenghasilan Rendah (MBR),Kec. Dlingo Des. Temuwuh,3,30000,2015,,,,,,,,,,
572,DI YOGYAKARTA,KABUPATEN BANTUL,RUMAH SWADAYA,Peningkatan Kualitas,Masyarakat Berpenghasilan Rendah (MBR),Kec. Dlingo Des. Muntuk,1,10000,2015,,,,,,,,,,
573,DI YOGYAKARTA,KABUPATEN BANTUL,RUMAH SWADAYA,Peningkatan Kualitas,Masyarakat Berpenghasilan Rendah (MBR),"Kec. Pajangan, Ds. Triwidadi",244,3380000,2016,,,,,,,,,,
574,DI YOGYAKARTA,KABUPATEN BANTUL,RUMAH SWADAYA,Peningkatan Kualitas,Masyarakat Berpenghasilan Rendah (MBR),"Kec. Pajangan, Ds. Sendangsari",107,1427500,2016,,,,,,,,,,
575,DI YOGYAKARTA,KABUPATEN BANTUL,RUMAH SWADAYA,Peningkatan Kualitas,Masyarakat Berpenghasilan Rendah (MBR),"Kec. Sedayu, Ds. Argorejo",71,1045000,2016,,,,,,,,,,
576,DI YOGYAKARTA,KABUPATEN BANTUL,RUMAH SWADAYA,Peningkatan Kualitas,Masyarakat Berpenghasilan Rendah (MBR),"Kec. Sedayu, Ds. Argodadi",83,1180000,2016,,,,,,,,,,
577,DI YOGYAKARTA,KABUPATEN BANTUL,RUMAH SWADAYA,Peningkatan Kualitas,Masyarakat Berpenghasilan Rendah (MBR),"Kec. Sedayu, Ds. Argomulyo",62,837500,2016,,,,,,,,,,
578,DI YOGYAKARTA,KABUPATEN BANTUL,RUMAH SWADAYA,Peningkatan Kualitas,Masyarakat Berpenghasilan Rendah (MBR),"Kec. Sedayu, Ds. Argosari",85,1240000,2016,,,,,,,,,,
579,DI YOGYAKARTA,KABUPATEN BANTUL,RUMAH SWADAYA,Peningkatan Kualitas,Masyarakat Berpenghasilan Rendah (MBR),Kec. Bambang Lipuro Ds. Mulyodadi,21,315000,2017,,,,,,,,,,
580,DI YOGYAKARTA,KABUPATEN BANTUL,RUMAH SWADAYA,Peningkatan Kualitas,Masyarakat Berpenghasilan Rendah (MBR),Kec. Bambang Lipuro Ds. Sidomulyo,38,570000,2017,,,,,,,,,,
581,DI YOGYAKARTA,KABUPATEN BANTUL,RUMAH SWADAYA,Peningkatan Kualitas,Masyarakat Berpenghasilan Rendah (MBR),Kec. Banguntapan Ds. Banguntapan,33,495000,2017,,,,,,,,,,
582,DI YOGYAKARTA,KABUPATEN BANTUL,RUMAH SWADAYA,Peningkatan Kualitas,Masyarakat Berpenghasilan Rendah (MBR),Kec. Banguntapan Ds. Jambidan,25,375000,2017,,,,,,,,,,
583,DI YOGYAKARTA,KABUPATEN BANTUL,RUMAH SWADAYA,Peningkatan Kualitas,Masyarakat Berpenghasilan Rendah (MBR),Kec. Banguntapan Ds. Potorono,20,300000,2017,,,,,,,,,,
584,DI YOGYAKARTA,KABUPATEN BANTUL,RUMAH SWADAYA,Peningkatan Kualitas,Masyarakat Berpenghasilan Rendah (MBR),Kec. Banguntapan Ds. Tamanan,23,345000,2017,,,,,,,,,,
585,DI YOGYAKARTA,KABUPATEN BANTUL,RUMAH SWADAYA,Peningkatan Kualitas,Masyarakat Berpenghasilan Rendah (MBR),Kec. Banguntapan Ds. Wirokerten,29,435000,2017,,,,,,,,,,
586,DI YOGYAKARTA,KABUPATEN BANTUL,RUMAH SWADAYA,Peningkatan Kualitas,Masyarakat Berpenghasilan Rendah (MBR),Kec. Bantul Ds. Bantul,23,345000,2017,,,,,,,,,,
587,DI YOGYAKARTA,KABUPATEN BANTUL,RUMAH SWADAYA,Peningkatan Kualitas,Masyarakat Berpenghasilan Rendah (MBR),Kec. Bantul Ds. Palbapang,22,330000,2017,,,,,,,,,,
588,DI YOGYAKARTA,KABUPATEN BANTUL,RUMAH SWADAYA,Peningkatan Kualitas,Masyarakat Berpenghasilan Rendah (MBR),Kec. Imogiri Ds. Selopamioro,76,1140000,2017,,,,,,,,,,
589,DI YOGYAKARTA,KABUPATEN BANTUL,RUMAH SWADAYA,Peningkatan Kualitas,Masyarakat Berpenghasilan Rendah (MBR),Kec. Jetis Ds. Patalan,27,405000,2017,,,,,,,,,,
590,DI YOGYAKARTA,KABUPATEN BANTUL,RUMAH SWADAYA,Peningkatan Kualitas,Masyarakat Berpenghasilan Rendah (MBR),Kec. Jetis Ds. Sumber Agung,28,420000,2017,,,,,,,,,,
591,DI YOGYAKARTA,KABUPATEN BANTUL,RUMAH UMUM DAN KOMERSIAL,PEMBANGUNAN PSU,Masyarakat Berpenghasilan Rendah (MBR), Perumahan Ndalem Guwosari,200,597583,2017,,,,,,,,,,
592,DI YOGYAKARTA,KABUPATEN BANTUL,RUMAH UMUM DAN KOMERSIAL,PEMBANGUNAN PSU,Masyarakat Berpenghasilan Rendah (MBR),Perumahan Bangun Graha Sedayu,105,313605,2017,,,,,,,,,,
593,DI YOGYAKARTA,KABUPATEN BANTUL,RUMAH SUSUN,Pembangunan baru,Pekerja Industri,"Pemkot Bantul, Kawasan Industri Kota Yogyakarta (T.24, L.5)",104,22409811,2015,,,,,,,,,,
594,DI YOGYAKARTA,KABUPATEN BANTUL,RUMAH SUSUN,Pembangunan baru,Pekerja Industri,"Pemkot Bantul, Kawasan Industri Kota Yogyakarta (T.36, L.5)",66,22887227,2015,,,,,,,,,,
595,DI YOGYAKARTA,KABUPATEN BANTUL,RUMAH SUSUN,Pembangunan baru,PERGURUAN TINGGI,"Universitas Kristen Duta Wacana Yogyakarta, Jl. Dr. Wahidin Sudirohusodo 5-25  (T.24, L.4)",50,13765388,2015,,,,,,,,,,
596,DI YOGYAKARTA,KABUPATEN BANTUL,RUMAH SUSUN,Pembangunan baru,POLRI,"Aspol Polair 3 Lantai, Jl. Pantai Depok Parangtritis Krektek Bantul, Kel. Parangtritis, Kec. Kretek (TB.1, T.36, L.3)",47,12510545,2016,,,,,,,,,,
597,DI YOGYAKARTA,KABUPATEN BANTUL,RUMAH SUSUN,Pembangunan baru,TNI,"TNI AU - Banguntapan, Baturetno",35,11945904,2015,,,,,,,,,,
598,DI YOGYAKARTA,KABUPATEN GUNUNG KIDUL,RUMAH SWADAYA,Peningkatan Kualitas,Masyarakat Berpenghasilan Rendah (MBR),Kec. Paliyan Des. Giring,92,1380000,2015,,,,,,,,,,
599,DI YOGYAKARTA,KABUPATEN GUNUNG KIDUL,RUMAH SWADAYA,Peningkatan Kualitas,Masyarakat Berpenghasilan Rendah (MBR),Kec. Paliyan Des. Karangduwet,135,2025000,2015,,,,,,,,,,
