NO,PROVINSI,KABUPATEN/ KOTA,PROGRAM,KEGIATAN,PENERIMA MANFAAT,KETERANGAN,UNIT,ANGGARAN,TAHUN,,,,,,,,,,
1094,JAMBI,KABUPATEN SAROLANGUN,RUMAH SWADAYA,Peningkatan Kualitas,Masyarakat Berpenghasilan Rendah (MBR),Kec. Air Hitam Ds. Jernih,46,690000,2017,,,,,,,,,,
1095,JAMBI,KABUPATEN SAROLANGUN,RUMAH SWADAYA,Peningkatan Kualitas,Masyarakat Berpenghasilan Rendah (MBR),Kec. Air Hitam Ds. Lubuk Jering,46,690000,2017,,,,,,,,,,
1096,JAMBI,KABUPATEN SAROLANGUN,RUMAH SWADAYA,Peningkatan Kualitas,Masyarakat Berpenghasilan Rendah (MBR),Kec. Air Hitam Ds. Baru,50,750000,2017,,,,,,,,,,
1097,JAMBI,KABUPATEN SAROLANGUN,RUMAH SWADAYA,Peningkatan Kualitas,Masyarakat Berpenghasilan Rendah (MBR),Kec. Air Hitam Ds. Semurung,45,675000,2017,,,,,,,,,,
1098,JAMBI,KABUPATEN SAROLANGUN,RUMAH SWADAYA,Peningkatan Kualitas,Masyarakat Berpenghasilan Rendah (MBR),Kec. Air Hitam Ds. Pematang Kabau,40,600000,2017,,,,,,,,,,
1099,JAMBI,KABUPATEN SAROLANGUN,RUMAH KHUSUS,Pembangunan baru,"Masyarakat di Pulau Terluar, Terpencil atau Pedalaman",,50,8250000,2017,,,,,,,,,,
1100,JAMBI,KABUPATEN TANJUNG JABUNG BARAT,RUMAH KHUSUS,Pembangunan baru,Masyarakat Berpenghasilan Rendah (MBR),Kec. Tungkal ilir Desa Tungkal ,100,17497032,2015,,,,,,,,,,
1101,JAMBI,KABUPATEN TANJUNG JABUNG BARAT,RUMAH SWADAYA,Peningkatan Kualitas,Masyarakat Berpenghasilan Rendah (MBR),"Kec. Seberang Kota, Ds. Tungkal IV",32,480000,2016,,,,,,,,,,
1102,JAMBI,KABUPATEN TANJUNG JABUNG BARAT,RUMAH SWADAYA,Peningkatan Kualitas,Masyarakat Berpenghasilan Rendah (MBR),"Kec. Tungkal Ilir, Ds. Sungai Nibung",30,450000,2016,,,,,,,,,,
1103,JAMBI,KABUPATEN TANJUNG JABUNG BARAT,RUMAH SWADAYA,Peningkatan Kualitas,Masyarakat Berpenghasilan Rendah (MBR),"Kec. Tungkal Ilir, Ds. Patunas",44,660000,2016,,,,,,,,,,
1104,JAMBI,KABUPATEN TANJUNG JABUNG BARAT,RUMAH SWADAYA,Peningkatan Kualitas,Masyarakat Berpenghasilan Rendah (MBR),"Kec. Tungkal Ilir, Ds. Sriwijaya",29,435000,2016,,,,,,,,,,
1105,JAMBI,KABUPATEN TANJUNG JABUNG BARAT,RUMAH SWADAYA,Peningkatan Kualitas,Masyarakat Berpenghasilan Rendah (MBR),"Kec. Tungkal Ilir, Ds. Tungkal Harapan",44,660000,2016,,,,,,,,,,
1106,JAMBI,KABUPATEN TANJUNG JABUNG BARAT,RUMAH SWADAYA,Peningkatan Kualitas,Masyarakat Berpenghasilan Rendah (MBR),"Kec. Tungkal Ilir, Ds. Tungkal III",30,450000,2016,,,,,,,,,,
1107,JAMBI,KABUPATEN TANJUNG JABUNG BARAT,RUMAH SWADAYA,Peningkatan Kualitas,Masyarakat Berpenghasilan Rendah (MBR),"Kec. Bram Itam, Ds. Bram Itam Kiri",40,600000,2016,,,,,,,,,,
1108,JAMBI,KABUPATEN TANJUNG JABUNG BARAT,RUMAH SWADAYA,Peningkatan Kualitas,Masyarakat Berpenghasilan Rendah (MBR),"Kec. Tungkal Ilir, Ds. Tungkal II",32,480000,2016,,,,,,,,,,
1109,JAMBI,KABUPATEN TANJUNG JABUNG BARAT,RUMAH SWADAYA,Peningkatan Kualitas,Masyarakat Berpenghasilan Rendah (MBR),"Kec. Tungkal Ilir, Ds. Kampung Nelayan",30,450000,2016,,,,,,,,,,
1110,JAMBI,KABUPATEN TANJUNG JABUNG BARAT,RUMAH SWADAYA,Peningkatan Kualitas,Masyarakat Berpenghasilan Rendah (MBR),"Kec. Tungkal Ilir, Ds. Teluksialang",134,1745000,2016,,,,,,,,,,
1111,JAMBI,KABUPATEN TANJUNG JABUNG BARAT,RUMAH SWADAYA,Peningkatan Kualitas,Masyarakat Berpenghasilan Rendah (MBR),Kec. Kuala Betara Ds. Betara Kiri,63,945000,2017,,,,,,,,,,
1112,JAMBI,KABUPATEN TANJUNG JABUNG BARAT,RUMAH SWADAYA,Peningkatan Kualitas,Masyarakat Berpenghasilan Rendah (MBR),Kec. Kuala Betara Ds. Sungai Gebar,31,465000,2017,,,,,,,,,,
1113,JAMBI,KABUPATEN TANJUNG JABUNG BARAT,RUMAH SWADAYA,Peningkatan Kualitas,Masyarakat Berpenghasilan Rendah (MBR),Kec. Kuala Betara Ds. Sungai Gebar Barat,42,630000,2017,,,,,,,,,,
1114,JAMBI,KABUPATEN TANJUNG JABUNG BARAT,RUMAH SWADAYA,Peningkatan Kualitas,Masyarakat Berpenghasilan Rendah (MBR),Kec.Tungkal Ilir Ds. Kampung Nelayan,40,600000,2017,,,,,,,,,,
1115,JAMBI,KABUPATEN TANJUNG JABUNG BARAT,RUMAH SWADAYA,Peningkatan Kualitas,Masyarakat Berpenghasilan Rendah (MBR),Kec.Tungkal Ilir Ds. Patunas,47,705000,2017,,,,,,,,,,
1116,JAMBI,KABUPATEN TANJUNG JABUNG BARAT,RUMAH KHUSUS,Pembangunan baru,NELAYAN,,50,8250000,2017,,,,,,,,,,
1117,JAMBI,KABUPATEN TANJUNG JABUNG TIMUR,RUMAH SWADAYA,Peningkatan Kualitas,Masyarakat Berpenghasilan Rendah (MBR),"Kec. Mendahara, Ds. Mendahara Ilir",124,1860000,2016,,,,,,,,,,
1118,JAMBI,KABUPATEN TANJUNG JABUNG TIMUR,RUMAH SWADAYA,Peningkatan Kualitas,Masyarakat Berpenghasilan Rendah (MBR),"Kec. Mendahara, Ds. Merbau",31,465000,2016,,,,,,,,,,
1119,JAMBI,KABUPATEN TANJUNG JABUNG TIMUR,RUMAH SWADAYA,Peningkatan Kualitas,Masyarakat Berpenghasilan Rendah (MBR),"Kec. Mendahara, Ds. Pangkal Duri",30,449982,2016,,,,,,,,,,
1120,JAMBI,KABUPATEN TANJUNG JABUNG TIMUR,RUMAH SWADAYA,Peningkatan Kualitas,Masyarakat Berpenghasilan Rendah (MBR),"Kec. Mendahara, Ds. Pangkal Duri Ilir",45,675000,2016,,,,,,,,,,
1121,JAMBI,KABUPATEN TANJUNG JABUNG TIMUR,RUMAH SWADAYA,Peningkatan Kualitas,Masyarakat Berpenghasilan Rendah (MBR),"Kec. Mendahara, Ds. Sungai Tawar",40,600000,2016,,,,,,,,,,
1122,JAMBI,KABUPATEN TANJUNG JABUNG TIMUR,RUMAH SWADAYA,Peningkatan Kualitas,Masyarakat Berpenghasilan Rendah (MBR),"Kec. Mendahara, Ds. Sungai Tawar (Jilid 2)",30,450000,2016,,,,,,,,,,
1123,JAMBI,KABUPATEN TANJUNG JABUNG TIMUR,RUMAH SWADAYA,Peningkatan Kualitas,Masyarakat Berpenghasilan Rendah (MBR),"Kec. Mendahara, Ds. Mendahara Tengah",29,425000,2016,,,,,,,,,,
1124,JAMBI,KABUPATEN TANJUNG JABUNG TIMUR,RUMAH SWADAYA,Peningkatan Kualitas,Masyarakat Berpenghasilan Rendah (MBR),"Kec. Mendahara, Ds. Lagan Ilir",28,362500,2016,,,,,,,,,,
1125,JAMBI,KABUPATEN TANJUNG JABUNG TIMUR,RUMAH SWADAYA,Peningkatan Kualitas,Masyarakat Berpenghasilan Rendah (MBR),"Kec. Mendahara, Ds. Sinar Kalimantan",21,300000,2016,,,,,,,,,,
1126,JAMBI,KABUPATEN TANJUNG JABUNG TIMUR,RUMAH SWADAYA,Peningkatan Kualitas,Masyarakat Berpenghasilan Rendah (MBR),"Kec. Mendahara, Ds. Bakti Idaman",23,345000,2016,,,,,,,,,,
1127,JAMBI,KABUPATEN TANJUNG JABUNG TIMUR,RUMAH SWADAYA,Peningkatan Kualitas,Masyarakat Berpenghasilan Rendah (MBR),Kec. Sadu Ds. Air Hitam Laut,40,600000,2017,,,,,,,,,,
1128,JAMBI,KABUPATEN TANJUNG JABUNG TIMUR,RUMAH SWADAYA,Peningkatan Kualitas,Masyarakat Berpenghasilan Rendah (MBR),Kec. Sadu Ds. Labuhan Pering,35,525000,2017,,,,,,,,,,
1129,JAMBI,KABUPATEN TANJUNG JABUNG TIMUR,RUMAH SWADAYA,Peningkatan Kualitas,Masyarakat Berpenghasilan Rendah (MBR),Kec. Sadu Ds. Remau Baku Tuo,35,525000,2017,,,,,,,,,,
1130,JAMBI,KABUPATEN TANJUNG JABUNG TIMUR,RUMAH SWADAYA,Peningkatan Kualitas,Masyarakat Berpenghasilan Rendah (MBR),Kec. Sadu Ds. Sungai Itik,35,525000,2017,,,,,,,,,,
1131,JAMBI,KABUPATEN TANJUNG JABUNG TIMUR,RUMAH SWADAYA,Peningkatan Kualitas,Masyarakat Berpenghasilan Rendah (MBR),Kec. Sadu Ds. Sungai Jambat,40,600000,2017,,,,,,,,,,
1132,JAMBI,KABUPATEN TANJUNG JABUNG TIMUR,RUMAH SWADAYA,Peningkatan Kualitas,Masyarakat Berpenghasilan Rendah (MBR),Kec. Sadu Ds. Sungai Lokan,35,525000,2017,,,,,,,,,,
1133,JAMBI,KABUPATEN TANJUNG JABUNG TIMUR,RUMAH SWADAYA,Peningkatan Kualitas,Masyarakat Berpenghasilan Rendah (MBR),Kec. Sadu Ds. Sungai Sayang,30,450000,2017,,,,,,,,,,
1134,JAMBI,KABUPATEN TANJUNG JABUNG TIMUR,RUMAH KHUSUS,Pembangunan baru,NELAYAN,"Kec. Kuala Jambi Desa Majelis Hidayah RT.06, Dusun 02 ",100,17825432,2015,,,,,,,,,,
1135,JAMBI,KABUPATEN TANJUNG JABUNG TIMUR,RUMAH KHUSUS,Pembangunan baru,NELAYAN,,50,8250000,2017,,,,,,,,,,
1136,JAMBI,KABUPATEN TEBO,RUMAH SWADAYA,Peningkatan Kualitas,Masyarakat Berpenghasilan Rendah (MBR),Kec. Tebo Ulu Ds. Pagar Puding,159,2385000,2017,,,,,,,,,,
1137,JAMBI,KABUPATEN TEBO,RUMAH SWADAYA,Peningkatan Kualitas,Masyarakat Berpenghasilan Rendah (MBR),Kec. Sumay Ds. Suo-Suo,123,1845000,2017,,,,,,,,,,
1138,JAMBI,KABUPATEN TEBO,RUMAH SWADAYA,Peningkatan Kualitas,Masyarakat Berpenghasilan Rendah (MBR),Kec. Tebo Ilir Ds. Tuo Ilir,48,720000,2017,,,,,,,,,,
1139,JAMBI,KABUPATEN TEBO,RUMAH KHUSUS,Pembangunan baru,POLRI,"Rumdin Polsek Rimbo Ulu, Ds.Suka Damai Kec. Rimbo Ulu",4,396149,2016,,,,,,,,,,
1140,JAMBI,KABUPATEN TEBO,RUMAH KHUSUS,Pembangunan baru,POLRI,"Rumdin Polsek Sungai Bengkal, Kel. Sungai Bengkal Kec. Tebo Ilir",4,792298,2016,,,,,,,,,,
1141,JAMBI,KABUPATEN TEBO,RUMAH KHUSUS,Pembangunan baru,POLRI,"POLRES TEBO, Rumdin Polsek VII Koto Ilir , T.36 Koppel",4,546095,2015,,,,,,,,,,
1142,JAMBI,KOTA JAMBI,RUMAH SUSUN,Pembangunan baru,Masyarakat Berpenghasilan Rendah (MBR),"Kel. Mayang Mangurai, Kec. Alam Barajo, Kota Jambi T. 36 / 5 Lt",70,23250000,2017,,,,,,,,,,
1143,JAMBI,KOTA JAMBI,RUMAH SWADAYA,Peningkatan Kualitas,Masyarakat Berpenghasilan Rendah (MBR),"Kec. Jambi Selatan, Ds. Talang Bakung",30,372500,2016,,,,,,,,,,
1144,JAMBI,KOTA JAMBI,RUMAH SWADAYA,Peningkatan Kualitas,Masyarakat Berpenghasilan Rendah (MBR),"Kec. Jambi Selatan, Ds. Wijayapura",30,385000,2016,,,,,,,,,,
1145,JAMBI,KOTA JAMBI,RUMAH SWADAYA,Peningkatan Kualitas,Masyarakat Berpenghasilan Rendah (MBR),"Kec. Jambi Timur, Ds. Rajawali",30,295000,2016,,,,,,,,,,
1146,JAMBI,KOTA JAMBI,RUMAH SWADAYA,Peningkatan Kualitas,Masyarakat Berpenghasilan Rendah (MBR),"Kec. Jambi Timur, Ds. Sulanjana",30,312499,2016,,,,,,,,,,
1147,JAMBI,KOTA JAMBI,RUMAH SWADAYA,Peningkatan Kualitas,Masyarakat Berpenghasilan Rendah (MBR),"Kec. Kota Baru, Ds. Paal V",30,390000,2016,,,,,,,,,,
1148,JAMBI,KOTA JAMBI,RUMAH SWADAYA,Peningkatan Kualitas,Masyarakat Berpenghasilan Rendah (MBR),"Kec. Pelayangan, Ds. Mudung Laut",30,450000,2016,,,,,,,,,,
1149,JAMBI,KOTA JAMBI,RUMAH SWADAYA,Peningkatan Kualitas,Masyarakat Berpenghasilan Rendah (MBR),"Kec. Telanaipura, Ds.Peyengat Rendah",74,942496,2016,,,,,,,,,,
1150,JAMBI,KOTA JAMBI,RUMAH SWADAYA,Peningkatan Kualitas,Masyarakat Berpenghasilan Rendah (MBR),"Kec. Telanaipura, Ds.Sei Putri",15,175000,2016,,,,,,,,,,
1151,JAMBI,KOTA JAMBI,RUMAH SWADAYA,Peningkatan Kualitas,Masyarakat Berpenghasilan Rendah (MBR),"Kec. Telanaipura, Ds.Simp. IV Sipin",12,135000,2016,,,,,,,,,,
1152,JAMBI,KOTA JAMBI,RUMAH SWADAYA,Peningkatan Kualitas,Masyarakat Berpenghasilan Rendah (MBR),"Kec. Telanaipura, Ds.Pematang Sulur",19,227500,2016,,,,,,,,,,
1153,JAMBI,KOTA JAMBI,RUMAH SWADAYA,Peningkatan Kualitas,Masyarakat Berpenghasilan Rendah (MBR),Kec. Jambi Timur Ds. Sijinjang,32,480000,2017,,,,,,,,,,
1154,JAMBI,KOTA JAMBI,RUMAH SWADAYA,Peningkatan Kualitas,Masyarakat Berpenghasilan Rendah (MBR),Kec. Jambi Timur Ds. Kasang,29,435000,2017,,,,,,,,,,
1155,JAMBI,KOTA JAMBI,RUMAH SWADAYA,Peningkatan Kualitas,Masyarakat Berpenghasilan Rendah (MBR),Kec. Danau Teluk Ds. Ulu Gedong,30,450000,2017,,,,,,,,,,
1156,JAMBI,KOTA JAMBI,RUMAH SWADAYA,Peningkatan Kualitas,Masyarakat Berpenghasilan Rendah (MBR),Kec. Jambi Selatan Ds. The Hok,28,420000,2017,,,,,,,,,,
1157,JAMBI,KOTA JAMBI,RUMAH SWADAYA,Peningkatan Kualitas,Masyarakat Berpenghasilan Rendah (MBR),Kec. Jelutung Ds. Lebak Bandung,34,510000,2017,,,,,,,,,,
1158,JAMBI,KOTA JAMBI,RUMAH SWADAYA,Peningkatan Kualitas,Masyarakat Berpenghasilan Rendah (MBR),Kec. Pelayangan Ds. Arab Melayu,30,450000,2017,,,,,,,,,,
1159,JAMBI,KOTA JAMBI,RUMAH SWADAYA,Peningkatan Kualitas,Masyarakat Berpenghasilan Rendah (MBR),Kec. Paal Merah Ds. Eka Jaya,21,315000,2017,,,,,,,,,,
1160,JAMBI,KOTA JAMBI,RUMAH SWADAYA,Peningkatan Kualitas,Masyarakat Berpenghasilan Rendah (MBR),Kec. Paal Merah Ds. Lingkar Selatan,28,420000,2017,,,,,,,,,,
1161,JAMBI,KOTA JAMBI,RUMAH UMUM DAN KOMERSIAL,PEMBANGUNAN PSU,Masyarakat Berpenghasilan Rendah (MBR),Mutiara Selatan,134,878618,2016,,,,,,,,,,
1162,JAMBI,KOTA JAMBI,RUMAH UMUM DAN KOMERSIAL,PEMBANGUNAN PSU,Masyarakat Berpenghasilan Rendah (MBR),Griya Raya 2,75,409794,2016,,,,,,,,,,
1163,JAMBI,KOTA JAMBI,RUMAH UMUM DAN KOMERSIAL,PEMBANGUNAN PSU,Masyarakat Berpenghasilan Rendah (MBR),Perumahan Mutiara Selatan 2,140,543364,2017,,,,,,,,,,
1164,JAMBI,KOTA JAMBI,RUMAH UMUM DAN KOMERSIAL,PEMBANGUNAN PSU,Masyarakat Berpenghasilan Rendah (MBR),Perumahan Annisa Asri 3,100,444031,2017,,,,,,,,,,
1165,JAMBI,KOTA JAMBI,RUMAH SUSUN,Pembangunan baru,PERGURUAN TINGGI,"YAYASAN PENDIDIKAN SERENTAK BAK REGAM (YPSBR), Jl. Gajah mada, Desa Teratai, Kec. Muarabulian (T.24, L.4)",50,12529414,2015,,,,,,,,,,
1166,JAMBI,KOTA SUNGAI PENUH,RUMAH SWADAYA,Pembangunan baru,Masyarakat Berpenghasilan Rendah (MBR),"Kec. Tanah Kampung, Ds.Sembilan",1,20000,2015,,,,,,,,,,
1167,JAMBI,KOTA SUNGAI PENUH,RUMAH SWADAYA,Pembangunan baru,Masyarakat Berpenghasilan Rendah (MBR),"Kec. Tanah Kampung, Ds.Tanjung Bunga",2,40000,2015,,,,,,,,,,
1168,JAMBI,KOTA SUNGAI PENUH,RUMAH SWADAYA,Pembangunan baru,Masyarakat Berpenghasilan Rendah (MBR),"Kec. Tanah Kampung, Ds.Mekar Jaya",3,60000,2015,,,,,,,,,,
1169,JAMBI,KOTA SUNGAI PENUH,RUMAH SWADAYA,Pembangunan baru,Masyarakat Berpenghasilan Rendah (MBR),"Kec. Tanah Kampung, Ds.Koto Baru",3,60000,2015,,,,,,,,,,
1170,JAMBI,KOTA SUNGAI PENUH,RUMAH SWADAYA,Peningkatan Kualitas,Masyarakat Berpenghasilan Rendah (MBR),"Kec. Tanah Kampung, Ds.Sembilan",13,156912,2015,,,,,,,,,,
1171,JAMBI,KOTA SUNGAI PENUH,RUMAH SWADAYA,Peningkatan Kualitas,Masyarakat Berpenghasilan Rendah (MBR),"Kec. Tanah Kampung, Ds. Tanjung Bunga",9,119990,2015,,,,,,,,,,
1172,JAMBI,KOTA SUNGAI PENUH,RUMAH SWADAYA,Peningkatan Kualitas,Masyarakat Berpenghasilan Rendah (MBR),"Kec. Tanah Kampung, Ds.Mekar Jaya",8,109960,2015,,,,,,,,,,
1173,JAMBI,KOTA SUNGAI PENUH,RUMAH SWADAYA,Peningkatan Kualitas,Masyarakat Berpenghasilan Rendah (MBR),"Kec. Tanah Kampung, Ds.Koto Baru",22,278037,2015,,,,,,,,,,
1174,JAMBI,KOTA SUNGAI PENUH,RUMAH SWADAYA,Peningkatan Kualitas,Masyarakat Berpenghasilan Rendah (MBR),Kec. Hamparan Rawang Ds. Paling Serumpun,22,330000,2017,,,,,,,,,,
1175,JAMBI,KOTA SUNGAI PENUH,RUMAH SWADAYA,Peningkatan Kualitas,Masyarakat Berpenghasilan Rendah (MBR),Kec. Sungai Bungkal Ds. Sungai Ning,34,510000,2017,,,,,,,,,,
1176,JAMBI,KOTA SUNGAI PENUH,RUMAH SWADAYA,Peningkatan Kualitas,Masyarakat Berpenghasilan Rendah (MBR),Kec. Kumun Debai Ds. Renah Kayu Embu,158,2370000,2017,,,,,,,,,,
1177,JAWA BARAT,KABUPATEN BANDUNG,RUMAH SWADAYA,Peningkatan Kualitas,Masyarakat Berpenghasilan Rendah (MBR),Kec. Ibun Ds. Sudi,75,1125000,2017,,,,,,,,,,
1178,JAWA BARAT,KABUPATEN BANDUNG,RUMAH SWADAYA,Peningkatan Kualitas,Masyarakat Berpenghasilan Rendah (MBR),Kec. Pangalengan Ds. Margamulya,90,1350000,2017,,,,,,,,,,
1179,JAWA BARAT,KABUPATEN BANDUNG,RUMAH SWADAYA,Peningkatan Kualitas,Masyarakat Berpenghasilan Rendah (MBR),Kec. Kertasari Ds. Cibeureum,100,1500000,2017,,,,,,,,,,
1180,JAWA BARAT,KABUPATEN BANDUNG,RUMAH SWADAYA,Peningkatan Kualitas,Masyarakat Berpenghasilan Rendah (MBR),Kec. Cikancung Ds. Cihanyir,60,900000,2017,,,,,,,,,,
1181,JAWA BARAT,KABUPATEN BANDUNG,RUMAH UMUM DAN KOMERSIAL,PEMBANGUNAN PSU,Masyarakat Berpenghasilan Rendah (MBR),Rancaekek Permai 2,200,940000,2015,,,,,,,,,,
1182,JAWA BARAT,KABUPATEN BANDUNG,RUMAH UMUM DAN KOMERSIAL,PEMBANGUNAN PSU,Masyarakat Berpenghasilan Rendah (MBR),Pesona Bukit Bintang,115,531300,2015,,,,,,,,,,
1183,JAWA BARAT,KABUPATEN BANDUNG,RUMAH UMUM DAN KOMERSIAL,PEMBANGUNAN PSU,Masyarakat Berpenghasilan Rendah (MBR),Pesona Hijau Residence,173,743900,2015,,,,,,,,,,
1184,JAWA BARAT,KABUPATEN BANDUNG,RUMAH UMUM DAN KOMERSIAL,PEMBANGUNAN PSU,Masyarakat Berpenghasilan Rendah (MBR),Gading Tutuka Residence,200,575431,2017,,,,,,,,,,
1185,JAWA BARAT,KABUPATEN BANDUNG,RUMAH UMUM DAN KOMERSIAL,PEMBANGUNAN PSU,Masyarakat Berpenghasilan Rendah (MBR),Perumahan Pesona Bukit Bintang,200,627431,2017,,,,,,,,,,
1186,JAWA BARAT,KABUPATEN BANDUNG,RUMAH SUSUN,Pembangunan baru,Santri,"Yayasan Nurul Falah Bandung, Jl. Raya Laswi Ciparay No. 316 Kawungsari Hilir Kel. Warga Mekar Kec. Bale Endah (L.3)",30,9267332,2015,,,,,,,,,,
1187,JAWA BARAT,KABUPATEN BANDUNG,RUMAH SUSUN,Pembangunan baru,TNI,"TNI AU, Lanud Sulaiman, Jl. Kopo-Soreang, Margahayu - Bandung (T.45, L.3)",70,26048838,2015,,,,,,,,,,
1188,JAWA BARAT,KABUPATEN BANDUNG BARAT,RUMAH SWADAYA,Peningkatan Kualitas,Masyarakat Berpenghasilan Rendah (MBR),Kec. Padalarang Ds. Jayamekar,103,1545000,2017,,,,,,,,,,
1189,JAWA BARAT,KABUPATEN BANDUNG BARAT,RUMAH SWADAYA,Peningkatan Kualitas,Masyarakat Berpenghasilan Rendah (MBR),Kec. Cipatat Ds. Nyalindung,87,1305000,2017,,,,,,,,,,
1190,JAWA BARAT,KABUPATEN BANDUNG BARAT,RUMAH SWADAYA,Peningkatan Kualitas,Masyarakat Berpenghasilan Rendah (MBR),Kec. Cipatat Ds. Cirawamekar,141,2115000,2017,,,,,,,,,,
1191,JAWA BARAT,KABUPATEN BANDUNG BARAT,RUMAH UMUM DAN KOMERSIAL,PEMBANGUNAN PSU,Masyarakat Berpenghasilan Rendah (MBR),Alam Sanggar Indah,644,2975280,2015,,,,,,,,,,
1192,JAWA BARAT,KABUPATEN BEKASI,RUMAH SWADAYA,Peningkatan Kualitas,Masyarakat Berpenghasilan Rendah (MBR),"Kec. Babelan, Ds. Pantaihurip",100,1277500,2016,,,,,,,,,,
1193,JAWA BARAT,KABUPATEN BEKASI,RUMAH SWADAYA,Peningkatan Kualitas,Masyarakat Berpenghasilan Rendah (MBR),"Kec. Tambun Utara, Ds. Jejalenjaya",97,1250000,2016,,,,,,,,,,
