NO,PROVINSI,KABUPATEN/ KOTA,PROGRAM,KEGIATAN,PENERIMA MANFAAT,KETERANGAN,UNIT,ANGGARAN,TAHUN,,,,,,,,,,
4959,PAPUA BARAT,KABUPATEN RAJA AMPAT,RUMAH SWADAYA,Peningkatan Kualitas,Masyarakat Berpenghasilan Rendah (MBR),"Dis. Waigeo Utara , Ds. Anday",20,300000,2016,,,,,,,,,,
4960,PAPUA BARAT,KABUPATEN RAJA AMPAT,RUMAH SWADAYA,Peningkatan Kualitas,Masyarakat Berpenghasilan Rendah (MBR),"Dis. Waigeo Utara , Ds. Asukwery",20,300000,2016,,,,,,,,,,
4961,PAPUA BARAT,KABUPATEN RAJA AMPAT,RUMAH SWADAYA,Peningkatan Kualitas,Masyarakat Berpenghasilan Rendah (MBR),Kec. Misool Timur Ds. Usaha Jaya,120,1800000,2017,,,,,,,,,,
4962,PAPUA BARAT,KABUPATEN RAJA AMPAT,RUMAH SWADAYA,Peningkatan Kualitas,Masyarakat Berpenghasilan Rendah (MBR),Kec. Misool Timur Ds. Tomolol,40,600000,2017,,,,,,,,,,
4963,PAPUA BARAT,KABUPATEN RAJA AMPAT,RUMAH SWADAYA,Peningkatan Kualitas,Masyarakat Berpenghasilan Rendah (MBR),Kec. Misool Timur Ds. Folley,40,600000,2017,,,,,,,,,,
4964,PAPUA BARAT,KABUPATEN RAJA AMPAT,RUMAH KHUSUS,Pembangunan baru,"Masyarakat di Pulau Terluar, Terpencil atau Pedalaman","Pembangunan Rumah Khusus Di Papua Barat XI 
(Distrik Teluk Mayalibit - Kab. Raja Ampat)",50,9649864,2016,,,,,,,,,,
4965,PAPUA BARAT,KABUPATEN RAJA AMPAT,RUMAH KHUSUS,Pembangunan baru,"Masyarakat di Pulau Terluar, Terpencil atau Pedalaman","Pembangunan Rumah Khusus Di Papua Barat XII 
(Kampung Waiman, Distrik Batanta Selatan - Kab. Raja Ampat)",50,8954914,2016,,,,,,,,,,
4966,PAPUA BARAT,KABUPATEN RAJA AMPAT,RUMAH KHUSUS,Pembangunan baru,"Masyarakat di Pulau Terluar, Terpencil atau Pedalaman",Kampung Waisilip Distrik Waigeo Barat Daratan,50,10199860,2017,,,,,,,,,,
4967,PAPUA BARAT,KABUPATEN RAJA AMPAT,RUMAH KHUSUS,Pembangunan baru,"Masyarakat di Pulau Terluar, Terpencil atau Pedalaman",Distrik Waisai,1,660020,2017,,,,,,,,,,
4968,PAPUA BARAT,KABUPATEN RAJA AMPAT,RUMAH KHUSUS,Pembangunan baru,NELAYAN,"Kab. Raja Ampat, Prov. Papua Barat",50,5307549,2016,,,,,,,,,,
4969,PAPUA BARAT,KABUPATEN SORONG,RUMAH SUSUN,Pembangunan baru,Mahasiswa / Siswa,"JL. KH. Ahmad Dahlan No. 1, Mariyat Pantai, Distrik Aimas, Kab. Sorong T. 24 / 3 Lt",37,15851000,2017,,,,,,,,,,
4970,PAPUA BARAT,KABUPATEN SORONG,RUMAH KHUSUS,Pembangunan baru,Masyarakat Berpenghasilan Rendah (MBR),"Pembangunan Rumah Khusus Di Papua Barat V
(Kamp. Warmon Kokoda, Distrik Mayamuk - Kab. Sorong)",55,8909883,2016,,,,,,,,,,
4971,PAPUA BARAT,KABUPATEN SORONG,RUMAH KHUSUS,Pembangunan baru,Masyarakat Berpenghasilan Rendah (MBR),"Pembangunan Rumah Khusus Di Papua Barat VI
(Kamp. Syaifat, Distrik Mayamuk - Kab. Sorong)",55,8351853,2016,,,,,,,,,,
4972,PAPUA BARAT,KABUPATEN SORONG,RUMAH KHUSUS,Pembangunan baru,Masyarakat Berpenghasilan Rendah (MBR),"Pembangunan Rumah Khusus Di Papua Barat X
(Kamp. Kokoda Papan dan Kamp. Klain, Distrik Mayamuk - Kab. Sorong)",55,8377689,2016,,,,,,,,,,
4973,PAPUA BARAT,KABUPATEN SORONG,RUMAH SWADAYA,Peningkatan Kualitas,Masyarakat Berpenghasilan Rendah (MBR),"Kec. Sorong Timur, Ds. Klablim",97,1455000,2015,,,,,,,,,,
4974,PAPUA BARAT,KABUPATEN SORONG,RUMAH SWADAYA,Peningkatan Kualitas,Masyarakat Berpenghasilan Rendah (MBR),"Kec. Sorong Timur, Ds. Klamasan",81,1215000,2015,,,,,,,,,,
4975,PAPUA BARAT,KABUPATEN SORONG,RUMAH SWADAYA,Peningkatan Kualitas,Masyarakat Berpenghasilan Rendah (MBR),"Kec. Sorong Timur, Ds. Klawuyuk",45,675000,2015,,,,,,,,,,
4976,PAPUA BARAT,KABUPATEN SORONG,RUMAH SWADAYA,Peningkatan Kualitas,Masyarakat Berpenghasilan Rendah (MBR),"Kec. Sorong Manoi, Ds. Klasabi",140,2100000,2015,,,,,,,,,,
4977,PAPUA BARAT,KABUPATEN SORONG,RUMAH SWADAYA,Peningkatan Kualitas,Masyarakat Berpenghasilan Rendah (MBR),"Kec. Sorong Manoi, Ds. Re Selatan",90,1350000,2015,,,,,,,,,,
4978,PAPUA BARAT,KABUPATEN SORONG,RUMAH SWADAYA,Peningkatan Kualitas,Masyarakat Berpenghasilan Rendah (MBR),"Kec. Sorong Utara, Ds. Malaingkedi",60,900000,2015,,,,,,,,,,
4979,PAPUA BARAT,KABUPATEN SORONG,RUMAH SWADAYA,Peningkatan Kualitas,Masyarakat Berpenghasilan Rendah (MBR),"Kec. Sorong, Ds. Remu Utara",38,570000,2015,,,,,,,,,,
4980,PAPUA BARAT,KABUPATEN SORONG,RUMAH SWADAYA,Peningkatan Kualitas,Masyarakat Berpenghasilan Rendah (MBR),"Kec. Aimas, Ds. Malawele",45,675000,2016,,,,,,,,,,
4981,PAPUA BARAT,KABUPATEN SORONG,RUMAH SWADAYA,Peningkatan Kualitas,Masyarakat Berpenghasilan Rendah (MBR),"Kec. Aimas, Ds. Klamesen (+)",83,1245000,2016,,,,,,,,,,
4982,PAPUA BARAT,KABUPATEN SORONG,RUMAH SWADAYA,Peningkatan Kualitas,Masyarakat Berpenghasilan Rendah (MBR),"Kec. Mariat, Ds. Klamalu",140,2100000,2016,,,,,,,,,,
4983,PAPUA BARAT,KABUPATEN SORONG,RUMAH SWADAYA,Peningkatan Kualitas,Masyarakat Berpenghasilan Rendah (MBR),"Kec. Mariat, Ds. Mariyai",104,1560000,2016,,,,,,,,,,
4984,PAPUA BARAT,KABUPATEN SORONG,RUMAH SWADAYA,Peningkatan Kualitas,Masyarakat Berpenghasilan Rendah (MBR),"Kec. Mariat, Ds. Klasukuk",53,795000,2016,,,,,,,,,,
4985,PAPUA BARAT,KABUPATEN SORONG,RUMAH SWADAYA,Peningkatan Kualitas,Masyarakat Berpenghasilan Rendah (MBR),"Kec. Mariat, Ds. Klaben",25,375000,2016,,,,,,,,,,
4986,PAPUA BARAT,KABUPATEN SORONG,RUMAH SWADAYA,Peningkatan Kualitas,Masyarakat Berpenghasilan Rendah (MBR),Kec. Salawati Ds. Katimin,75,1125000,2017,,,,,,,,,,
4987,PAPUA BARAT,KABUPATEN SORONG,RUMAH SWADAYA,Peningkatan Kualitas,Masyarakat Berpenghasilan Rendah (MBR),Kec. Salawati Ds. Majaran,75,1125000,2017,,,,,,,,,,
4988,PAPUA BARAT,KABUPATEN SORONG,RUMAH SWADAYA,Peningkatan Kualitas,Masyarakat Berpenghasilan Rendah (MBR),Kec. Salawati Ds. Matalowot,50,750000,2017,,,,,,,,,,
4989,PAPUA BARAT,KABUPATEN SORONG,RUMAH SWADAYA,Peningkatan Kualitas,Masyarakat Berpenghasilan Rendah (MBR),Kec. Salawati Ds. Majenen,50,750000,2017,,,,,,,,,,
4990,PAPUA BARAT,KABUPATEN SORONG,RUMAH SWADAYA,Peningkatan Kualitas,Masyarakat Berpenghasilan Rendah (MBR),Kec. Salawati Ds. Malaus,50,750000,2017,,,,,,,,,,
4991,PAPUA BARAT,KABUPATEN SORONG,RUMAH SWADAYA,Peningkatan Kualitas,Masyarakat Berpenghasilan Rendah (MBR),Kec. Salawati Ds. Walal,50,750000,2017,,,,,,,,,,
4992,PAPUA BARAT,KABUPATEN SORONG,RUMAH SWADAYA,Peningkatan Kualitas,Masyarakat Berpenghasilan Rendah (MBR),Kec. Salawati Ds. Rawa Sugi,50,750000,2017,,,,,,,,,,
4993,PAPUA BARAT,KABUPATEN SORONG,RUMAH UMUM DAN KOMERSIAL,PEMBANGUNAN PSU,Masyarakat Berpenghasilan Rendah (MBR),Cendrawasih Green Park,131,717212,2016,,,,,,,,,,
4994,PAPUA BARAT,KABUPATEN SORONG,RUMAH UMUM DAN KOMERSIAL,PEMBANGUNAN PSU,Masyarakat Berpenghasilan Rendah (MBR),Sakura Garden II,64,351272,2016,,,,,,,,,,
4995,PAPUA BARAT,KABUPATEN SORONG,RUMAH UMUM DAN KOMERSIAL,PEMBANGUNAN PSU,Masyarakat Berpenghasilan Rendah (MBR),Perumahan Cendrawasih Green Park,150,1023000,2017,,,,,,,,,,
4996,PAPUA BARAT,KABUPATEN SORONG SELATAN,RUMAH SWADAYA,Peningkatan Kualitas,Masyarakat Berpenghasilan Rendah (MBR),Kec. Wayer Ds. Sungguer,20,300000,2017,,,,,,,,,,
4997,PAPUA BARAT,KABUPATEN SORONG SELATAN,RUMAH SWADAYA,Peningkatan Kualitas,Masyarakat Berpenghasilan Rendah (MBR),Kec. Wayer Ds. Waigo,20,300000,2017,,,,,,,,,,
4998,PAPUA BARAT,KABUPATEN SORONG SELATAN,RUMAH SWADAYA,Peningkatan Kualitas,Masyarakat Berpenghasilan Rendah (MBR),Kec. Wayer Ds. Bagaraga,20,300000,2017,,,,,,,,,,
4999,PAPUA BARAT,KABUPATEN SORONG SELATAN,RUMAH SWADAYA,Peningkatan Kualitas,Masyarakat Berpenghasilan Rendah (MBR),Kec. Moswaren Ds. Bumi Ajo,25,375000,2017,,,,,,,,,,
5000,PAPUA BARAT,KABUPATEN SORONG SELATAN,RUMAH SWADAYA,Peningkatan Kualitas,Masyarakat Berpenghasilan Rendah (MBR),Kec. Moswaren Ds. Moswaren,25,375000,2017,,,,,,,,,,
5001,PAPUA BARAT,KABUPATEN SORONG SELATAN,RUMAH SWADAYA,Peningkatan Kualitas,Masyarakat Berpenghasilan Rendah (MBR),Kec. Moswaren Ds. Kamisabe,25,375000,2017,,,,,,,,,,
5002,PAPUA BARAT,KABUPATEN SORONG SELATAN,RUMAH SWADAYA,Peningkatan Kualitas,Masyarakat Berpenghasilan Rendah (MBR),Kec. Teminabuan Ds. Kohoin,30,450000,2017,,,,,,,,,,
5003,PAPUA BARAT,KABUPATEN SORONG SELATAN,RUMAH SWADAYA,Peningkatan Kualitas,Masyarakat Berpenghasilan Rendah (MBR),Kec. Teminabuan Ds. Keyen,30,450000,2017,,,,,,,,,,
5004,PAPUA BARAT,KABUPATEN SORONG SELATAN,RUMAH SWADAYA,Peningkatan Kualitas,Masyarakat Berpenghasilan Rendah (MBR),Kec. Teminabuan Ds. Siribau,30,450000,2017,,,,,,,,,,
5005,PAPUA BARAT,KABUPATEN SORONG SELATAN,RUMAH SWADAYA,Peningkatan Kualitas,Masyarakat Berpenghasilan Rendah (MBR),Kec. Seremuk Ds. Srer Sembra,25,375000,2017,,,,,,,,,,
5006,PAPUA BARAT,KABUPATEN SORONG SELATAN,RUMAH SWADAYA,Peningkatan Kualitas,Masyarakat Berpenghasilan Rendah (MBR),Kec. Seremuk Ds. Tofot,25,375000,2017,,,,,,,,,,
5007,PAPUA BARAT,KABUPATEN SORONG SELATAN,RUMAH SWADAYA,Peningkatan Kualitas,Masyarakat Berpenghasilan Rendah (MBR),Kec. Sawiat Ds. Elles,25,375000,2017,,,,,,,,,,
5008,PAPUA BARAT,KABUPATEN SORONG SELATAN,RUMAH SWADAYA,Peningkatan Kualitas,Masyarakat Berpenghasilan Rendah (MBR),Kec. Sawiat Ds. Sfakyo,25,375000,2017,,,,,,,,,,
5009,PAPUA BARAT,KABUPATEN SORONG SELATAN,RUMAH SWADAYA,Peningkatan Kualitas,Masyarakat Berpenghasilan Rendah (MBR),Kec. Sawiat Ds. Kampung Bersama,25,375000,2017,,,,,,,,,,
5010,PAPUA BARAT,KABUPATEN SORONG SELATAN,RUMAH KHUSUS,Pembangunan baru,"Masyarakat di Pulau Terluar, Terpencil atau Pedalaman","Distri Kais, Desa Tapuri",46,6785933,2015,,,,,,,,,,
5011,PAPUA BARAT,KABUPATEN SORONG SELATAN,RUMAH KHUSUS,Pembangunan baru,"Masyarakat di Pulau Terluar, Terpencil atau Pedalaman","Kampung Klawan, Distrik Fkou",50,11000000,2017,,,,,,,,,,
5012,PAPUA BARAT,KABUPATEN TAMBRAUW,RUMAH KHUSUS,Pembangunan baru,Masyarakat Berpenghasilan Rendah (MBR),"Pembangunan Rumah Khusus Di Papua Barat VII
(Distrik Mubrani, Kamp. Arfu - Kab.Tambrauw)",46,8873545,2016,,,,,,,,,,
5013,PAPUA BARAT,KABUPATEN TAMBRAUW,RUMAH KHUSUS,Pembangunan baru,Masyarakat Berpenghasilan Rendah (MBR),"Pembangunan Rumah Khusus Di Papua Barat IX
(Distrik Sausapor, Kamp. Nanggow - Kab. Tambrauw)",56,9752434,2016,,,,,,,,,,
5014,PAPUA BARAT,KABUPATEN TAMBRAUW,RUMAH SUSUN,Pembangunan baru,PNS,Komplek Pemda Kab. Tambrauw T. 36 / 3 Lt,47,22425000,2017,,,,,,,,,,
5015,PAPUA BARAT,KABUPATEN TELUK BINTUNI,RUMAH KHUSUS,Pembangunan baru,DAERAH TERTINGGAL,Kampung Trimorai Kilo 7,25,3742256,2015,,,,,,,,,,
5016,PAPUA BARAT,KABUPATEN TELUK BINTUNI,RUMAH SWADAYA,Peningkatan Kualitas,Masyarakat Berpenghasilan Rendah (MBR),"Dis. Babo , Ds. Irarutu III ",25,375000,2016,,,,,,,,,,
5017,PAPUA BARAT,KABUPATEN TELUK BINTUNI,RUMAH SWADAYA,Peningkatan Kualitas,Masyarakat Berpenghasilan Rendah (MBR),"Dis. Bintuni , Ds. Bintuni Timur",175,2625000,2016,,,,,,,,,,
5018,PAPUA BARAT,KABUPATEN TELUK BINTUNI,RUMAH SWADAYA,Peningkatan Kualitas,Masyarakat Berpenghasilan Rendah (MBR),Kec. Bintuni Ds. Bintuni Barat,100,1500000,2017,,,,,,,,,,
5019,PAPUA BARAT,KABUPATEN TELUK BINTUNI,RUMAH SWADAYA,Peningkatan Kualitas,Masyarakat Berpenghasilan Rendah (MBR),Kec. Manimeri Ds. Banjar Ausoy,50,750000,2017,,,,,,,,,,
5020,PAPUA BARAT,KABUPATEN TELUK BINTUNI,RUMAH SWADAYA,Peningkatan Kualitas,Masyarakat Berpenghasilan Rendah (MBR),Kec. Manimeri Ds. Waraitama,50,750000,2017,,,,,,,,,,
5021,PAPUA BARAT,KABUPATEN TELUK BINTUNI,RUMAH KHUSUS,Pembangunan baru,"Masyarakat di Pulau Terluar, Terpencil atau Pedalaman","Pembangunan Rumah Khusus Di Papua Barat VIII 
(Kampung Kohoin dan Kampung Trimaroi - Kab. Teluk Bintuni)",35,6486133,2016,,,,,,,,,,
5022,PAPUA BARAT,KABUPATEN TELUK BINTUNI,RUMAH KHUSUS,Pembangunan baru,"Masyarakat di Pulau Terluar, Terpencil atau Pedalaman","Pembangunan Rumah Khusus Di Papua Barat XII (Kampung muturi, kampung korana jaya, kampung deima - Kab. Teluk Bintuni)",44,8583380,2016,,,,,,,,,,
5023,PAPUA BARAT,KABUPATEN TELUK BINTUNI,RUMAH KHUSUS,Pembangunan baru,"Masyarakat di Pulau Terluar, Terpencil atau Pedalaman","Pembangunan Rumah Khusus Di Papua Barat XIV (Kampung muturi, kampung korana jaya, kampung deima - Kab. Teluk Bintuni)",25,4490133,2016,,,,,,,,,,
5024,PAPUA BARAT,KABUPATEN TELUK BINTUNI,RUMAH KHUSUS,Pembangunan baru,TNI,Kipan E Yonnif 752/VYS,15,15895991,2015,,,,,,,,,,
5025,PAPUA BARAT,KABUPATEN TELUK WONDAMA,RUMAH KHUSUS,Pembangunan baru,DAERAH TERTINGGAL,"Kp, Tandia Kanda 30, Kp.Senderawoi, 5Kp. Miei 5, Kp Moru Sanduai",50,6922346,2015,,,,,,,,,,
5026,PAPUA BARAT,KABUPATEN TELUK WONDAMA,RUMAH KHUSUS,Pembangunan baru,Masyarakat Berpenghasilan Rendah (MBR),Pembangunan Rumah Khusus Di Papua Barat I (Distrik rasiei - Kab. Teluk Wondama),100,17872799,2016,,,,,,,,,,
5027,PAPUA BARAT,KABUPATEN TELUK WONDAMA,RUMAH KHUSUS,Pembangunan baru,"Masyarakat di Pulau Terluar, Terpencil atau Pedalaman","Kampung Kabouw, Distrik Wondiboy",50,11496500,2017,,,,,,,,,,
5028,PAPUA BARAT,KOTA SORONG,RUMAH SWADAYA,Peningkatan Kualitas,Masyarakat Berpenghasilan Rendah (MBR),Kec. Sorong Barat Ds. Klawasi,50,750000,2017,,,,,,,,,,
5029,PAPUA BARAT,KOTA SORONG,RUMAH SWADAYA,Peningkatan Kualitas,Masyarakat Berpenghasilan Rendah (MBR),Kec. Sorong Ds. Klademak,90,1350000,2017,,,,,,,,,,
5030,PAPUA BARAT,KOTA SORONG,RUMAH SWADAYA,Peningkatan Kualitas,Masyarakat Berpenghasilan Rendah (MBR),Kec. Sorong Timur Ds. Klawali,60,900000,2017,,,,,,,,,,
5031,PAPUA BARAT,KOTA SORONG,RUMAH SWADAYA,Peningkatan Kualitas,Masyarakat Berpenghasilan Rendah (MBR),Kec. Sorong Kota Ds. Klabala,50,750000,2017,,,,,,,,,,
5032,PAPUA BARAT,KOTA SORONG,RUMAH SWADAYA,Peningkatan Kualitas,Masyarakat Berpenghasilan Rendah (MBR),Kec. Sorong Kota Ds. Klakubik,50,750000,2017,,,,,,,,,,
5033,PAPUA BARAT,KOTA SORONG,RUMAH SWADAYA,Peningkatan Kualitas,Masyarakat Berpenghasilan Rendah (MBR),Kec. Klaurung Ds. Giwu,25,375000,2017,,,,,,,,,,
5034,PAPUA BARAT,KOTA SORONG,RUMAH SWADAYA,Peningkatan Kualitas,Masyarakat Berpenghasilan Rendah (MBR),Kec. Klaurung Ds. Klasaman,25,375000,2017,,,,,,,,,,
5035,PAPUA BARAT,KOTA SORONG,RUMAH SWADAYA,Peningkatan Kualitas,Masyarakat Berpenghasilan Rendah (MBR),Kec. Malaimsimsa Ds. Klagete,50,750000,2017,,,,,,,,,,
5036,PAPUA BARAT,KOTA SORONG,RUMAH KHUSUS,Pembangunan baru,POLRI,Sat Brimob Den C Sorong,24,4593444,2016,,,,,,,,,,
5037,PAPUA BARAT,KOTA SORONG,RUMAH KHUSUS,Pembangunan baru,TNI,"Lantamal XIV Sorong, Jl. Bubara No.1",10,2887810,2016,,,,,,,,,,
5038,PAPUA BARAT,KOTA SORONG,RUMAH SUSUN,Pembangunan baru,TNI,"TNI AL Komplek Divisi 3 Marinir KM 16 (T.45, L.3)",35,17160129,2015,,,,,,,,,,
5039,PAPUA BARAT,KOTA SORONG,RUMAH SUSUN,Pembangunan baru,TNI,"Korem Sorong (T.45, L.3)",35,11655000,2017,,,,,,,,,,
5040,RIAU,KABUPATEN BENGKALIS,RUMAH SWADAYA,Peningkatan Kualitas,Masyarakat Berpenghasilan Rendah (MBR),"Kec. Bantan, Ds. Kembung Luar",36,505000,2016,,,,,,,,,,
5041,RIAU,KABUPATEN BENGKALIS,RUMAH SWADAYA,Peningkatan Kualitas,Masyarakat Berpenghasilan Rendah (MBR),"Kec. Bukit Batu, Ds. Sungai Selari",31,435000,2016,,,,,,,,,,
5042,RIAU,KABUPATEN BENGKALIS,RUMAH SWADAYA,Peningkatan Kualitas,Masyarakat Berpenghasilan Rendah (MBR),"Kec. Rupat, Ds. Pangkalan Ngirih",31,410000,2016,,,,,,,,,,
5043,RIAU,KABUPATEN BENGKALIS,RUMAH SWADAYA,Peningkatan Kualitas,Masyarakat Berpenghasilan Rendah (MBR),"Kec. Rupat, Ds. Tanjung Kapal",33,435000,2016,,,,,,,,,,
5044,RIAU,KABUPATEN BENGKALIS,RUMAH SWADAYA,Peningkatan Kualitas,Masyarakat Berpenghasilan Rendah (MBR),"Kec. Rupat, Ds. Teluk Lecah",36,505000,2016,,,,,,,,,,
5045,RIAU,KABUPATEN BENGKALIS,RUMAH UMUM DAN KOMERSIAL,PEMBANGUNAN PSU,Masyarakat Berpenghasilan Rendah (MBR),Mandau Lestari,120,656469,2015,,,,,,,,,,
5046,RIAU,KABUPATEN INDRAGIRI HILIR,RUMAH SUSUN,Pembangunan baru,Masyarakat Berpenghasilan Rendah (MBR),"Pemkab Indragiri Hilir, Jl. Makam Pahlawan (samping makam), Kel. Tembilahan Barat, Kec. Tembilahan Hulu (TB. 1,T.24, L.4)",,11861374,2016,,,,,,,,,,
5047,RIAU,KABUPATEN INDRAGIRI HILIR,RUMAH SUSUN,Pembangunan baru,Masyarakat Berpenghasilan Rendah (MBR),"Jl. Ki Hajar Dewantara No. 1 Kel. Tembilahan Barat, Kec. Tembilahan Hulu, Kab. Indragiri Hilir T. 36 / 5 Lt",70,24250000,2017,,,,,,,,,,
5048,RIAU,KABUPATEN INDRAGIRI HILIR,RUMAH SUSUN,Pembangunan baru,Masyarakat Berpenghasilan Rendah (MBR),"Dinas Cipta Karya Indragiri Hilir (Lanjutan 2016 - Cut Off + PMK 243/2015), Jl. Makam Pahlawan, Tembilahan Barat, Kec. Tembilahan Hulu, Kab. Indragiri Hilir, Riau T. 24 / 4 Lt",96,14408000,2017,,,,,,,,,,
5049,RIAU,KABUPATEN INDRAGIRI HILIR,RUMAH SWADAYA,Peningkatan Kualitas,Masyarakat Berpenghasilan Rendah (MBR),Kec. Concong Ds. Kampung Baru,50,750000,2017,,,,,,,,,,
5050,RIAU,KABUPATEN INDRAGIRI HILIR,RUMAH SWADAYA,Peningkatan Kualitas,Masyarakat Berpenghasilan Rendah (MBR),Kec. Sungai Batang Ds. Pasenggerahan,50,750000,2017,,,,,,,,,,
