NO,PROVINSI,KABUPATEN/ KOTA,PROGRAM,KEGIATAN,PENERIMA MANFAAT,KETERANGAN,UNIT,ANGGARAN,TAHUN,,,,,,,,,,
3486,KALIMANTAN UTARA,KABUPATEN NUNUKAN,RUMAH KHUSUS,Pembangunan baru,POLRI,Polsek Sebuku-Ds. Pembeliangan Kec. Sebuku,9,1552098,2015,,,,,,,,,,
3487,KALIMANTAN UTARA,KABUPATEN NUNUKAN,RUMAH KHUSUS,Pembangunan baru,POLRI,"Polres Nunukan, Pemb. Rumdin Polsek Sebatik Barat T.36 Koppel Ds. Liang Bunyu Rt.08 Kec. Sebatik",9,1552098,2015,,,,,,,,,,
3488,KALIMANTAN UTARA,KABUPATEN NUNUKAN,RUMAH KHUSUS,Pembangunan baru,POLRI,"Polres Nunukan, Pemb. Rumdin Polsek Simanggaris Jl. Poros Sp1 Sp2 Kec. Simanggaris",9,1552098,2015,,,,,,,,,,
3489,KALIMANTAN UTARA,KABUPATEN NUNUKAN,RUMAH KHUSUS,Pembangunan baru,POLRI,"Polres Nunukan, Pemb. Rumdin Polsek Tulin Onsoi Jl.Mangga,Desa Samur Kec.Sebuku T.54 1 Unit, T.36 8 Unit",9,1552098,2015,,,,,,,,,,
3490,KALIMANTAN UTARA,KABUPATEN NUNUKAN,RUMAH KHUSUS,Pembangunan baru,POLRI, Polsek Sebatik Tengah-Jl. Mulawarman RT. 04 Dsn. Abadi I Ds. Aji Kuning,8,1379643,2015,,,,,,,,,,
3491,KALIMANTAN UTARA,KABUPATEN NUNUKAN,RUMAH KHUSUS,Pembangunan baru,POLRI,"Polres Nunukan, Pemb. Rumdin Polsek Sebatik Sei Taiwan Rt.04 Ds. Pancang/Tg Karang",6,1034732,2015,,,,,,,,,,
3492,KALIMANTAN UTARA,KABUPATEN NUNUKAN,RUMAH KHUSUS,Pembangunan baru, Wajib Kerja Dokter Spesialis , RSUD Kabupaten Nunukan ,1, -   ,2017,,,,,,,,,,
3493,KALIMANTAN UTARA,KOTA TARAKAN,RUMAH KHUSUS,Pembangunan baru,Masyarakat Berpenghasilan Rendah (MBR),"Kel. Kampung Empat, Kec. Tarakan Timur",100,17500000,2017,,,,,,,,,,
3494,KALIMANTAN UTARA,KOTA TARAKAN,RUMAH SWADAYA,Pembangunan baru,Masyarakat Berpenghasilan Rendah (MBR),"Kec. Karang Rejo, Desa. Karang Rejo",1,20000,2015,,,,,,,,,,
3495,KALIMANTAN UTARA,KOTA TARAKAN,RUMAH SWADAYA,Peningkatan Kualitas,Masyarakat Berpenghasilan Rendah (MBR),"Kec. Tarakan Barat, Desa. Karang Rejo",18,179874,2015,,,,,,,,,,
3496,KALIMANTAN UTARA,KOTA TARAKAN,RUMAH SWADAYA,Peningkatan Kualitas,Masyarakat Berpenghasilan Rendah (MBR),"Kec. Tarakan Barat, Desa. Karang Anyar Pantai",92,974710,2015,,,,,,,,,,
3497,KALIMANTAN UTARA,KOTA TARAKAN,RUMAH SWADAYA,Peningkatan Kualitas,Masyarakat Berpenghasilan Rendah (MBR),"Kec. Tarakan Barat, Ds. Karang Balik",38,525000,2016,,,,,,,,,,
3498,KALIMANTAN UTARA,KOTA TARAKAN,RUMAH SWADAYA,Peningkatan Kualitas,Masyarakat Berpenghasilan Rendah (MBR),"Kec. Tarakan Barat, Ds. Karang Harapan",34,495000,2016,,,,,,,,,,
3499,KALIMANTAN UTARA,KOTA TARAKAN,RUMAH SWADAYA,Peningkatan Kualitas,Masyarakat Berpenghasilan Rendah (MBR),"Kec. Tarakan Tengah, Ds. Pamusian",34,505000,2016,,,,,,,,,,
3500,KALIMANTAN UTARA,KOTA TARAKAN,RUMAH SWADAYA,Peningkatan Kualitas,Masyarakat Berpenghasilan Rendah (MBR),"Kec. Tarakan Timur, Ds. Mamburungan",59,692500,2016,,,,,,,,,,
3501,KALIMANTAN UTARA,KOTA TARAKAN,RUMAH SWADAYA,Peningkatan Kualitas,Masyarakat Berpenghasilan Rendah (MBR),"Kec. Tarakan Timur, Ds. Mamburungan Timur",47,645000,2016,,,,,,,,,,
3502,KALIMANTAN UTARA,KOTA TARAKAN,RUMAH SWADAYA,Peningkatan Kualitas,Masyarakat Berpenghasilan Rendah (MBR),"Kec. Tarakan Utara, Ds. Juata Laut",58,810000,2016,,,,,,,,,,
3503,KALIMANTAN UTARA,KOTA TARAKAN,RUMAH SWADAYA,Peningkatan Kualitas,Masyarakat Berpenghasilan Rendah (MBR),"Kec. Tarakan Utara, Ds. Juata Permai",36,525000,2016,,,,,,,,,,
3504,KALIMANTAN UTARA,KOTA TARAKAN,RUMAH SWADAYA,Peningkatan Kualitas,Masyarakat Berpenghasilan Rendah (MBR),Kec. Tarakan Tengah Ds. Sebengkok,42,630000,2017,,,,,,,,,,
3505,KALIMANTAN UTARA,KOTA TARAKAN,RUMAH SWADAYA,Peningkatan Kualitas,Masyarakat Berpenghasilan Rendah (MBR),Kec. Tarakan Tengah Ds. Kampung Satu Skip,35,525000,2017,,,,,,,,,,
3506,KALIMANTAN UTARA,KOTA TARAKAN,RUMAH SWADAYA,Peningkatan Kualitas,Masyarakat Berpenghasilan Rendah (MBR),Kec. Tarakan Timur Ds. Pantai Amal,60,900000,2017,,,,,,,,,,
3507,KALIMANTAN UTARA,KOTA TARAKAN,RUMAH SWADAYA,Peningkatan Kualitas,Masyarakat Berpenghasilan Rendah (MBR),Kec. Tarakan Utara Ds. Juata Krikil,50,750000,2017,,,,,,,,,,
3508,KALIMANTAN UTARA,KOTA TARAKAN,RUMAH KHUSUS,Pembangunan baru,NELAYAN,"(Boom Panjang  I, Kec Pamusian, Kota Tarakan, Kota Tarakan Tengah)",45,7643657,2016,,,,,,,,,,
3509,KALIMANTAN UTARA,KOTA TARAKAN,RUMAH KHUSUS,Pembangunan baru,NELAYAN,"(Boom Panjang  I, Kec Pamusian, Kota Tarakan, Kota Tarakan Tengah)",42,7641361,2016,,,,,,,,,,
3510,KALIMANTAN UTARA,KOTA TARAKAN,RUMAH KHUSUS,Pembangunan baru,TNI,"Lanal Tarakan, Jl. Pamusian, Kampung Baru",40,,2016,,,,,,,,,,
3511,KALIMANTAN UTARA,KOTA TARAKAN,RUMAH KHUSUS,Pembangunan baru,TNI,"Mabes AL, Jl. Pamusian Kampung Baru Kota Tarakan",20,4435714,2015,,,,,,,,,,
3512,KALIMANTAN UTARA,KOTA TARAKAN,RUMAH SUSUN,Pembangunan baru,TNI,"TNI AL, Lanal Tarakan, Jl. Danau Sumpang RT. 05, Kel. Pamusian, Kec. Tarakan Tengah (T.45, L.3) ",35,13941878,2015,,,,,,,,,,
3513,KALIMANTAN UTARA,KOTA TARAKAN,RUMAH SUSUN,Pembangunan baru,TNI,"Lantamal XIII Tarakan, Jl. Kusuma Bangsa, Kel. Gunung Lingkas, Tarakan Timur (TB.1, T.45, L.3)",35,12544162,2016,,,,,,,,,,
3514,KALIMANTAN UTARA,KOTA TARAKAN,RUMAH SUSUN,Pembangunan baru,TNI,"Lanud Tarakan, Jl. Aki Balak Karang Anyar  Pantai.Tarakan (TB.1, T.45, L.3)",35,12275601,2016,,,,,,,,,,
3515,KEPULAUAN BANGKA BELITUNG,KABUPATEN BANGKA,RUMAH SWADAYA,Peningkatan Kualitas,Masyarakat Berpenghasilan Rendah (MBR),"Kec. Mendo Barat, Ds. Air Buluh",28,385000,2016,,,,,,,,,,
3516,KEPULAUAN BANGKA BELITUNG,KABUPATEN BANGKA,RUMAH SWADAYA,Peningkatan Kualitas,Masyarakat Berpenghasilan Rendah (MBR),"Kec. Mendo Barat, Ds. Kace",64,857500,2016,,,,,,,,,,
3517,KEPULAUAN BANGKA BELITUNG,KABUPATEN BANGKA,RUMAH SWADAYA,Peningkatan Kualitas,Masyarakat Berpenghasilan Rendah (MBR),"Kec. Mendo Barat, Ds. Kota Kapur",61,647500,2016,,,,,,,,,,
3518,KEPULAUAN BANGKA BELITUNG,KABUPATEN BANGKA,RUMAH SWADAYA,Peningkatan Kualitas,Masyarakat Berpenghasilan Rendah (MBR),"Kec. Mendo Barat, Ds. Labuh Air Pandan",67,960000,2016,,,,,,,,,,
3519,KEPULAUAN BANGKA BELITUNG,KABUPATEN BANGKA,RUMAH SWADAYA,Peningkatan Kualitas,Masyarakat Berpenghasilan Rendah (MBR),"Kec. Mendo Barat, Ds. Penagan",144,1872500,2016,,,,,,,,,,
3520,KEPULAUAN BANGKA BELITUNG,KABUPATEN BANGKA,RUMAH SWADAYA,Peningkatan Kualitas,Masyarakat Berpenghasilan Rendah (MBR),"Kec. Puding Besar, Ds. Kota Waringin",37,427500,2016,,,,,,,,,,
3521,KEPULAUAN BANGKA BELITUNG,KABUPATEN BANGKA,RUMAH SWADAYA,Peningkatan Kualitas,Masyarakat Berpenghasilan Rendah (MBR),"Kec. Sungai Liat, Ds. Kuday",55,807500,2016,,,,,,,,,,
3522,KEPULAUAN BANGKA BELITUNG,KABUPATEN BANGKA,RUMAH SWADAYA,Peningkatan Kualitas,Masyarakat Berpenghasilan Rendah (MBR),"Kec. Sungai Liat, Ds. Matras",47,650000,2016,,,,,,,,,,
3523,KEPULAUAN BANGKA BELITUNG,KABUPATEN BANGKA,RUMAH SWADAYA,Peningkatan Kualitas,Masyarakat Berpenghasilan Rendah (MBR),"Kec. Sungai Liat, Ds. Sungai Liat",58,662500,2016,,,,,,,,,,
3524,KEPULAUAN BANGKA BELITUNG,KABUPATEN BANGKA,RUMAH SWADAYA,Peningkatan Kualitas,Masyarakat Berpenghasilan Rendah (MBR),Kec. Bakam Ds. Bukitlayang,24,360000,2017,,,,,,,,,,
3525,KEPULAUAN BANGKA BELITUNG,KABUPATEN BANGKA,RUMAH SWADAYA,Peningkatan Kualitas,Masyarakat Berpenghasilan Rendah (MBR),Kec. Belinyu Ds. Bintet,36,540000,2017,,,,,,,,,,
3526,KEPULAUAN BANGKA BELITUNG,KABUPATEN BANGKA,RUMAH SWADAYA,Peningkatan Kualitas,Masyarakat Berpenghasilan Rendah (MBR),Kec. Belinyu Ds. Bukit Ketok,41,615000,2017,,,,,,,,,,
3527,KEPULAUAN BANGKA BELITUNG,KABUPATEN BANGKA,RUMAH SWADAYA,Peningkatan Kualitas,Masyarakat Berpenghasilan Rendah (MBR),Kec. Belinyu Ds. Gunung Muda,27,405000,2017,,,,,,,,,,
3528,KEPULAUAN BANGKA BELITUNG,KABUPATEN BANGKA,RUMAH SWADAYA,Peningkatan Kualitas,Masyarakat Berpenghasilan Rendah (MBR),Kec. Belinyu Ds. Gunung Pelawan,31,465000,2017,,,,,,,,,,
3529,KEPULAUAN BANGKA BELITUNG,KABUPATEN BANGKA,RUMAH SWADAYA,Peningkatan Kualitas,Masyarakat Berpenghasilan Rendah (MBR),Kec. Belinyu Ds. Riding Panjang,32,480000,2017,,,,,,,,,,
3530,KEPULAUAN BANGKA BELITUNG,KABUPATEN BANGKA,RUMAH SWADAYA,Peningkatan Kualitas,Masyarakat Berpenghasilan Rendah (MBR),Kec. Mendo Barat Ds. Cengkongabang,20,300000,2017,,,,,,,,,,
3531,KEPULAUAN BANGKA BELITUNG,KABUPATEN BANGKA,RUMAH SWADAYA,Peningkatan Kualitas,Masyarakat Berpenghasilan Rendah (MBR),Kec. Mendo Barat Ds. Petaling,20,300000,2017,,,,,,,,,,
3532,KEPULAUAN BANGKA BELITUNG,KABUPATEN BANGKA,RUMAH SWADAYA,Peningkatan Kualitas,Masyarakat Berpenghasilan Rendah (MBR),Kec. Merawang Ds. Pagarawan,20,300000,2017,,,,,,,,,,
3533,KEPULAUAN BANGKA BELITUNG,KABUPATEN BANGKA,RUMAH SWADAYA,Peningkatan Kualitas,Masyarakat Berpenghasilan Rendah (MBR),Kec. Merawang Ds. Riding Panjang,20,300000,2017,,,,,,,,,,
3534,KEPULAUAN BANGKA BELITUNG,KABUPATEN BANGKA,RUMAH SWADAYA,Peningkatan Kualitas,Masyarakat Berpenghasilan Rendah (MBR),Kec. Riau Silip Ds. Berbura,32,480000,2017,,,,,,,,,,
3535,KEPULAUAN BANGKA BELITUNG,KABUPATEN BANGKA,RUMAH SWADAYA,Peningkatan Kualitas,Masyarakat Berpenghasilan Rendah (MBR),Kec. Riau Silip Ds. Mapur,22,330000,2017,,,,,,,,,,
3536,KEPULAUAN BANGKA BELITUNG,KABUPATEN BANGKA,RUMAH SWADAYA,Peningkatan Kualitas,Masyarakat Berpenghasilan Rendah (MBR),Kec. Riau Silip Ds. Cit,20,300000,2017,,,,,,,,,,
3537,KEPULAUAN BANGKA BELITUNG,KABUPATEN BANGKA,RUMAH SWADAYA,Peningkatan Kualitas,Masyarakat Berpenghasilan Rendah (MBR),Kec. Riau Silip Ds. Pangkal Niur,20,300000,2017,,,,,,,,,,
3538,KEPULAUAN BANGKA BELITUNG,KABUPATEN BANGKA,RUMAH KHUSUS,Pembangunan baru,POLRI,"Pembangunan Rumdin Polsek Puding Besar di Pulau Bangka, T.36 Koppel, Desa Puding Besar, Kec. Puding Besar Kab. Bangka",4,856957,2015,,,,,,,,,,
3539,KEPULAUAN BANGKA BELITUNG,KABUPATEN BANGKA,RUMAH SUSUN,Pembangunan baru,TNI,"TNI AL, Lanal Bangka Belitung, Tanjung Gudang Belinyu, Kel. Air Jukung Kec. Belinyu (T.45, L.3)",35,12382167,2015,,,,,,,,,,
3540,KEPULAUAN BANGKA BELITUNG,KABUPATEN BANGKA BARAT,RUMAH SWADAYA,Peningkatan Kualitas,Masyarakat Berpenghasilan Rendah (MBR),Kec. Kelapa Ds. Pangkal Beras,29,435000,2017,,,,,,,,,,
3541,KEPULAUAN BANGKA BELITUNG,KABUPATEN BANGKA BARAT,RUMAH SWADAYA,Peningkatan Kualitas,Masyarakat Berpenghasilan Rendah (MBR),Kec. Mentok Ds. Belolaut,47,705000,2017,,,,,,,,,,
3542,KEPULAUAN BANGKA BELITUNG,KABUPATEN BANGKA BARAT,RUMAH SWADAYA,Peningkatan Kualitas,Masyarakat Berpenghasilan Rendah (MBR),Kec. Simpang Teritip Ds. Air Nyatoh,24,360000,2017,,,,,,,,,,
3543,KEPULAUAN BANGKA BELITUNG,KABUPATEN BANGKA BARAT,RUMAH SWADAYA,Peningkatan Kualitas,Masyarakat Berpenghasilan Rendah (MBR),Kec. Simpang Teritip Ds. Berang,37,555000,2017,,,,,,,,,,
3544,KEPULAUAN BANGKA BELITUNG,KABUPATEN BANGKA BARAT,RUMAH SWADAYA,Peningkatan Kualitas,Masyarakat Berpenghasilan Rendah (MBR),Kec. Simpang Teritip Ds. Ibul,64,960000,2017,,,,,,,,,,
3545,KEPULAUAN BANGKA BELITUNG,KABUPATEN BANGKA BARAT,RUMAH SWADAYA,Peningkatan Kualitas,Masyarakat Berpenghasilan Rendah (MBR),Kec. Simpang Teritip Ds. Pangek,23,345000,2017,,,,,,,,,,
3546,KEPULAUAN BANGKA BELITUNG,KABUPATEN BANGKA BARAT,RUMAH SWADAYA,Peningkatan Kualitas,Masyarakat Berpenghasilan Rendah (MBR),Kec. Simpang Teritip Ds. Peradong,89,1335000,2017,,,,,,,,,,
3547,KEPULAUAN BANGKA BELITUNG,KABUPATEN BANGKA BARAT,RUMAH SWADAYA,Peningkatan Kualitas,Masyarakat Berpenghasilan Rendah (MBR),Kec. Tempilang Ds. Tanjungniur,28,420000,2017,,,,,,,,,,
3548,KEPULAUAN BANGKA BELITUNG,KABUPATEN BANGKA BARAT,RUMAH KHUSUS,Pembangunan baru,POLRI,"Polres Bangka Barat, Pembangunan Rumdin Polres Di Mentok, T.54, Desa Belo Laut, Kec. Mentok",8,1713914,2015,,,,,,,,,,
3549,KEPULAUAN BANGKA BELITUNG,KABUPATEN BANGKA BARAT,RUMAH KHUSUS,Pembangunan baru,POLRI,Polsek Tempilang -Jl. Panglima Angin Kec. Tempilang,6,1285436,2015,,,,,,,,,,
3550,KEPULAUAN BANGKA BELITUNG,KABUPATEN BANGKA BARAT,RUMAH KHUSUS,Pembangunan baru,POLRI,Polsek Simpang Teritip-Jl. Raya Mentok Pangkalpinang Desa Pangek Kec. Simpang Teritip,2,428479,2015,,,,,,,,,,
3551,KEPULAUAN BANGKA BELITUNG,KABUPATEN BANGKA BARAT,RUMAH SUSUN,Pembangunan baru,POLRI,"POLRES BANGKA BARAT, Jl. Gelora No.3 Kelurahan Sungai Daeng, Kecamatan Muntok (T.36,L.3)",48,13252992,2015,,,,,,,,,,
3552,KEPULAUAN BANGKA BELITUNG,KABUPATEN BANGKA SELATAN,RUMAH SWADAYA,Peningkatan Kualitas,Masyarakat Berpenghasilan Rendah (MBR),"Kec. Toboali, Ds. Kepoh",70,985000,2016,,,,,,,,,,
3553,KEPULAUAN BANGKA BELITUNG,KABUPATEN BANGKA SELATAN,RUMAH SWADAYA,Peningkatan Kualitas,Masyarakat Berpenghasilan Rendah (MBR),"Kec. Toboali, Ds. Keposang",51,642500,2016,,,,,,,,,,
3554,KEPULAUAN BANGKA BELITUNG,KABUPATEN BANGKA SELATAN,RUMAH SWADAYA,Peningkatan Kualitas,Masyarakat Berpenghasilan Rendah (MBR),"Kec. Toboali, Ds. Serdang",110,1637500,2016,,,,,,,,,,
3555,KEPULAUAN BANGKA BELITUNG,KABUPATEN BANGKA SELATAN,RUMAH SWADAYA,Peningkatan Kualitas,Masyarakat Berpenghasilan Rendah (MBR),Kec. Air Gegas Ds. Delas,20,300000,2017,,,,,,,,,,
3556,KEPULAUAN BANGKA BELITUNG,KABUPATEN BANGKA SELATAN,RUMAH SWADAYA,Peningkatan Kualitas,Masyarakat Berpenghasilan Rendah (MBR),Kec. Air Gegas Ds. Ranggas,20,300000,2017,,,,,,,,,,
3557,KEPULAUAN BANGKA BELITUNG,KABUPATEN BANGKA SELATAN,RUMAH SWADAYA,Peningkatan Kualitas,Masyarakat Berpenghasilan Rendah (MBR),Kec. Air Gegas Ds. Tepus,20,300000,2017,,,,,,,,,,
3558,KEPULAUAN BANGKA BELITUNG,KABUPATEN BANGKA SELATAN,RUMAH SWADAYA,Peningkatan Kualitas,Masyarakat Berpenghasilan Rendah (MBR),Kec. Pulau Besar Ds. Fajar Indah,20,300000,2017,,,,,,,,,,
3559,KEPULAUAN BANGKA BELITUNG,KABUPATEN BANGKA SELATAN,RUMAH SWADAYA,Peningkatan Kualitas,Masyarakat Berpenghasilan Rendah (MBR),Kec. Pulau Besar Ds. Panca Tunggal,20,300000,2017,,,,,,,,,,
3560,KEPULAUAN BANGKA BELITUNG,KABUPATEN BANGKA SELATAN,RUMAH SWADAYA,Peningkatan Kualitas,Masyarakat Berpenghasilan Rendah (MBR),Kec. Kepulauan Pongok Ds. Pongok,60,900000,2017,,,,,,,,,,
3561,KEPULAUAN BANGKA BELITUNG,KABUPATEN BANGKA SELATAN,RUMAH SWADAYA,Peningkatan Kualitas,Masyarakat Berpenghasilan Rendah (MBR),Kec. Payung Ds. Payung,26,390000,2017,,,,,,,,,,
3562,KEPULAUAN BANGKA BELITUNG,KABUPATEN BANGKA SELATAN,RUMAH SWADAYA,Peningkatan Kualitas,Masyarakat Berpenghasilan Rendah (MBR),Kec. Simpang Rimba Ds. Jelutung II,20,300000,2017,,,,,,,,,,
3563,KEPULAUAN BANGKA BELITUNG,KABUPATEN BANGKA SELATAN,RUMAH SWADAYA,Peningkatan Kualitas,Masyarakat Berpenghasilan Rendah (MBR),Kec. Simpang Rimba Ds. Rajik,20,300000,2017,,,,,,,,,,
3564,KEPULAUAN BANGKA BELITUNG,KABUPATEN BANGKA SELATAN,RUMAH SWADAYA,Peningkatan Kualitas,Masyarakat Berpenghasilan Rendah (MBR),Kec. Simpang Rimba Ds. Simpang Rimba,16,240000,2017,,,,,,,,,,
3565,KEPULAUAN BANGKA BELITUNG,KABUPATEN BANGKA SELATAN,RUMAH SWADAYA,Peningkatan Kualitas,Masyarakat Berpenghasilan Rendah (MBR),Kec. Toboali Ds. Gadung,28,420000,2017,,,,,,,,,,
3566,KEPULAUAN BANGKA BELITUNG,KABUPATEN BANGKA SELATAN,RUMAH SWADAYA,Peningkatan Kualitas,Masyarakat Berpenghasilan Rendah (MBR),Kec. Toboali Ds. Rias,23,345000,2017,,,,,,,,,,
3567,KEPULAUAN BANGKA BELITUNG,KABUPATEN BANGKA SELATAN,RUMAH SWADAYA,Peningkatan Kualitas,Masyarakat Berpenghasilan Rendah (MBR),Kec. Tukak Sadai Ds. Pasir Putih,29,435000,2017,,,,,,,,,,
3568,KEPULAUAN BANGKA BELITUNG,KABUPATEN BANGKA SELATAN,RUMAH KHUSUS,Pembangunan baru,POLRI,"Polres Bangka Selatan, Pembangunan Rumdin Polsek Toboali Di Tukak Sadai, T.36 Koppel, Desa Tiram Kec. Tukak Sadai",8,1713914,2015,,,,,,,,,,
3569,KEPULAUAN BANGKA BELITUNG,KABUPATEN BANGKA SELATAN,RUMAH SUSUN,Pembangunan baru,POLRI,"POLDA BABEL, Jl. Raya Gadung, Kec. Toboali (T.36, L.3)",48,13280845,2015,,,,,,,,,,
3570,KEPULAUAN BANGKA BELITUNG,KABUPATEN BANGKA TENGAH,RUMAH SWADAYA,Peningkatan Kualitas,Masyarakat Berpenghasilan Rendah (MBR),"Kec. Koba, Ds. Koba",34,395000,2016,,,,,,,,,,
3571,KEPULAUAN BANGKA BELITUNG,KABUPATEN BANGKA TENGAH,RUMAH SWADAYA,Peningkatan Kualitas,Masyarakat Berpenghasilan Rendah (MBR),"Kec. Koba, Ds. Padang Mulia",35,415000,2016,,,,,,,,,,
3572,KEPULAUAN BANGKA BELITUNG,KABUPATEN BANGKA TENGAH,RUMAH SWADAYA,Peningkatan Kualitas,Masyarakat Berpenghasilan Rendah (MBR),Kec. Lubuk Besar Ds. Lubuk Pabrik,31,465000,2017,,,,,,,,,,
3573,KEPULAUAN BANGKA BELITUNG,KABUPATEN BANGKA TENGAH,RUMAH SWADAYA,Peningkatan Kualitas,Masyarakat Berpenghasilan Rendah (MBR),Kec. Lubuk Besar Ds. Batu Beriga,16,240000,2017,,,,,,,,,,
3574,KEPULAUAN BANGKA BELITUNG,KABUPATEN BANGKA TENGAH,RUMAH SWADAYA,Peningkatan Kualitas,Masyarakat Berpenghasilan Rendah (MBR),Kec. Lubuk Besar Ds. Kulur,11,165000,2017,,,,,,,,,,
3575,KEPULAUAN BANGKA BELITUNG,KABUPATEN BANGKA TENGAH,RUMAH SWADAYA,Peningkatan Kualitas,Masyarakat Berpenghasilan Rendah (MBR),Kec. Lubuk Besar Ds. Lubuk Besar,17,255000,2017,,,,,,,,,,
3576,KEPULAUAN BANGKA BELITUNG,KABUPATEN BANGKA TENGAH,RUMAH SWADAYA,Peningkatan Kualitas,Masyarakat Berpenghasilan Rendah (MBR),Kec. Lubuk Besar Ds. Lubuk Lingkuk,10,150000,2017,,,,,,,,,,
3577,KEPULAUAN BANGKA BELITUNG,KABUPATEN BANGKA TENGAH,RUMAH SWADAYA,Peningkatan Kualitas,Masyarakat Berpenghasilan Rendah (MBR),Kec. Lubuk Besar Ds. Perlang,16,240000,2017,,,,,,,,,,
3578,KEPULAUAN BANGKA BELITUNG,KABUPATEN BANGKA TENGAH,RUMAH SWADAYA,Peningkatan Kualitas,Masyarakat Berpenghasilan Rendah (MBR),Kec. Pangkalan Baru Ds. Tanjung Gunung,30,450000,2017,,,,,,,,,,
3579,KEPULAUAN BANGKA BELITUNG,KABUPATEN BANGKA TENGAH,RUMAH SWADAYA,Peningkatan Kualitas,Masyarakat Berpenghasilan Rendah (MBR),Kec. Sungai Selan Ds. Sungai Selan,25,375000,2017,,,,,,,,,,
3580,KEPULAUAN BANGKA BELITUNG,KABUPATEN BANGKA TENGAH,RUMAH SWADAYA,Peningkatan Kualitas,Masyarakat Berpenghasilan Rendah (MBR),Kec. Sungai Selan Ds. Sungai Selan Atas,23,345000,2017,,,,,,,,,,
3581,KEPULAUAN BANGKA BELITUNG,KABUPATEN BANGKA TENGAH,RUMAH SWADAYA,Peningkatan Kualitas,Masyarakat Berpenghasilan Rendah (MBR),Kec. Sungai Selan Ds. Lampur,12,180000,2017,,,,,,,,,,
3582,KEPULAUAN BANGKA BELITUNG,KABUPATEN BANGKA TENGAH,RUMAH SWADAYA,Peningkatan Kualitas,Masyarakat Berpenghasilan Rendah (MBR),Kec. Sungai Selan Ds. Sarangmandi,10,150000,2017,,,,,,,,,,
3583,KEPULAUAN BANGKA BELITUNG,KABUPATEN BANGKA TENGAH,RUMAH UMUM DAN KOMERSIAL,PEMBANGUNAN PSU,Masyarakat Berpenghasilan Rendah (MBR),Graha Kartika Garuda Jaya,55,300766,2016,,,,,,,,,,
3584,KEPULAUAN BANGKA BELITUNG,KABUPATEN BANGKA TENGAH,RUMAH KHUSUS,Pembangunan baru,POLRI,"Sat Brimob, Pembangunan Rumdin Detasemen B Pelpor Di Pulau Belitung, T.36 Koppel Jl. Pengayoman, Desa Cerucuk Kec. Badau",16,3427829,2015,,,,,,,,,,
3585,KEPULAUAN BANGKA BELITUNG,KABUPATEN BELITUNG,RUMAH SWADAYA,Peningkatan Kualitas,Masyarakat Berpenghasilan Rendah (MBR),"Kec. Membalong, Ds. Perepat",57,715000,2016,,,,,,,,,,
