NO,PROVINSI,KABUPATEN/ KOTA,PROGRAM,KEGIATAN,PENERIMA MANFAAT,KETERANGAN,UNIT,ANGGARAN,TAHUN,,,,,,,,,,
3286,KALIMANTAN TIMUR,KABUPATEN BERAU,RUMAH SWADAYA,Peningkatan Kualitas,Masyarakat Berpenghasilan Rendah (MBR),Kec. Gunung Tabur Ds. Samburakat,50,750000,2017,,,,,,,,,,
3287,KALIMANTAN TIMUR,KABUPATEN BERAU,RUMAH SWADAYA,Peningkatan Kualitas,Masyarakat Berpenghasilan Rendah (MBR),Kec. Gunung Tabur Ds. Sambakungan,50,750000,2017,,,,,,,,,,
3288,KALIMANTAN TIMUR,KABUPATEN BERAU,RUMAH SWADAYA,Peningkatan Kualitas,Masyarakat Berpenghasilan Rendah (MBR),Kec. Tanjung Redeb Ds. Gunung Panjang,50,750000,2017,,,,,,,,,,
3289,KALIMANTAN TIMUR,KABUPATEN BERAU,RUMAH SWADAYA,Peningkatan Kualitas,Masyarakat Berpenghasilan Rendah (MBR),Kec. Tanjung Redeb Ds. Karang Ambun,50,750000,2017,,,,,,,,,,
3290,KALIMANTAN TIMUR,KABUPATEN BERAU,RUMAH SWADAYA,Peningkatan Kualitas,Masyarakat Berpenghasilan Rendah (MBR),Kec. Tanjung Redeb Ds. Tanjung Redeb,50,750000,2017,,,,,,,,,,
3291,KALIMANTAN TIMUR,KABUPATEN BERAU,RUMAH UMUM DAN KOMERSIAL,PEMBANGUNAN PSU,Masyarakat Berpenghasilan Rendah (MBR),Perumnas Cabang Kaltara,100,419438,2016,,,,,,,,,,
3292,KALIMANTAN TIMUR,KABUPATEN BERAU,RUMAH KHUSUS,Pembangunan baru,POLRI,"Rumdin Polsek Kelay, Kec. Kelay, Kab. Berau ",5,969064,2016,,,,,,,,,,
3293,KALIMANTAN TIMUR,KABUPATEN BERAU,RUMAH KHUSUS,Pembangunan baru,POLRI,"Rumdin Polsek Maratua, Ds. Maratua Kec. Maratua, Kab. Berau ",4,775251,2016,,,,,,,,,,
3294,KALIMANTAN TIMUR,KABUPATEN BERAU,RUMAH KHUSUS,Pembangunan baru,TNI,"Yonarmed 18/105, Jl. Berau-Samarinda Km. 17, Ds. Labanan Makmur, Kec. Teluk Bayur, Berau, Kaltim",10,2997906,2016,,,,,,,,,,
3295,KALIMANTAN TIMUR,KABUPATEN BERAU,RUMAH KHUSUS,Pembangunan baru,TNI,"Lanal Tarakan, Jl. Pamusian, Kampung Baru",10,2557646,2016,,,,,,,,,,
3296,KALIMANTAN TIMUR,KABUPATEN KUTAI BARAT,RUMAH SWADAYA,Peningkatan Kualitas,Masyarakat Berpenghasilan Rendah (MBR),Kec. Melak Ds. Melak Ilir,60,900000,2017,,,,,,,,,,
3297,KALIMANTAN TIMUR,KABUPATEN KUTAI BARAT,RUMAH SWADAYA,Peningkatan Kualitas,Masyarakat Berpenghasilan Rendah (MBR),Kec. Melak Ds. Melak Ulu,60,900000,2017,,,,,,,,,,
3298,KALIMANTAN TIMUR,KABUPATEN KUTAI BARAT,RUMAH SWADAYA,Peningkatan Kualitas,Masyarakat Berpenghasilan Rendah (MBR),Kec. Penyinggahan Ds. Minta,25,375000,2017,,,,,,,,,,
3299,KALIMANTAN TIMUR,KABUPATEN KUTAI BARAT,RUMAH SWADAYA,Peningkatan Kualitas,Masyarakat Berpenghasilan Rendah (MBR),Kec. Penyinggahan Ds. Loa Deras,35,525000,2017,,,,,,,,,,
3300,KALIMANTAN TIMUR,KABUPATEN KUTAI BARAT,RUMAH SWADAYA,Peningkatan Kualitas,Masyarakat Berpenghasilan Rendah (MBR),Kec. Penyinggahan Ds. Penyinggahan Ilir,60,900000,2017,,,,,,,,,,
3301,KALIMANTAN TIMUR,KABUPATEN KUTAI BARAT,RUMAH SWADAYA,Peningkatan Kualitas,Masyarakat Berpenghasilan Rendah (MBR),Kec. Penyinggahan Ds. Penginggahan Ulu,50,750000,2017,,,,,,,,,,
3302,KALIMANTAN TIMUR,KABUPATEN KUTAI BARAT,RUMAH KHUSUS,Pembangunan baru,POLRI,Rumdin Polres Kutai Barat,4,773244,2016,,,,,,,,,,
3303,KALIMANTAN TIMUR,KABUPATEN KUTAI BARAT,RUMAH KHUSUS,Pembangunan baru,POLRI,Rumdin Polsek Siluq Ngurai,3,579933,2016,,,,,,,,,,
3304,KALIMANTAN TIMUR,KABUPATEN KUTAI BARAT,RUMAH KHUSUS,Pembangunan baru,POLRI,Rumdin Polsek Melak,2,386622,2016,,,,,,,,,,
3305,KALIMANTAN TIMUR,KABUPATEN KUTAI BARAT,RUMAH KHUSUS,Pembangunan baru,TNI,"Kodim 0912/Kutai Barat, Jl. A. Yani No. 12, Ds. Barong Tongkok, Kec. Barong Tongkok",6,1498505,2016,,,,,,,,,,
3306,KALIMANTAN TIMUR,KABUPATEN KUTAI BARAT,RUMAH KHUSUS,Pembangunan baru,TNI,"Koramil 0912-02/Long Pahangai, Ds. Long Pahangai II, Kec. Long Pahangai",4,999004,2016,,,,,,,,,,
3307,KALIMANTAN TIMUR,KABUPATEN KUTAI BARAT,RUMAH KHUSUS,Pembangunan baru,TNI,"Koramil 0912-03/Long Bangun, Jl. Bang Juk, Ds. Ujoh Bilang, Kec. Long Bangun",4,999004,2016,,,,,,,,,,
3308,KALIMANTAN TIMUR,KABUPATEN KUTAI BARAT,RUMAH KHUSUS,Pembangunan baru,TNI,"Koramil 0912-04/Long Iram, Jl. Suwondo, Ds. Long Iram, Kec. Long Iram, Kab. Kutai Bara",4,999004,2016,,,,,,,,,,
3309,KALIMANTAN TIMUR,KABUPATEN KUTAI KARTANEGARA,RUMAH SWADAYA,Peningkatan Kualitas,Masyarakat Berpenghasilan Rendah (MBR),"Kec. Tenggarong, Desa. Jahab",211,2860000,2015,,,,,,,,,,
3310,KALIMANTAN TIMUR,KABUPATEN KUTAI KARTANEGARA,RUMAH SWADAYA,Peningkatan Kualitas,Masyarakat Berpenghasilan Rendah (MBR),"Kec. Muara Wlii, Desa. Muara Wsis",187,2245000,2015,,,,,,,,,,
3311,KALIMANTAN TIMUR,KABUPATEN KUTAI KARTANEGARA,RUMAH SWADAYA,Peningkatan Kualitas,Masyarakat Berpenghasilan Rendah (MBR),"Kec. Muara Wlii, Desa. Sabemban/Kuyun",90,1265000,2015,,,,,,,,,,
3312,KALIMANTAN TIMUR,KABUPATEN KUTAI KARTANEGARA,RUMAH SWADAYA,Peningkatan Kualitas,Masyarakat Berpenghasilan Rendah (MBR),"Kec. Tenggarong, Ds. Jahab",177,2605000,2016,,,,,,,,,,
3313,KALIMANTAN TIMUR,KABUPATEN KUTAI KARTANEGARA,RUMAH SWADAYA,Peningkatan Kualitas,Masyarakat Berpenghasilan Rendah (MBR),"Kec. Samboja, Ds. Bukit Raya",30,425000,2016,,,,,,,,,,
3314,KALIMANTAN TIMUR,KABUPATEN KUTAI KARTANEGARA,RUMAH SWADAYA,Peningkatan Kualitas,Masyarakat Berpenghasilan Rendah (MBR),"Kec. Samboja, Ds. Beringin Agung",91,1075000,2016,,,,,,,,,,
3315,KALIMANTAN TIMUR,KABUPATEN KUTAI KARTANEGARA,RUMAH SWADAYA,Peningkatan Kualitas,Masyarakat Berpenghasilan Rendah (MBR),"Kec. Muara Wis, Ds. Muara Wis",177,2385000,2016,,,,,,,,,,
3316,KALIMANTAN TIMUR,KABUPATEN KUTAI KARTANEGARA,RUMAH SWADAYA,Peningkatan Kualitas,Masyarakat Berpenghasilan Rendah (MBR),"Kec. Muara Wis, Ds. Sebemban",70,960000,2016,,,,,,,,,,
3317,KALIMANTAN TIMUR,KABUPATEN KUTAI KARTANEGARA,RUMAH SWADAYA,Peningkatan Kualitas,Masyarakat Berpenghasilan Rendah (MBR),Kec. Semboja Ds. Beringin Agung,52,780000,2017,,,,,,,,,,
3318,KALIMANTAN TIMUR,KABUPATEN KUTAI KARTANEGARA,RUMAH SWADAYA,Peningkatan Kualitas,Masyarakat Berpenghasilan Rendah (MBR),Kec. Semboja Ds. Bukit Raya,45,675000,2017,,,,,,,,,,
3319,KALIMANTAN TIMUR,KABUPATEN KUTAI KARTANEGARA,RUMAH SWADAYA,Peningkatan Kualitas,Masyarakat Berpenghasilan Rendah (MBR),Kec. Semboja Ds. Karya Jaya,40,600000,2017,,,,,,,,,,
3320,KALIMANTAN TIMUR,KABUPATEN KUTAI KARTANEGARA,RUMAH SWADAYA,Peningkatan Kualitas,Masyarakat Berpenghasilan Rendah (MBR),Kec. Tenggarong Ds. Jahab,60,900000,2017,,,,,,,,,,
3321,KALIMANTAN TIMUR,KABUPATEN KUTAI KARTANEGARA,RUMAH SWADAYA,Peningkatan Kualitas,Masyarakat Berpenghasilan Rendah (MBR),Kec. Tenggarong Ds. Bukit Biru,30,450000,2017,,,,,,,,,,
3322,KALIMANTAN TIMUR,KABUPATEN KUTAI KARTANEGARA,RUMAH SWADAYA,Peningkatan Kualitas,Masyarakat Berpenghasilan Rendah (MBR),Kec. Tenggarong Ds. Loa Tebu,54,810000,2017,,,,,,,,,,
3323,KALIMANTAN TIMUR,KABUPATEN KUTAI KARTANEGARA,RUMAH SWADAYA,Peningkatan Kualitas,Masyarakat Berpenghasilan Rendah (MBR),Kec. Muara Wis Ds. Melintang,60,900000,2017,,,,,,,,,,
3324,KALIMANTAN TIMUR,KABUPATEN KUTAI KARTANEGARA,RUMAH SWADAYA,Peningkatan Kualitas,Masyarakat Berpenghasilan Rendah (MBR),Kec. Loa Kulu Ds. Sumber Sari,30,450000,2017,,,,,,,,,,
3325,KALIMANTAN TIMUR,KABUPATEN KUTAI KARTANEGARA,RUMAH SWADAYA,Peningkatan Kualitas,Masyarakat Berpenghasilan Rendah (MBR),Kec. Loa Kulu Ds. Loh Sumber,30,450000,2017,,,,,,,,,,
3326,KALIMANTAN TIMUR,KABUPATEN KUTAI KARTANEGARA,RUMAH SWADAYA,Peningkatan Kualitas,Masyarakat Berpenghasilan Rendah (MBR),Kec. Kota Bangun Ds. Kota Bangun Seberang,50,750000,2017,,,,,,,,,,
3327,KALIMANTAN TIMUR,KABUPATEN KUTAI TIMUR,RUMAH SWADAYA,Peningkatan Kualitas,Masyarakat Berpenghasilan Rendah (MBR),Kec. Sangatta Selatan Ds. Sangatta Selatan,50,750000,2017,,,,,,,,,,
3328,KALIMANTAN TIMUR,KABUPATEN KUTAI TIMUR,RUMAH SWADAYA,Peningkatan Kualitas,Masyarakat Berpenghasilan Rendah (MBR),Kec. Sangatta Selatan Ds. Sangkima,50,750000,2017,,,,,,,,,,
3329,KALIMANTAN TIMUR,KABUPATEN KUTAI TIMUR,RUMAH SWADAYA,Peningkatan Kualitas,Masyarakat Berpenghasilan Rendah (MBR),Kec. Sangatta Selatan Ds. Singa Geweh,50,750000,2017,,,,,,,,,,
3330,KALIMANTAN TIMUR,KABUPATEN KUTAI TIMUR,RUMAH SWADAYA,Peningkatan Kualitas,Masyarakat Berpenghasilan Rendah (MBR),Kec. Teluk Pandan Ds. Kandolo,50,750000,2017,,,,,,,,,,
3331,KALIMANTAN TIMUR,KABUPATEN KUTAI TIMUR,RUMAH SWADAYA,Peningkatan Kualitas,Masyarakat Berpenghasilan Rendah (MBR),Kec. Teluk Pandan Ds. Suka Rahmat,50,750000,2017,,,,,,,,,,
3332,KALIMANTAN TIMUR,KABUPATEN KUTAI TIMUR,RUMAH SWADAYA,Peningkatan Kualitas,Masyarakat Berpenghasilan Rendah (MBR),Kec. Kaliorang Ds. Bukit Harapan,30,450000,2017,,,,,,,,,,
3333,KALIMANTAN TIMUR,KABUPATEN PASER,RUMAH SWADAYA,Peningkatan Kualitas,Masyarakat Berpenghasilan Rendah (MBR),"Kec. Pasir Balengkong, Ds. Damit",33,495000,2016,,,,,,,,,,
3334,KALIMANTAN TIMUR,KABUPATEN PASER,RUMAH SWADAYA,Peningkatan Kualitas,Masyarakat Berpenghasilan Rendah (MBR),"Kec. Pasir Balengkong, Ds. Suatang",33,495000,2016,,,,,,,,,,
3335,KALIMANTAN TIMUR,KABUPATEN PASER,RUMAH SWADAYA,Peningkatan Kualitas,Masyarakat Berpenghasilan Rendah (MBR),"Kec. Pasir Balengkong, Ds. Sangkuriman",30,450000,2016,,,,,,,,,,
3336,KALIMANTAN TIMUR,KABUPATEN PASER,RUMAH SWADAYA,Peningkatan Kualitas,Masyarakat Berpenghasilan Rendah (MBR),"Kec. Pasir Balengkong, Ds. Olong Pinang",30,445000,2016,,,,,,,,,,
3337,KALIMANTAN TIMUR,KABUPATEN PASER,RUMAH SWADAYA,Peningkatan Kualitas,Masyarakat Berpenghasilan Rendah (MBR),"Kec. Tanah Grogot, Ds. Keresik Bura",39,585000,2016,,,,,,,,,,
3338,KALIMANTAN TIMUR,KABUPATEN PASER,RUMAH SWADAYA,Peningkatan Kualitas,Masyarakat Berpenghasilan Rendah (MBR),"Kec. Tanah Grogot, Ds. Janju",40,577500,2016,,,,,,,,,,
3339,KALIMANTAN TIMUR,KABUPATEN PASER,RUMAH SWADAYA,Peningkatan Kualitas,Masyarakat Berpenghasilan Rendah (MBR),"Kec. Tanah Grogot, Ds. Tepian Batang",35,510000,2016,,,,,,,,,,
3340,KALIMANTAN TIMUR,KABUPATEN PASER,RUMAH SWADAYA,Peningkatan Kualitas,Masyarakat Berpenghasilan Rendah (MBR),"Kec. Tanah Grogot, Ds. Tanah Periuk",30,450000,2016,,,,,,,,,,
3341,KALIMANTAN TIMUR,KABUPATEN PASER,RUMAH SWADAYA,Peningkatan Kualitas,Masyarakat Berpenghasilan Rendah (MBR),"Kec. Tanah Grogot, Ds. Pepara",35,525000,2016,,,,,,,,,,
3342,KALIMANTAN TIMUR,KABUPATEN PASER,RUMAH SWADAYA,Peningkatan Kualitas,Masyarakat Berpenghasilan Rendah (MBR),"Kec. Tanah Grogot, Ds. Sempulang",33,495000,2016,,,,,,,,,,
3343,KALIMANTAN TIMUR,KABUPATEN PASER,RUMAH SWADAYA,Peningkatan Kualitas,Masyarakat Berpenghasilan Rendah (MBR),"Kec. Tanah Grogot, Ds. Padang Pengrapat",38,570000,2016,,,,,,,,,,
3344,KALIMANTAN TIMUR,KABUPATEN PASER,RUMAH SWADAYA,Peningkatan Kualitas,Masyarakat Berpenghasilan Rendah (MBR),"Kec. Tanah Grogot, Ds. Pulau Rantau",31,465000,2016,,,,,,,,,,
3345,KALIMANTAN TIMUR,KABUPATEN PASER,RUMAH SWADAYA,Peningkatan Kualitas,Masyarakat Berpenghasilan Rendah (MBR),"Kec. Kuaro, Ds. Kuaro",30,450000,2016,,,,,,,,,,
3346,KALIMANTAN TIMUR,KABUPATEN PASER,RUMAH SWADAYA,Peningkatan Kualitas,Masyarakat Berpenghasilan Rendah (MBR),"Kec. Kuaro, Ds. Keluang Paser Jaya",30,450000,2016,,,,,,,,,,
3347,KALIMANTAN TIMUR,KABUPATEN PASER,RUMAH SWADAYA,Peningkatan Kualitas,Masyarakat Berpenghasilan Rendah (MBR),"Kec. Long Ikis, Ds. Pait",33,487500,2016,,,,,,,,,,
3348,KALIMANTAN TIMUR,KABUPATEN PASER,RUMAH UMUM DAN KOMERSIAL,PEMBANGUNAN PSU,Masyarakat Berpenghasilan Rendah (MBR),Pondok Karet Jone,100,513880,2016,,,,,,,,,,
3349,KALIMANTAN TIMUR,KABUPATEN PASER,RUMAH UMUM DAN KOMERSIAL,PEMBANGUNAN PSU,Masyarakat Berpenghasilan Rendah (MBR),Perumnas Cabang Kaltara,250,1109096,2016,,,,,,,,,,
3350,KALIMANTAN TIMUR,KABUPATEN PENAJAM PASER UTARA,RUMAH SWADAYA,Peningkatan Kualitas,Masyarakat Berpenghasilan Rendah (MBR),"Kec. Penajam, Ds. Tanjung Tengah",50,750000,2016,,,,,,,,,,
3351,KALIMANTAN TIMUR,KABUPATEN PENAJAM PASER UTARA,RUMAH SWADAYA,Peningkatan Kualitas,Masyarakat Berpenghasilan Rendah (MBR),"Kec. Penajam, Ds. Salo Loang",30,450000,2016,,,,,,,,,,
3352,KALIMANTAN TIMUR,KABUPATEN PENAJAM PASER UTARA,RUMAH SWADAYA,Peningkatan Kualitas,Masyarakat Berpenghasilan Rendah (MBR),"Kec. Penajam, Ds. Sungai Parit",30,450000,2016,,,,,,,,,,
3353,KALIMANTAN TIMUR,KABUPATEN PENAJAM PASER UTARA,RUMAH SWADAYA,Peningkatan Kualitas,Masyarakat Berpenghasilan Rendah (MBR),"Kec. Penajam, Ds. Penajam",65,975000,2016,,,,,,,,,,
3354,KALIMANTAN TIMUR,KABUPATEN PENAJAM PASER UTARA,RUMAH SWADAYA,Peningkatan Kualitas,Masyarakat Berpenghasilan Rendah (MBR),"Kec. Penajam, Ds. Sotek",50,750000,2016,,,,,,,,,,
3355,KALIMANTAN TIMUR,KABUPATEN PENAJAM PASER UTARA,RUMAH SWADAYA,Peningkatan Kualitas,Masyarakat Berpenghasilan Rendah (MBR),"Kec. Babulu, Ds. Babulu Darat",65,975000,2016,,,,,,,,,,
3356,KALIMANTAN TIMUR,KABUPATEN PENAJAM PASER UTARA,RUMAH SWADAYA,Peningkatan Kualitas,Masyarakat Berpenghasilan Rendah (MBR),"Kec. Babulu, Ds. Gunung Makmur",50,750000,2016,,,,,,,,,,
3357,KALIMANTAN TIMUR,KABUPATEN PENAJAM PASER UTARA,RUMAH SWADAYA,Peningkatan Kualitas,Masyarakat Berpenghasilan Rendah (MBR),"Kec. Babulu, Ds. Rawa Mulia",50,750000,2016,,,,,,,,,,
3358,KALIMANTAN TIMUR,KABUPATEN PENAJAM PASER UTARA,RUMAH SWADAYA,Peningkatan Kualitas,Masyarakat Berpenghasilan Rendah (MBR),"Kec. Babulu, Ds. Rintik",30,450000,2016,,,,,,,,,,
3359,KALIMANTAN TIMUR,KABUPATEN PENAJAM PASER UTARA,RUMAH SWADAYA,Peningkatan Kualitas,Masyarakat Berpenghasilan Rendah (MBR),"Kec. Babulu, Ds. Labangka Barat",30,450000,2016,,,,,,,,,,
3360,KALIMANTAN TIMUR,KABUPATEN PENAJAM PASER UTARA,RUMAH SWADAYA,Peningkatan Kualitas,Masyarakat Berpenghasilan Rendah (MBR),Kec. Sepaku Ds. Mentawir,30,450000,2017,,,,,,,,,,
3361,KALIMANTAN TIMUR,KABUPATEN PENAJAM PASER UTARA,RUMAH SWADAYA,Peningkatan Kualitas,Masyarakat Berpenghasilan Rendah (MBR),Kec. Sepaku Ds. Sukaraja,50,750000,2017,,,,,,,,,,
3362,KALIMANTAN TIMUR,KABUPATEN PENAJAM PASER UTARA,RUMAH SWADAYA,Peningkatan Kualitas,Masyarakat Berpenghasilan Rendah (MBR),Kec. Sepaku Ds. Tengin Baru,30,450000,2017,,,,,,,,,,
3363,KALIMANTAN TIMUR,KABUPATEN PENAJAM PASER UTARA,RUMAH SWADAYA,Peningkatan Kualitas,Masyarakat Berpenghasilan Rendah (MBR),Kec. Sepaku Ds. Argo Mulyo,30,450000,2017,,,,,,,,,,
3364,KALIMANTAN TIMUR,KABUPATEN PENAJAM PASER UTARA,RUMAH SWADAYA,Peningkatan Kualitas,Masyarakat Berpenghasilan Rendah (MBR),Kec. Sepaku Ds. Suko Mulyo,30,450000,2017,,,,,,,,,,
3365,KALIMANTAN TIMUR,KABUPATEN PENAJAM PASER UTARA,RUMAH SWADAYA,Peningkatan Kualitas,Masyarakat Berpenghasilan Rendah (MBR),Kec. Waru Ds. Sesulu,50,750000,2017,,,,,,,,,,
3366,KALIMANTAN TIMUR,KABUPATEN PENAJAM PASER UTARA,RUMAH SWADAYA,Peningkatan Kualitas,Masyarakat Berpenghasilan Rendah (MBR),Kec. Waru Ds. Waru,50,750000,2017,,,,,,,,,,
3367,KALIMANTAN TIMUR,KABUPATEN PENAJAM PASER UTARA,RUMAH SWADAYA,Peningkatan Kualitas,Masyarakat Berpenghasilan Rendah (MBR),Kec. Waru Ds. Bangun Mulya,30,450000,2017,,,,,,,,,,
3368,KALIMANTAN TIMUR,KABUPATEN PENAJAM PASER UTARA,RUMAH SWADAYA,Peningkatan Kualitas,Masyarakat Berpenghasilan Rendah (MBR),Kec. Waru Ds. Api Api,30,450000,2017,,,,,,,,,,
3369,KALIMANTAN TIMUR,KABUPATEN PENAJAM PASER UTARA,RUMAH UMUM DAN KOMERSIAL,PEMBANGUNAN PSU,Masyarakat Berpenghasilan Rendah (MBR),Kartini Residence,50,269520,2016,,,,,,,,,,
3370,KALIMANTAN TIMUR,KOTA BALIKPAPAN,RUMAH SWADAYA,Peningkatan Kualitas,Masyarakat Berpenghasilan Rendah (MBR),Kec. Balikpapan Timur Ds. Manggar Baru,50,750000,2017,,,,,,,,,,
3371,KALIMANTAN TIMUR,KOTA BALIKPAPAN,RUMAH SWADAYA,Peningkatan Kualitas,Masyarakat Berpenghasilan Rendah (MBR),Kec. Balikpapan Timur Ds. Teritip,50,750000,2017,,,,,,,,,,
3372,KALIMANTAN TIMUR,KOTA BALIKPAPAN,RUMAH SWADAYA,Peningkatan Kualitas,Masyarakat Berpenghasilan Rendah (MBR),Kec. Balikpapan Timur Ds. Lemaru,50,750000,2017,,,,,,,,,,
3373,KALIMANTAN TIMUR,KOTA BALIKPAPAN,RUMAH SWADAYA,Peningkatan Kualitas,Masyarakat Berpenghasilan Rendah (MBR),Kec. Balikpapan Selatan Ds. Sepinggan,50,750000,2017,,,,,,,,,,
3374,KALIMANTAN TIMUR,KOTA BALIKPAPAN,RUMAH UMUM DAN KOMERSIAL,PEMBANGUNAN PSU,Masyarakat Berpenghasilan Rendah (MBR),Bukit Batakan Permai,600,3692240,2015,,,,,,,,,,
3375,KALIMANTAN TIMUR,KOTA BALIKPAPAN,RUMAH UMUM DAN KOMERSIAL,PEMBANGUNAN PSU,Masyarakat Berpenghasilan Rendah (MBR),Batu Ratna Indah,74,618810,2015,,,,,,,,,,
3376,KALIMANTAN TIMUR,KOTA BALIKPAPAN,RUMAH UMUM DAN KOMERSIAL,PEMBANGUNAN PSU,Masyarakat Berpenghasilan Rendah (MBR),Gran Mulia Residence,100,505090,2016,,,,,,,,,,
3377,KALIMANTAN TIMUR,KOTA BALIKPAPAN,RUMAH UMUM DAN KOMERSIAL,PEMBANGUNAN PSU,Masyarakat Berpenghasilan Rendah (MBR),Perumahan Bukit Batuah,188,658000,2017,,,,,,,,,,
3378,KALIMANTAN TIMUR,KOTA BALIKPAPAN,RUMAH SUSUN,Pembangunan baru,TNI,"TNI AL, Lanal Balikpapan, Komplek Perumahan TNI AL Jl. Mulawarman Kel. Manggar (T.45, L.3)",35,14655255,2015,,,,,,,,,,
3379,KALIMANTAN TIMUR,KOTA BONTANG,RUMAH SUSUN,Pembangunan baru,Masyarakat Berpenghasilan Rendah (MBR),"Pemkot Bontang, Jl. Tarienggang, Kel. Guntung, Kec. Bontang Utara (TB. 1, T.24, L.5)",180,22735566,2016,,,,,,,,,,
3380,KALIMANTAN TIMUR,KOTA BONTANG,RUMAH SWADAYA,Peningkatan Kualitas,Masyarakat Berpenghasilan Rendah (MBR),"Kec. Bontang Utara, Ds. Lok Tuan",68,1020000,2016,,,,,,,,,,
3381,KALIMANTAN TIMUR,KOTA BONTANG,RUMAH SWADAYA,Peningkatan Kualitas,Masyarakat Berpenghasilan Rendah (MBR),"Kec. Bontang Selatan, Ds. Berbas Pantai",76,1140000,2016,,,,,,,,,,
3382,KALIMANTAN TIMUR,KOTA BONTANG,RUMAH SWADAYA,Peningkatan Kualitas,Masyarakat Berpenghasilan Rendah (MBR),"Kec. Bontang Selatan, Ds. Tanjung Laut",46,690000,2016,,,,,,,,,,
3383,KALIMANTAN TIMUR,KOTA BONTANG,RUMAH SWADAYA,Peningkatan Kualitas,Masyarakat Berpenghasilan Rendah (MBR),"Kec. Bontang Selatan, Ds. Tanjung Laut Indah",60,900000,2016,,,,,,,,,,
3384,KALIMANTAN TIMUR,KOTA BONTANG,RUMAH SWADAYA,Peningkatan Kualitas,Masyarakat Berpenghasilan Rendah (MBR),"Kec. Bontang Utara, Ds. Bontang Kuala",30,450000,2016,,,,,,,,,,
3385,KALIMANTAN TIMUR,KOTA BONTANG,RUMAH SWADAYA,Peningkatan Kualitas,Masyarakat Berpenghasilan Rendah (MBR),"Kec. Bontang Utara, Ds. Guntung",30,450000,2016,,,,,,,,,,
