NO,PROVINSI,KABUPATEN/ KOTA,PROGRAM,KEGIATAN,PENERIMA MANFAAT,KETERANGAN,UNIT,ANGGARAN,TAHUN,,,,,,,,,,
4378,NUSA TENGGARA BARAT,KABUPATEN LOMBOK TIMUR,RUMAH SWADAYA,Peningkatan Kualitas,Masyarakat Berpenghasilan Rendah (MBR),"Kec. Montong, Ds. Montong Betok",63,739500,2016,,,,,,,,,,
4379,NUSA TENGGARA BARAT,KABUPATEN LOMBOK TIMUR,RUMAH SWADAYA,Peningkatan Kualitas,Masyarakat Berpenghasilan Rendah (MBR),"Kec. Suralaga, Ds.Tumbuh Mulia",55,736500,2016,,,,,,,,,,
4380,NUSA TENGGARA BARAT,KABUPATEN LOMBOK TIMUR,RUMAH SWADAYA,Peningkatan Kualitas,Masyarakat Berpenghasilan Rendah (MBR),"Kec. Labuhan Haji, Ds. Ijobalit",65,749500,2016,,,,,,,,,,
4381,NUSA TENGGARA BARAT,KABUPATEN LOMBOK TIMUR,RUMAH SWADAYA,Peningkatan Kualitas,Masyarakat Berpenghasilan Rendah (MBR),"Kec. Sakra Barat, Ds. Bungtiang",56,750000,2016,,,,,,,,,,
4382,NUSA TENGGARA BARAT,KABUPATEN LOMBOK TIMUR,RUMAH SWADAYA,Peningkatan Kualitas,Masyarakat Berpenghasilan Rendah (MBR),Kec. Selong Ds. Denggen Timur,53,795000,2017,,,,,,,,,,
4383,NUSA TENGGARA BARAT,KABUPATEN LOMBOK TIMUR,RUMAH SWADAYA,Peningkatan Kualitas,Masyarakat Berpenghasilan Rendah (MBR),Kec. Selong Ds. Kelayu Jorong,30,450000,2017,,,,,,,,,,
4384,NUSA TENGGARA BARAT,KABUPATEN LOMBOK TIMUR,RUMAH SWADAYA,Peningkatan Kualitas,Masyarakat Berpenghasilan Rendah (MBR),Kec. Aikmel Ds. Aikmel Barat,31,465000,2017,,,,,,,,,,
4385,NUSA TENGGARA BARAT,KABUPATEN LOMBOK TIMUR,RUMAH SWADAYA,Peningkatan Kualitas,Masyarakat Berpenghasilan Rendah (MBR),Kec. Aikmel Ds. Lenek Duren,18,270000,2017,,,,,,,,,,
4386,NUSA TENGGARA BARAT,KABUPATEN LOMBOK TIMUR,RUMAH SWADAYA,Peningkatan Kualitas,Masyarakat Berpenghasilan Rendah (MBR),Kec. Pringgesela Ds. Pengadangan Barat,50,750000,2017,,,,,,,,,,
4387,NUSA TENGGARA BARAT,KABUPATEN LOMBOK TIMUR,RUMAH SWADAYA,Peningkatan Kualitas,Masyarakat Berpenghasilan Rendah (MBR),Kec. Pringgesela Ds. Pengadangan Timur,50,750000,2017,,,,,,,,,,
4388,NUSA TENGGARA BARAT,KABUPATEN LOMBOK TIMUR,RUMAH SWADAYA,Peningkatan Kualitas,Masyarakat Berpenghasilan Rendah (MBR),Kec. Terara Ds. Embung Kandong,80,1200000,2017,,,,,,,,,,
4389,NUSA TENGGARA BARAT,KABUPATEN LOMBOK TIMUR,RUMAH SWADAYA,Peningkatan Kualitas,Masyarakat Berpenghasilan Rendah (MBR),Kec. Terara Ds. Leming,38,570000,2017,,,,,,,,,,
4390,NUSA TENGGARA BARAT,KABUPATEN LOMBOK TIMUR,RUMAH SWADAYA,Peningkatan Kualitas,Masyarakat Berpenghasilan Rendah (MBR),Kec. Suela Ds. Ketangga,142,2130000,2017,,,,,,,,,,
4391,NUSA TENGGARA BARAT,KABUPATEN LOMBOK TIMUR,RUMAH UMUM DAN KOMERSIAL,PEMBANGUNAN PSU,Masyarakat Berpenghasilan Rendah (MBR),Griya Pesona Madani,180,911440,2016,,,,,,,,,,
4392,NUSA TENGGARA BARAT,KABUPATEN LOMBOK TIMUR,RUMAH KHUSUS,Pembangunan baru,NELAYAN,"Kecamatan Keruak, Desa Ketapang Raya 1",50,8030249,2015,,,,,,,,,,
4393,NUSA TENGGARA BARAT,KABUPATEN LOMBOK TIMUR,RUMAH KHUSUS,Pembangunan baru,NELAYAN,"Kecamatan Keruak, Desa Ketapang Raya 2",50,8146759,2015,,,,,,,,,,
4394,NUSA TENGGARA BARAT,KABUPATEN LOMBOK TIMUR,RUMAH KHUSUS,Pembangunan baru,NELAYAN,"Desa Tanjung  Luar, Kec. Keruak / Desa Ekas Buana Kec. Jerowaru ",52,8750000,2017,,,,,,,,,,
4395,NUSA TENGGARA BARAT,KABUPATEN LOMBOK TIMUR,RUMAH KHUSUS,Pembangunan baru,POLRI,"Rumdin Polsek Masbagik, Jl. Raya Masbagik
Labuan Lombok
",4,720814,2016,,,,,,,,,,
4396,NUSA TENGGARA BARAT,KABUPATEN LOMBOK UTARA,RUMAH SWADAYA,Peningkatan Kualitas,Masyarakat Berpenghasilan Rendah (MBR),Kec. Bayan Ds. Anyar,239,3585000,2017,,,,,,,,,,
4397,NUSA TENGGARA BARAT,KABUPATEN LOMBOK UTARA,RUMAH SWADAYA,Peningkatan Kualitas,Masyarakat Berpenghasilan Rendah (MBR),Kec. Bayan Ds. Bayan,116,1740000,2017,,,,,,,,,,
4398,NUSA TENGGARA BARAT,KABUPATEN LOMBOK UTARA,RUMAH SWADAYA,Peningkatan Kualitas,Masyarakat Berpenghasilan Rendah (MBR),Kec. Bayan Ds. Karang Bajo,28,420000,2017,,,,,,,,,,
4399,NUSA TENGGARA BARAT,KABUPATEN LOMBOK UTARA,RUMAH UMUM DAN KOMERSIAL,PEMBANGUNAN PSU,Masyarakat Berpenghasilan Rendah (MBR),Sigar Penjalin Residence,200,964210,2016,,,,,,,,,,
4400,NUSA TENGGARA BARAT,KABUPATEN LOMBOK UTARA,RUMAH SUSUN,Pembangunan baru,POLRI,"POLDA NTB, Pembangunan rusus Dalmas Polres Lombok Barat di Lombok Utara, T.475 Desa Genggelang Kec. Gangga (T.36, L.3)",48,15632697,2015,,,,,,,,,,
4401,NUSA TENGGARA BARAT,KABUPATEN SUMBAWA,RUMAH SUSUN,Pembangunan baru,Mahasiswa / Siswa,"Jl. Ray Sering, By-Pass Sumbawa T. 24 / 3 Lt",37,12051000,2017,,,,,,,,,,
4402,NUSA TENGGARA BARAT,KABUPATEN SUMBAWA,RUMAH SWADAYA,Pembangunan baru,Masyarakat Berpenghasilan Rendah (MBR),"Kec. Alas Barat, Ds. Mapin Rea",30,890000,2016,,,,,,,,,,
4403,NUSA TENGGARA BARAT,KABUPATEN SUMBAWA,RUMAH SWADAYA,Pembangunan baru,Masyarakat Berpenghasilan Rendah (MBR),"Kec. Alas Barat, Ds. Gontar",45,1280000,2016,,,,,,,,,,
4404,NUSA TENGGARA BARAT,KABUPATEN SUMBAWA,RUMAH SWADAYA,Peningkatan Kualitas,Masyarakat Berpenghasilan Rendah (MBR),"Kec. Lunyuk, Ds. Pada Suka",129,1290000,2016,,,,,,,,,,
4405,NUSA TENGGARA BARAT,KABUPATEN SUMBAWA,RUMAH SWADAYA,Peningkatan Kualitas,Masyarakat Berpenghasilan Rendah (MBR),"Kec. Lunyuk, Ds. Emang Lestari",127,1270000,2016,,,,,,,,,,
4406,NUSA TENGGARA BARAT,KABUPATEN SUMBAWA,RUMAH SWADAYA,Peningkatan Kualitas,Masyarakat Berpenghasilan Rendah (MBR),"Kec. Alas Barat, Ds. Lekong",124,1240000,2016,,,,,,,,,,
4407,NUSA TENGGARA BARAT,KABUPATEN SUMBAWA,RUMAH SWADAYA,Peningkatan Kualitas,Masyarakat Berpenghasilan Rendah (MBR),Kec. Plampang Ds. Sepayung,115,1725000,2017,,,,,,,,,,
4408,NUSA TENGGARA BARAT,KABUPATEN SUMBAWA,RUMAH SWADAYA,Peningkatan Kualitas,Masyarakat Berpenghasilan Rendah (MBR),Kec. Plampang Ds. Sp III Prode,175,2625000,2017,,,,,,,,,,
4409,NUSA TENGGARA BARAT,KABUPATEN SUMBAWA,RUMAH SWADAYA,Peningkatan Kualitas,Masyarakat Berpenghasilan Rendah (MBR),Kec. Utan Ds. Jorok ,44,660000,2017,,,,,,,,,,
4410,NUSA TENGGARA BARAT,KABUPATEN SUMBAWA,RUMAH SWADAYA,Peningkatan Kualitas,Masyarakat Berpenghasilan Rendah (MBR),Kec. Utan Ds. Motong,35,525000,2017,,,,,,,,,,
4411,NUSA TENGGARA BARAT,KABUPATEN SUMBAWA,RUMAH SWADAYA,Peningkatan Kualitas,Masyarakat Berpenghasilan Rendah (MBR),Kec. Utan Ds. Pukat,78,1170000,2017,,,,,,,,,,
4412,NUSA TENGGARA BARAT,KABUPATEN SUMBAWA,RUMAH UMUM DAN KOMERSIAL,PEMBANGUNAN PSU,Masyarakat Berpenghasilan Rendah (MBR),Perumahan Baiti Jannati ,80,369890,2017,,,,,,,,,,
4413,NUSA TENGGARA BARAT,KABUPATEN SUMBAWA,RUMAH KHUSUS,Pembangunan baru,NELAYAN,"Desa Labuan Jambu, Kec. Tarano Kab. Sumbawa",100,17500000,2017,,,,,,,,,,
4414,NUSA TENGGARA BARAT,KABUPATEN SUMBAWA,RUMAH SWADAYA,Pembangunan baru,Masyarakat Berpenghasilan Rendah (MBR),"Kec.Alas, Desa. Labuhan Alas",34,1020000,2015,,,,,,,,,,
4415,NUSA TENGGARA BARAT,KABUPATEN SUMBAWA,RUMAH SWADAYA,Pembangunan baru,Masyarakat Berpenghasilan Rendah (MBR),"Kec.Alas, Desa. Juranalas",43,1290000,2015,,,,,,,,,,
4416,NUSA TENGGARA BARAT,KABUPATEN SUMBAWA,RUMAH SWADAYA,Pembangunan baru,Masyarakat Berpenghasilan Rendah (MBR),"Kec.Alas, Desa. Dalam",54,1620000,2015,,,,,,,,,,
4417,NUSA TENGGARA BARAT,KABUPATEN SUMBAWA,RUMAH SWADAYA,Pembangunan baru,Masyarakat Berpenghasilan Rendah (MBR),"Kec.Alas, Desa. Baru",19,570000,2015,,,,,,,,,,
4418,NUSA TENGGARA BARAT,KABUPATEN SUMBAWA,RUMAH SWADAYA,Peningkatan Kualitas,Masyarakat Berpenghasilan Rendah (MBR),"Kec.Alas, Desa. Labuhan Alas",77,770000,2015,,,,,,,,,,
4419,NUSA TENGGARA BARAT,KABUPATEN SUMBAWA,RUMAH SWADAYA,Peningkatan Kualitas,Masyarakat Berpenghasilan Rendah (MBR),"Kec.Alas, Desa. Juranalas",126,1260000,2015,,,,,,,,,,
4420,NUSA TENGGARA BARAT,KABUPATEN SUMBAWA,RUMAH SWADAYA,Peningkatan Kualitas,Masyarakat Berpenghasilan Rendah (MBR),"Kec.Alas, Desa. Dalam",150,1500000,2015,,,,,,,,,,
4421,NUSA TENGGARA BARAT,KABUPATEN SUMBAWA,RUMAH SWADAYA,Peningkatan Kualitas,Masyarakat Berpenghasilan Rendah (MBR),"Kec.Alas, Desa. Baru",107,1070000,2015,,,,,,,,,,
4422,NUSA TENGGARA BARAT,KABUPATEN SUMBAWA BARAT,RUMAH SWADAYA,Peningkatan Kualitas,Masyarakat Berpenghasilan Rendah (MBR),Kec. Poto Nano Ds. Kokar Lian,25,375000,2017,,,,,,,,,,
4423,NUSA TENGGARA BARAT,KABUPATEN SUMBAWA BARAT,RUMAH SWADAYA,Peningkatan Kualitas,Masyarakat Berpenghasilan Rendah (MBR),Kec. Sekongkang Ds. Ai Kangkung,41,615000,2017,,,,,,,,,,
4424,NUSA TENGGARA BARAT,KABUPATEN SUMBAWA BARAT,RUMAH SWADAYA,Peningkatan Kualitas,Masyarakat Berpenghasilan Rendah (MBR),Kec. Taliwang Ds. Dalam,20,300000,2017,,,,,,,,,,
4425,NUSA TENGGARA BARAT,KABUPATEN SUMBAWA BARAT,RUMAH SWADAYA,Peningkatan Kualitas,Masyarakat Berpenghasilan Rendah (MBR),Kec. Taliwang Ds. Telaga Bertong,20,300000,2017,,,,,,,,,,
4426,NUSA TENGGARA BARAT,KABUPATEN SUMBAWA BARAT,RUMAH KHUSUS,Pembangunan baru,NELAYAN,"Kec. Taliwang, Desa Labuhan Lalar 1",50,10359057,2015,,,,,,,,,,
4427,NUSA TENGGARA BARAT,KABUPATEN SUMBAWA BARAT,RUMAH KHUSUS,Pembangunan baru,NELAYAN,"Kec. Taliwang, Desa Labuhan Lalar 2",50,11240633,2015,,,,,,,,,,
4428,NUSA TENGGARA BARAT,KABUPATEN SUMBAWA BESAR,RUMAH SUSUN,Pembangunan baru,PERGURUAN TINGGI,"Universitas Teknologi Sumbawa, Jl. Olat Maras, Desa Batu Alang, Kec. Moyo Hulu (T.24, L.4, 2 Tower)",100,27777888,2015,,,,,,,,,,
4429,NUSA TENGGARA BARAT,KABUPATEN SUMBAWA BESAR,RUMAH SUSUN,Pembangunan baru,Santri,"PP. Modern Dea Malela Sumbawa Besa, Pamangong, Lenangguar PP. Modern Dea Malela Sumbawa Besar (LOS.12, L.3)",30,11208274,2015,,,,,,,,,,
4430,NUSA TENGGARA BARAT,KOTA BIMA,RUMAH SWADAYA,Pembangunan baru,Masyarakat Berpenghasilan Rendah (MBR),"Kec. Asakota, Ds. Jatiwangi",30,900000,2016,,,,,,,,,,
4431,NUSA TENGGARA BARAT,KOTA BIMA,RUMAH SWADAYA,Pembangunan baru,Masyarakat Berpenghasilan Rendah (MBR),"Kec. Raba, Ds. Rite",30,900000,2016,,,,,,,,,,
4432,NUSA TENGGARA BARAT,KOTA BIMA,RUMAH SWADAYA,Pembangunan baru,Masyarakat Berpenghasilan Rendah (MBR),"Kec. Asakota, Ds. Kolo",30,900000,2016,,,,,,,,,,
4433,NUSA TENGGARA BARAT,KOTA BIMA,RUMAH SWADAYA,Pembangunan baru,Masyarakat Berpenghasilan Rendah (MBR),"Kec. Asakota, Ds. Jatibaru",31,870000,2016,,,,,,,,,,
4434,NUSA TENGGARA BARAT,KOTA BIMA,RUMAH SWADAYA,Peningkatan Kualitas,Masyarakat Berpenghasilan Rendah (MBR),Kec.Asa Kota Desa. Jatiwangi,89,890000,2015,,,,,,,,,,
4435,NUSA TENGGARA BARAT,KOTA BIMA,RUMAH SWADAYA,Peningkatan Kualitas,Masyarakat Berpenghasilan Rendah (MBR),Kec.Asa Kota Desa. Melayu,56,560000,2015,,,,,,,,,,
4436,NUSA TENGGARA BARAT,KOTA BIMA,RUMAH SWADAYA,Peningkatan Kualitas,Masyarakat Berpenghasilan Rendah (MBR),Kec.Asa Kota Desa. Kolo,123,1230000,2015,,,,,,,,,,
4437,NUSA TENGGARA BARAT,KOTA BIMA,RUMAH SWADAYA,Peningkatan Kualitas,Masyarakat Berpenghasilan Rendah (MBR),"Kec. Raba, Ds. Rite",66,795000,2016,,,,,,,,,,
4438,NUSA TENGGARA BARAT,KOTA BIMA,RUMAH SWADAYA,Peningkatan Kualitas,Masyarakat Berpenghasilan Rendah (MBR),"Kec. Asakota, Ds. Jatibaru",217,2955000,2016,,,,,,,,,,
4439,NUSA TENGGARA BARAT,KOTA BIMA,RUMAH SWADAYA,Peningkatan Kualitas,Masyarakat Berpenghasilan Rendah (MBR),Kec. Asakota Ds. Melayu,33,495000,2017,,,,,,,,,,
4440,NUSA TENGGARA BARAT,KOTA BIMA,RUMAH SWADAYA,Peningkatan Kualitas,Masyarakat Berpenghasilan Rendah (MBR),Kec. Mpunda Ds. Sambinae,23,345000,2017,,,,,,,,,,
4441,NUSA TENGGARA BARAT,KOTA BIMA,RUMAH SWADAYA,Peningkatan Kualitas,Masyarakat Berpenghasilan Rendah (MBR),Kec. Raba Ds. Kendo,23,345000,2017,,,,,,,,,,
4442,NUSA TENGGARA BARAT,KOTA BIMA,RUMAH SWADAYA,Peningkatan Kualitas,Masyarakat Berpenghasilan Rendah (MBR),Kec. Raba Ds. Rabadompu Barat,22,330000,2017,,,,,,,,,,
4443,NUSA TENGGARA BARAT,KOTA BIMA,RUMAH SWADAYA,Peningkatan Kualitas,Masyarakat Berpenghasilan Rendah (MBR),Kec. Rasane Barat Ds. Dara,21,315000,2017,,,,,,,,,,
4444,NUSA TENGGARA BARAT,KOTA BIMA,RUMAH SWADAYA,Peningkatan Kualitas,Masyarakat Berpenghasilan Rendah (MBR),Kec. Rasane Barat Ds. Paruga,22,330000,2017,,,,,,,,,,
4445,NUSA TENGGARA BARAT,KOTA BIMA,RUMAH SWADAYA,Peningkatan Kualitas,Masyarakat Berpenghasilan Rendah (MBR),Kec. Rasanae Timur Ds. Dodu,43,645000,2017,,,,,,,,,,
4446,NUSA TENGGARA BARAT,KOTA BIMA,RUMAH SWADAYA,Peningkatan Kualitas,Masyarakat Berpenghasilan Rendah (MBR),Kec. Rasanae Timur Ds. Kumbe,48,720000,2017,,,,,,,,,,
4447,NUSA TENGGARA BARAT,KOTA BIMA,RUMAH SWADAYA,Peningkatan Kualitas,Masyarakat Berpenghasilan Rendah (MBR),Kec. Rasanae Timur Ds. Nungga,123,1845000,2017,,,,,,,,,,
4448,NUSA TENGGARA BARAT,KOTA BIMA,RUMAH SUSUN,Pembangunan baru,PERGURUAN TINGGI,"Akademi Manajemen Informatika Komputer (AMIKOM), Jl. Kampus AMIKOM-ASM Mataram, Kekalik Mataram (T.24, L.4)",50,12122686,2015,,,,,,,,,,
4449,NUSA TENGGARA BARAT,KOTA BIMA,RUMAH SUSUN,Pembangunan baru,POLRI,"POLDA NTB, Jl. Majapahit No. 45 Kel. Taman Sari Kec. Ampenan, (T.36, L.3)",48,16102696,2015,,,,,,,,,,
4450,NUSA TENGGARA BARAT,KOTA BIMA,RUMAH SUSUN,Pembangunan baru,POLRI,"Polres Bima Kota, Jl. Soekarno - Hatta No. 15, Rabangodu Selatan, Raba (TB.1, T.36, L.3)",47,11909354,2016,,,,,,,,,,
4451,NUSA TENGGARA BARAT,KOTA BIMA,RUMAH SUSUN,Pembangunan baru,TNI,"TNI AD, KI Zipur B Yonzipur Dam IX/UDY, Jl. Saptamarga Gebang Kota Mataram (T.45, L.3)",35,13565110,2015,,,,,,,,,,
4452,NUSA TENGGARA BARAT,KOTA MATARAM,RUMAH SWADAYA,Peningkatan Kualitas,Masyarakat Berpenghasilan Rendah (MBR),Kec. Cakranegara Ds. Cakranegara Barat ,48,720000,2017,,,,,,,,,,
4453,NUSA TENGGARA BARAT,KOTA MATARAM,RUMAH SWADAYA,Peningkatan Kualitas,Masyarakat Berpenghasilan Rendah (MBR),Kec. Cakranegara Ds. Cilinaya,42,630000,2017,,,,,,,,,,
4454,NUSA TENGGARA BARAT,KOTA MATARAM,RUMAH SWADAYA,Peningkatan Kualitas,Masyarakat Berpenghasilan Rendah (MBR),Kec. Sandubaya Ds. Mandalika,64,960000,2017,,,,,,,,,,
4455,NUSA TENGGARA BARAT,KOTA MATARAM,RUMAH SWADAYA,Peningkatan Kualitas,Masyarakat Berpenghasilan Rendah (MBR),Kec. Sandubaya Ds. Selagalas,56,840000,2017,,,,,,,,,,
4456,NUSA TENGGARA BARAT,KOTA MATARAM,RUMAH SWADAYA,Peningkatan Kualitas,Masyarakat Berpenghasilan Rendah (MBR),Kec. Sekarbela Ds. Jempong Baru,66,990000,2017,,,,,,,,,,
4457,NUSA TENGGARA BARAT,KOTA MATARAM,RUMAH SUSUN,Pembangunan baru,PNS,"Jl. Langko No. 75, Dasan Agung Baru, Mataram, Kota Mataram T. 45 / 3 Lt",35,19625000,2017,,,,,,,,,,
4458,NUSA TENGGARA BARAT,KOTA MATARAM,RUMAH SUSUN,Pembangunan baru,TNI,"Lanal Mataram, Jl. Majapahit, Kel.Tanjung Karang, Kec. Ampenan (TB.1, T.45, L.3)",35,14792295,2016,,,,,,,,,,
4459,NUSA TENGGARA TIMUR,KABUPATEN ALOR,RUMAH KHUSUS,Pembangunan baru,POLRI,"polsubsektor Lontaka Desa Tanglapui Kec Alor Timur ,T.54 1 Unit, T.36 4 Unit. ",5,800800,2015,,,,,,,,,,
4460,NUSA TENGGARA TIMUR,KABUPATEN ALOR,RUMAH KHUSUS,Pembangunan baru,POLRI,"polsubsektor Padang Alang Desa Padang Alang Kec Alor Selatan, T.54 1 Unit, T.36 4 Unit. ",5,800800,2015,,,,,,,,,,
4461,NUSA TENGGARA TIMUR,KABUPATEN ALOR,RUMAH KHUSUS,Pembangunan baru,POLRI,"POLRES ALOR, Rumdin Polsek Alor Barat Daya, Jl. K. Kinanggi Kec. Abad",9,1830125,2016,,,,,,,,,,
4462,NUSA TENGGARA TIMUR,KABUPATEN ALOR,RUMAH KHUSUS,Pembangunan baru,POLRI,"POLRES ALOR, Rumdin Polsek Alor Timur, Kec. Alor Timur",9,1830125,2016,,,,,,,,,,
4463,NUSA TENGGARA TIMUR,KABUPATEN ALOR,RUMAH KHUSUS,Pembangunan baru,POLRI,"POLRES ALOR, Rumdin Polsek Alor Selatan, Kec. Alor Selatan",8,1626778,2016,,,,,,,,,,
4464,NUSA TENGGARA TIMUR,KABUPATEN BELU,RUMAH KHUSUS,Pembangunan baru,Masyarakat Perbatasan,"Desa Dualaos, Kec. Kakuluk Mesak",135,47159000,2016,,,,,,,,,,
4465,NUSA TENGGARA TIMUR,KABUPATEN BELU,RUMAH KHUSUS,Pembangunan baru,Masyarakat Perbatasan,"Desa Silawan, Kec. Tasifeto Timur",100,47159000,2016,,,,,,,,,,
4466,NUSA TENGGARA TIMUR,KABUPATEN BELU,RUMAH KHUSUS,Pembangunan baru,Masyarakat Perbatasan,"Desa Fatuketi, Kec. Kakuluk Mesak",50,47159000,2016,,,,,,,,,,
4467,NUSA TENGGARA TIMUR,KABUPATEN BELU,RUMAH KHUSUS,Pembangunan baru,Masyarakat Perbatasan,,50,8750000,2017,,,,,,,,,,
4468,NUSA TENGGARA TIMUR,KABUPATEN BELU,RUMAH KHUSUS,Pembangunan baru,Masyarakat Perbatasan,,50,8750000,2017,,,,,,,,,,
4469,NUSA TENGGARA TIMUR,KABUPATEN BELU,RUMAH SUSUN,Pembangunan baru,Pekerja Industri,"Kejaksaaan Negeri Atambua, Jl. R. Suprapto No. 1 Atambua Kec. Atambua Selatan (T.24, L.4)",50,20076197,2015,,,,,,,,,,
4470,NUSA TENGGARA TIMUR,KABUPATEN BELU,RUMAH KHUSUS,Pembangunan baru,TNI,"KODAM IX/UDY, Kipan D Yonif 744/Sby, Ds. Lakekun Kec. Kombalima Betun",10,2277638,2016,,,,,,,,,,
4471,NUSA TENGGARA TIMUR,KABUPATEN BELU,RUMAH SUSUN,Pembangunan baru,TNI,"TNI AD, Kipan A Yonif 744/SYB, desa Menleten Kec. Tasipeto Timur (T.45, L.3)",35,14225937,2015,,,,,,,,,,
4472,NUSA TENGGARA TIMUR,KABUPATEN BELU,RUMAH SUSUN,Pembangunan baru,TNI,"Lantamal VII Kupang, Komplek Perumahan TNI AL, Jl. Yos Sudarso No. 5  (T.45, L.3)",35,12062565,2015,,,,,,,,,,
4473,NUSA TENGGARA TIMUR,KABUPATEN ENDE,RUMAH SWADAYA,Peningkatan Kualitas,Masyarakat Berpenghasilan Rendah (MBR),"Kec. Pulau Ende, Ds. Aejeti",43,624600,2016,,,,,,,,,,
4474,NUSA TENGGARA TIMUR,KABUPATEN ENDE,RUMAH SWADAYA,Peningkatan Kualitas,Masyarakat Berpenghasilan Rendah (MBR),"Kec. Pulau Ende, Ds. Kazokapo",40,557910,2016,,,,,,,,,,
4475,NUSA TENGGARA TIMUR,KABUPATEN ENDE,RUMAH SWADAYA,Peningkatan Kualitas,Masyarakat Berpenghasilan Rendah (MBR),"Kec. Pulau Ende, Ds. Indoriwoy",65,836690,2016,,,,,,,,,,
