NO,PROVINSI,KABUPATEN/ KOTA,PROGRAM,KEGIATAN,PENERIMA MANFAAT,KETERANGAN,UNIT,ANGGARAN,TAHUN,,,,,,,,,,
6940,SUMATERA UTARA,KABUPATEN TAPANULI TENGAH,RUMAH SWADAYA,Peningkatan Kualitas,Masyarakat Berpenghasilan Rendah (MBR),Ds. Hajoran,46,647500,2016,,,,,,,,,,
6941,SUMATERA UTARA,KABUPATEN TAPANULI TENGAH,RUMAH SWADAYA,Peningkatan Kualitas,Masyarakat Berpenghasilan Rendah (MBR),Ds. Lubuk Tuko Baru,109,1345000,2016,,,,,,,,,,
6942,SUMATERA UTARA,KABUPATEN TAPANULI TENGAH,RUMAH SWADAYA,Peningkatan Kualitas,Masyarakat Berpenghasilan Rendah (MBR),Ds. Budi Luhur,66,737500,2016,,,,,,,,,,
6943,SUMATERA UTARA,KABUPATEN TAPANULI TENGAH,RUMAH SWADAYA,Peningkatan Kualitas,Masyarakat Berpenghasilan Rendah (MBR),Kec. Lumut Ds. Lumut Nauli,15,225000,2017,,,,,,,,,,
6944,SUMATERA UTARA,KABUPATEN TAPANULI TENGAH,RUMAH SWADAYA,Peningkatan Kualitas,Masyarakat Berpenghasilan Rendah (MBR),Kec. Lumut Ds. Sialogo,12,180000,2017,,,,,,,,,,
6945,SUMATERA UTARA,KABUPATEN TAPANULI TENGAH,RUMAH SWADAYA,Peningkatan Kualitas,Masyarakat Berpenghasilan Rendah (MBR),Kec. Lumut Ds. Lumut ,10,150000,2017,,,,,,,,,,
6946,SUMATERA UTARA,KABUPATEN TAPANULI TENGAH,RUMAH SWADAYA,Peningkatan Kualitas,Masyarakat Berpenghasilan Rendah (MBR),Kec. Pinang Sori Ds. Pinang Baru,17,255000,2017,,,,,,,,,,
6947,SUMATERA UTARA,KABUPATEN TAPANULI TENGAH,RUMAH SWADAYA,Peningkatan Kualitas,Masyarakat Berpenghasilan Rendah (MBR),Kec. Pinang Sori Ds. Gunung Marijo,11,165000,2017,,,,,,,,,,
6948,SUMATERA UTARA,KABUPATEN TAPANULI TENGAH,RUMAH SWADAYA,Peningkatan Kualitas,Masyarakat Berpenghasilan Rendah (MBR),Kec. Pinang Sori Ds. Sitonang Bangu,10,150000,2017,,,,,,,,,,
6949,SUMATERA UTARA,KABUPATEN TAPANULI TENGAH,RUMAH KHUSUS,Pembangunan baru,NELAYAN,Desa Muara Nauli,50,8250000,2017,,,,,,,,,,
6950,SUMATERA UTARA,KABUPATEN TAPANULI TENGAH,RUMAH SUSUN,Pembangunan baru,Pekerja Industri,"DINAS KELAUTAN DAN PERIKANAN PEMKAB. TAPANULI TENGAH, Jl. Oswald Siahaan (T.36, 4L)",50,16578353,2015,,,,,,,,,,
6951,SUMATERA UTARA,KABUPATEN TAPANULI TENGAH,RUMAH SUSUN,Pembangunan baru,PERGURUAN TINGGI,"AKPER PEMKAB. TAPANULI TENGAH, Jl. A.R Surbakti Kel. Sihaporas, Kec. Panda (T.24, 4L)",50,11350491,2015,,,,,,,,,,
6952,SUMATERA UTARA,KABUPATEN TAPANULI TENGAH,RUMAH KHUSUS,Pembangunan baru,TNI,"Mabes AL, Komplek Perumahan TNI AL Oswald Siahaan, Jl. Sibolga Barus Km 4,5",20,3916642,2015,,,,,,,,,,
6953,SUMATERA UTARA,KABUPATEN TAPANULI UTARA,RUMAH SWADAYA,Peningkatan Kualitas,Masyarakat Berpenghasilan Rendah (MBR),"Kec. Adian koting, Ds.Adian Koting",42,630000,2015,,,,,,,,,,
6954,SUMATERA UTARA,KABUPATEN TAPANULI UTARA,RUMAH SWADAYA,Peningkatan Kualitas,Masyarakat Berpenghasilan Rendah (MBR),"Kec. Adian koting, Ds.Pagaran Lambung Iii",16,240000,2015,,,,,,,,,,
6955,SUMATERA UTARA,KABUPATEN TAPANULI UTARA,RUMAH SWADAYA,Peningkatan Kualitas,Masyarakat Berpenghasilan Rendah (MBR),"Kec. Adian koting, Ds.Banuaji Iv",23,345000,2015,,,,,,,,,,
6956,SUMATERA UTARA,KABUPATEN TAPANULI UTARA,RUMAH SWADAYA,Peningkatan Kualitas,Masyarakat Berpenghasilan Rendah (MBR),"Kec. Siatas Barita, Ds.Lobu Hole",16,225000,2015,,,,,,,,,,
6957,SUMATERA UTARA,KABUPATEN TAPANULI UTARA,RUMAH SWADAYA,Peningkatan Kualitas,Masyarakat Berpenghasilan Rendah (MBR),"Kec. Muara, Ds.Barita Niek",15,225000,2015,,,,,,,,,,
6958,SUMATERA UTARA,KABUPATEN TAPANULI UTARA,RUMAH SWADAYA,Peningkatan Kualitas,Masyarakat Berpenghasilan Rendah (MBR),"Kec. Sipoholon, Ds.Hutaraja Hasundutan",17,250000,2015,,,,,,,,,,
6959,SUMATERA UTARA,KABUPATEN TAPANULI UTARA,RUMAH SWADAYA,Peningkatan Kualitas,Masyarakat Berpenghasilan Rendah (MBR),"Kec. Sipoholon, Ds.Hutaraja",20,285000,2015,,,,,,,,,,
6960,SUMATERA UTARA,KABUPATEN TAPANULI UTARA,RUMAH SWADAYA,Peningkatan Kualitas,Masyarakat Berpenghasilan Rendah (MBR),"Kec. Sipoholon, Ds.Sipahutar",18,245000,2015,,,,,,,,,,
6961,SUMATERA UTARA,KABUPATEN TAPANULI UTARA,RUMAH SWADAYA,Peningkatan Kualitas,Masyarakat Berpenghasilan Rendah (MBR),"Kec. Garoga, Ds. Gonting Salak",32,480000,2016,,,,,,,,,,
6962,SUMATERA UTARA,KABUPATEN TAPANULI UTARA,RUMAH SWADAYA,Peningkatan Kualitas,Masyarakat Berpenghasilan Rendah (MBR),"Kec. Garoga, Ds. Parsosoran",20,300000,2016,,,,,,,,,,
6963,SUMATERA UTARA,KABUPATEN TAPANULI UTARA,RUMAH SWADAYA,Peningkatan Kualitas,Masyarakat Berpenghasilan Rendah (MBR),"Kec. Garoga, Ds. Garoga Sibargot",60,900000,2016,,,,,,,,,,
6964,SUMATERA UTARA,KABUPATEN TAPANULI UTARA,RUMAH SWADAYA,Peningkatan Kualitas,Masyarakat Berpenghasilan Rendah (MBR),"Kec. Pangaribuan, Ds. Batu Nadua",20,277500,2016,,,,,,,,,,
6965,SUMATERA UTARA,KABUPATEN TAPANULI UTARA,RUMAH SWADAYA,Peningkatan Kualitas,Masyarakat Berpenghasilan Rendah (MBR),"Kec. Pangaribuan, Ds. Pancur Natolu",20,295000,2016,,,,,,,,,,
6966,SUMATERA UTARA,KABUPATEN TAPANULI UTARA,RUMAH SWADAYA,Peningkatan Kualitas,Masyarakat Berpenghasilan Rendah (MBR),"Kec. Pangaribuan, Ds. Sigotom",23,352500,2016,,,,,,,,,,
6967,SUMATERA UTARA,KABUPATEN TAPANULI UTARA,RUMAH SWADAYA,Peningkatan Kualitas,Masyarakat Berpenghasilan Rendah (MBR),"Kec. Pangaribuan, Ds. Silantom",20,300000,2016,,,,,,,,,,
6968,SUMATERA UTARA,KABUPATEN TAPANULI UTARA,RUMAH SWADAYA,Peningkatan Kualitas,Masyarakat Berpenghasilan Rendah (MBR),"Kec. Pangaribuan, Ds. Rahut Bosi",23,345000,2016,,,,,,,,,,
6969,SUMATERA UTARA,KABUPATEN TAPANULI UTARA,RUMAH SWADAYA,Peningkatan Kualitas,Masyarakat Berpenghasilan Rendah (MBR),"Kec. Pangaribuan, Ds. Batumanumpak",30,450000,2016,,,,,,,,,,
6970,SUMATERA UTARA,KABUPATEN TAPANULI UTARA,RUMAH SWADAYA,Peningkatan Kualitas,Masyarakat Berpenghasilan Rendah (MBR),"Kec. Pormonangan, Ds. Huta Tinggi II",52,780000,2016,,,,,,,,,,
6971,SUMATERA UTARA,KABUPATEN TAPANULI UTARA,RUMAH SWADAYA,Peningkatan Kualitas,Masyarakat Berpenghasilan Rendah (MBR),"Kec. Purbatua, Ds. Selamat",20,290000,2016,,,,,,,,,,
6972,SUMATERA UTARA,KABUPATEN TAPANULI UTARA,RUMAH SWADAYA,Peningkatan Kualitas,Masyarakat Berpenghasilan Rendah (MBR),"Kec. Siborong-borong, Ds. Hutabulu",81,1185000,2016,,,,,,,,,,
6973,SUMATERA UTARA,KABUPATEN TAPANULI UTARA,RUMAH SWADAYA,Peningkatan Kualitas,Masyarakat Berpenghasilan Rendah (MBR),"Kec. Sipahutar, Ds. Sipahutar I",20,285000,2016,,,,,,,,,,
6974,SUMATERA UTARA,KABUPATEN TAPANULI UTARA,RUMAH SWADAYA,Peningkatan Kualitas,Masyarakat Berpenghasilan Rendah (MBR),Kec. Muara Ds. Bariba Niaek,30,450000,2017,,,,,,,,,,
6975,SUMATERA UTARA,KABUPATEN TAPANULI UTARA,RUMAH SWADAYA,Peningkatan Kualitas,Masyarakat Berpenghasilan Rendah (MBR),Kec. Muara Ds. Batu Binumbun,19,285000,2017,,,,,,,,,,
6976,SUMATERA UTARA,KABUPATEN TAPANULI UTARA,RUMAH SWADAYA,Peningkatan Kualitas,Masyarakat Berpenghasilan Rendah (MBR),Kec. Muara Ds. Huta Ginjang,36,540000,2017,,,,,,,,,,
6977,SUMATERA UTARA,KABUPATEN TAPANULI UTARA,RUMAH SWADAYA,Peningkatan Kualitas,Masyarakat Berpenghasilan Rendah (MBR),Kec. Muara Ds. Hutana Godang,27,405000,2017,,,,,,,,,,
6978,SUMATERA UTARA,KABUPATEN TAPANULI UTARA,RUMAH SWADAYA,Peningkatan Kualitas,Masyarakat Berpenghasilan Rendah (MBR),Kec. Adian Koting Ds. Banuaji II,30,450000,2017,,,,,,,,,,
6979,SUMATERA UTARA,KABUPATEN TAPANULI UTARA,RUMAH SWADAYA,Peningkatan Kualitas,Masyarakat Berpenghasilan Rendah (MBR),Kec. Adian Koting Ds. Pagaran Lambung II,19,285000,2017,,,,,,,,,,
6980,SUMATERA UTARA,KABUPATEN TAPANULI UTARA,RUMAH SWADAYA,Peningkatan Kualitas,Masyarakat Berpenghasilan Rendah (MBR),Kec. Adian Koting Ds. Pansur Batu,36,540000,2017,,,,,,,,,,
6981,SUMATERA UTARA,KABUPATEN TOBA SAMOSIR,RUMAH SWADAYA,Peningkatan Kualitas,Masyarakat Berpenghasilan Rendah (MBR),Kec. Ajibata Ds. Motung,20,300000,2017,,,,,,,,,,
6982,SUMATERA UTARA,KABUPATEN TOBA SAMOSIR,RUMAH SWADAYA,Peningkatan Kualitas,Masyarakat Berpenghasilan Rendah (MBR),Kec. Ajibata Ds. Sigapiton,20,300000,2017,,,,,,,,,,
6983,SUMATERA UTARA,KABUPATEN TOBA SAMOSIR,RUMAH SWADAYA,Peningkatan Kualitas,Masyarakat Berpenghasilan Rendah (MBR),Kec. Ajibata Ds. Pardamean Ajibata,20,300000,2017,,,,,,,,,,
6984,SUMATERA UTARA,KABUPATEN TOBA SAMOSIR,RUMAH SWADAYA,Peningkatan Kualitas,Masyarakat Berpenghasilan Rendah (MBR),Kec. Balige Ds. Hutagaol Peatalum,42,630000,2017,,,,,,,,,,
6985,SUMATERA UTARA,KABUPATEN TOBA SAMOSIR,RUMAH SWADAYA,Peningkatan Kualitas,Masyarakat Berpenghasilan Rendah (MBR),Kec. Balige Ds. Matio,14,210000,2017,,,,,,,,,,
6986,SUMATERA UTARA,KABUPATEN TOBA SAMOSIR,RUMAH SWADAYA,Peningkatan Kualitas,Masyarakat Berpenghasilan Rendah (MBR),Kec. Balige Ds. Silalahi Pagar Batu,16,240000,2017,,,,,,,,,,
6987,SUMATERA UTARA,KABUPATEN TOBA SAMOSIR,RUMAH SWADAYA,Peningkatan Kualitas,Masyarakat Berpenghasilan Rendah (MBR),Kec. Pintu Pohan Meranti Ds. Meranti Utara,20,300000,2017,,,,,,,,,,
6988,SUMATERA UTARA,KABUPATEN TOBA SAMOSIR,RUMAH SWADAYA,Peningkatan Kualitas,Masyarakat Berpenghasilan Rendah (MBR),Kec. Pintu Pohan Meranti Ds. Meranti Timur,59,885000,2017,,,,,,,,,,
6989,SUMATERA UTARA,KABUPATEN TOBA SAMOSIR,RUMAH SUSUN,Pembangunan baru,PERGURUAN TINGGI,"Institut Teknologi Del Tobasamosir, Jl Sisingamangaraja Toba Samosir Sumut (T.24, 4L)",50,11437560,2015,,,,,,,,,,
6990,SUMATERA UTARA,KABUPATEN TOBA SAMOSIR,RUMAH SUSUN,Pembangunan baru,PERGURUAN TINGGI,"Sekolah Teknologi Del Tapanuli Tengah, Jl. Arjuna, Ds. Pintubosi, Kec. Laguboti  (TB. 1, T.24, L.4)",90,19344000,2016,,,,,,,,,,
6991,SUMATERA UTARA,KOTA BINJAI,RUMAH SWADAYA,Peningkatan Kualitas,Masyarakat Berpenghasilan Rendah (MBR),Kec. Binjai Barat Ds. Paya Roba,29,435000,2017,,,,,,,,,,
6992,SUMATERA UTARA,KOTA BINJAI,RUMAH SWADAYA,Peningkatan Kualitas,Masyarakat Berpenghasilan Rendah (MBR),Kec. Binjai Barat Ds. Suka Maju,20,300000,2017,,,,,,,,,,
6993,SUMATERA UTARA,KOTA BINJAI,RUMAH SWADAYA,Peningkatan Kualitas,Masyarakat Berpenghasilan Rendah (MBR),Kec. Binjai Kota Ds. Berngam,22,330000,2017,,,,,,,,,,
6994,SUMATERA UTARA,KOTA BINJAI,RUMAH SWADAYA,Peningkatan Kualitas,Masyarakat Berpenghasilan Rendah (MBR),Kec. Binjai Kota Ds. Satia,20,300000,2017,,,,,,,,,,
6995,SUMATERA UTARA,KOTA BINJAI,RUMAH SWADAYA,Peningkatan Kualitas,Masyarakat Berpenghasilan Rendah (MBR),Kec. Binjai Selatan Ds. Puji Dadi,34,510000,2017,,,,,,,,,,
6996,SUMATERA UTARA,KOTA BINJAI,RUMAH SWADAYA,Peningkatan Kualitas,Masyarakat Berpenghasilan Rendah (MBR),Kec. Binjai Selatan Ds. Tanah Merah,39,585000,2017,,,,,,,,,,
6997,SUMATERA UTARA,KOTA BINJAI,RUMAH SWADAYA,Peningkatan Kualitas,Masyarakat Berpenghasilan Rendah (MBR),Kec. Binjai Selatan Ds. Mencirim,31,465000,2017,,,,,,,,,,
6998,SUMATERA UTARA,KOTA GUNUNGSITOLI,RUMAH SWADAYA,Peningkatan Kualitas,Masyarakat Berpenghasilan Rendah (MBR),"Kec. Padang Hilir, Ds.Tebing Tinggi",69,750000,2015,,,,,,,,,,
6999,SUMATERA UTARA,KOTA GUNUNGSITOLI,RUMAH SWADAYA,Peningkatan Kualitas,Masyarakat Berpenghasilan Rendah (MBR),"Kec. Padang Hilir, Ds.Damar Sari",24,255000,2015,,,,,,,,,,
7000,SUMATERA UTARA,KOTA GUNUNGSITOLI,RUMAH SWADAYA,Peningkatan Kualitas,Masyarakat Berpenghasilan Rendah (MBR),"Kec. Padang Hilir, Ds.Bagelen",49,600000,2015,,,,,,,,,,
7001,SUMATERA UTARA,KOTA GUNUNGSITOLI,RUMAH SWADAYA,Peningkatan Kualitas,Masyarakat Berpenghasilan Rendah (MBR),"Kec. Padang Hilir, Ds.Satria",19,330000,2015,,,,,,,,,,
7002,SUMATERA UTARA,KOTA GUNUNGSITOLI,RUMAH SWADAYA,Peningkatan Kualitas,Masyarakat Berpenghasilan Rendah (MBR),"Kec. Padang Hulu, Ds.Persiakan",26,435000,2015,,,,,,,,,,
7003,SUMATERA UTARA,KOTA GUNUNGSITOLI,RUMAH SWADAYA,Peningkatan Kualitas,Masyarakat Berpenghasilan Rendah (MBR),"Kec. Padang Hulu, Ds.Padang Merbau",36,325000,2015,,,,,,,,,,
7004,SUMATERA UTARA,KOTA GUNUNGSITOLI,RUMAH SWADAYA,Peningkatan Kualitas,Masyarakat Berpenghasilan Rendah (MBR),"Kec. Padang Hulu, Ds.Bandar Sono",25,215000,2015,,,,,,,,,,
7005,SUMATERA UTARA,KOTA GUNUNGSITOLI,RUMAH KHUSUS,Pembangunan baru,POLRI,"POLRES NIAS, Pembangunan Rumdin Polres Nias, Jl. Bhayangkara No. 01, Kota Gunungsitoli, Kopel (T.36)",4,475542,2015,,,,,,,,,,
7006,SUMATERA UTARA,KOTA MEDAN,RUMAH SUSUN,Pembangunan baru,Masyarakat Berpenghasilan Rendah (MBR),"Dinas PU Kota Medan, Jl. Seruai Kel. Sei Mati, Kec. Medan Labuan (TB. 1, T.24, L.4)",90,20452000,2016,,,,,,,,,,
7007,SUMATERA UTARA,KOTA MEDAN,RUMAH SUSUN,Pembangunan baru,Masyarakat Berpenghasilan Rendah (MBR)," Jl. Seruai Kel. Sei Mati, Kec. Medan Labuan, Kota Medan T. 24 / 5 Lt", - , - ,2017,,,,,,,,,,
7008,SUMATERA UTARA,KOTA MEDAN,RUMAH SWADAYA,Peningkatan Kualitas,Masyarakat Berpenghasilan Rendah (MBR),"Kec. Medan Labuhan, Ds. Martubung",84,1220000,2016,,,,,,,,,,
7009,SUMATERA UTARA,KOTA MEDAN,RUMAH SWADAYA,Peningkatan Kualitas,Masyarakat Berpenghasilan Rendah (MBR),"Kec. Medan Labuhan, Ds. Nelayan Indah",142,2092500,2016,,,,,,,,,,
7010,SUMATERA UTARA,KOTA MEDAN,RUMAH SWADAYA,Peningkatan Kualitas,Masyarakat Berpenghasilan Rendah (MBR),"Kec. Medan Labuhan, Ds. Tangkahan",31,457500,2016,,,,,,,,,,
7011,SUMATERA UTARA,KOTA MEDAN,RUMAH SWADAYA,Peningkatan Kualitas,Masyarakat Berpenghasilan Rendah (MBR),Kec. Medan Belawan Ds. Belawan Bahari,40,600000,2017,,,,,,,,,,
7012,SUMATERA UTARA,KOTA MEDAN,RUMAH SWADAYA,Peningkatan Kualitas,Masyarakat Berpenghasilan Rendah (MBR),Kec. Medan Belawan Ds. Belawan Pulau Sicanan,20,300000,2017,,,,,,,,,,
7013,SUMATERA UTARA,KOTA MEDAN,RUMAH SWADAYA,Peningkatan Kualitas,Masyarakat Berpenghasilan Rendah (MBR),Kec. Medan Labuhan Ds. Pekan Labuhan,23,345000,2017,,,,,,,,,,
7014,SUMATERA UTARA,KOTA MEDAN,RUMAH SWADAYA,Peningkatan Kualitas,Masyarakat Berpenghasilan Rendah (MBR),Kec. Medan Labuhan Ds. Nelayan Indah,20,300000,2017,,,,,,,,,,
7015,SUMATERA UTARA,KOTA MEDAN,RUMAH SWADAYA,Peningkatan Kualitas,Masyarakat Berpenghasilan Rendah (MBR),Kec. Medan Marelan Ds. Labuhan Deli,68,1020000,2017,,,,,,,,,,
7016,SUMATERA UTARA,KOTA MEDAN,RUMAH SWADAYA,Peningkatan Kualitas,Masyarakat Berpenghasilan Rendah (MBR),Kec. Medan Marelan Ds. Terjun,40,600000,2017,,,,,,,,,,
7017,SUMATERA UTARA,KOTA MEDAN,RUMAH SWADAYA,Peningkatan Kualitas,Masyarakat Berpenghasilan Rendah (MBR),Kec. Medan Marelan Ds. Polonia,23,345000,2017,,,,,,,,,,
7018,SUMATERA UTARA,KOTA MEDAN,RUMAH SWADAYA,Peningkatan Kualitas,Masyarakat Berpenghasilan Rendah (MBR),Kec. Medan Polonia Ds. Mabar Hilir,20,300000,2017,,,,,,,,,,
7019,SUMATERA UTARA,KOTA MEDAN,RUMAH SWADAYA,Peningkatan Kualitas,Masyarakat Berpenghasilan Rendah (MBR),Kec. Medan Polonia Medan Polonia,23,345000,2017,,,,,,,,,,
7020,SUMATERA UTARA,KOTA MEDAN,RUMAH SUSUN,Pembangunan baru,PERGURUAN TINGGI,"Universitas Prima Indonesia Medan, Jl. Belanga No. 1 Simpang Ayahanda (T.24, 4L)",50,11011790,2015,,,,,,,,,,
7021,SUMATERA UTARA,KOTA MEDAN,RUMAH SUSUN,Pembangunan baru,PERGURUAN TINGGI,"Universitas Islam Sumatera Utara (UISU) Medan (T.24, 4L)",50,12237722,2015,,,,,,,,,,
7022,SUMATERA UTARA,KOTA MEDAN,RUMAH KHUSUS,Pembangunan baru,TNI,Asmil Yon Arhanudse 11/BS Jl. Karya Jaya Kel. Pangkalan Mansyur Kec. Medan Johor,10,2279330,2016,,,,,,,,,,
7023,SUMATERA UTARA,KOTA PADANGSIDIMPUAN,RUMAH SWADAYA,Peningkatan Kualitas,Masyarakat Berpenghasilan Rendah (MBR),Kec. Padang Sidempuan Angkola Julu Ds. Batu Layan,30,450000,2017,,,,,,,,,,
7024,SUMATERA UTARA,KOTA PADANGSIDIMPUAN,RUMAH SWADAYA,Peningkatan Kualitas,Masyarakat Berpenghasilan Rendah (MBR),Kec. Padang Sidempuan Angkola Julu Ds. Joring Lombang,39,585000,2017,,,,,,,,,,
7025,SUMATERA UTARA,KOTA PADANGSIDIMPUAN,RUMAH SWADAYA,Peningkatan Kualitas,Masyarakat Berpenghasilan Rendah (MBR),Kec. Padang Sidempuan Angkola Julu Ds. Mompang,50,750000,2017,,,,,,,,,,
7026,SUMATERA UTARA,KOTA PADANGSIDIMPUAN,RUMAH SWADAYA,Peningkatan Kualitas,Masyarakat Berpenghasilan Rendah (MBR),Kec. Padang Sidempuan Batunadua Ds. Aek Tuhul,26,390000,2017,,,,,,,,,,
7027,SUMATERA UTARA,KOTA PADANGSIDIMPUAN,RUMAH SWADAYA,Peningkatan Kualitas,Masyarakat Berpenghasilan Rendah (MBR),Kec. Padang Sidempuan Batunadua Ds. Batunadua Jae,50,750000,2017,,,,,,,,,,
7028,SUMATERA UTARA,KOTA PADANGSIDIMPUAN,RUMAH SWADAYA,Peningkatan Kualitas,Masyarakat Berpenghasilan Rendah (MBR),Kec. Padang Sidempuan Batunadua Ds. Batunadua Julu,50,750000,2017,,,,,,,,,,
7029, SUMATERA UTARA ,KOTA PADANGSIDIMPUAN,RUMAH KHUSUS,Pembangunan baru, Wajib Kerja Dokter Spesialis , RSUD Padang Sidempuan ,1, -   ,2017,,,,,,,,,,
7030,SUMATERA UTARA,KOTA PEMATANG SIANTAR,RUMAH SUSUN,Pembangunan baru,Masyarakat Berpenghasilan Rendah (MBR),"Komplek Rindam 1/BB, Jl. Singa, Pematang Siantar, Sumut (T.45, L.3)",35,14828416,2016,,,,,,,,,,
7031,SUMATERA UTARA,KOTA PEMATANG SIANTAR,RUMAH UMUM DAN KOMERSIAL,PEMBANGUNAN PSU,Masyarakat Berpenghasilan Rendah (MBR),Pattimura Residence,102,556396,2016,,,,,,,,,,
7032,SUMATERA UTARA,KOTA TANJUNG BALAI,RUMAH SWADAYA,Peningkatan Kualitas,Masyarakat Berpenghasilan Rendah (MBR),"Kec. Sei Tualang Raso, Ds. Keramat Kubah",75,1125000,2016,,,,,,,,,,
7033,SUMATERA UTARA,KOTA TANJUNG BALAI,RUMAH SWADAYA,Peningkatan Kualitas,Masyarakat Berpenghasilan Rendah (MBR),"Kec. Sei Tualang Raso, Ds. Muara Sentosa",86,1290000,2016,,,,,,,,,,
7034,SUMATERA UTARA,KOTA TANJUNG BALAI,RUMAH SWADAYA,Peningkatan Kualitas,Masyarakat Berpenghasilan Rendah (MBR),"Kec. Tanjungbalai Utara, Ds. Sejahtera ",42,630000,2016,,,,,,,,,,
7035,SUMATERA UTARA,KOTA TANJUNG BALAI,RUMAH SWADAYA,Peningkatan Kualitas,Masyarakat Berpenghasilan Rendah (MBR),"Kec. Tanjungbalai Utara, Ds. Tanjungbalai Kota III",30,450000,2016,,,,,,,,,,
7036,SUMATERA UTARA,KOTA TANJUNG BALAI,RUMAH SWADAYA,Peningkatan Kualitas,Masyarakat Berpenghasilan Rendah (MBR),"Kec. Tanjungbalai Utara, Ds.Tanjungbalai Kota IV",41,615000,2016,,,,,,,,,,
7037,SUMATERA UTARA,KOTA TANJUNG BALAI,RUMAH SWADAYA,Peningkatan Kualitas,Masyarakat Berpenghasilan Rendah (MBR),"Kec. Teluk Nibung, Ds. Kapias Pulau Buaya",75,1125000,2016,,,,,,,,,,
7038,SUMATERA UTARA,KOTA TANJUNG BALAI,RUMAH KHUSUS,Pembangunan baru,POLRI,"POLRES TANJUNG BALAI, Pembangunan Rumah Brigadir, Jl. R.A. Kartini Kel. Pahang",5,951347,2016,,,,,,,,,,
7039,SUMATERA UTARA,KOTA TANJUNG BALAI,RUMAH SUSUN,Pembangunan baru,TNI,"LANAL TANJUNG BALAI ASAHAN, Jl. Tj. Berombang, Kota Tanjung Balai (T.45, 3L)",35,15427094,2015,,,,,,,,,,
