NO,PROVINSI,KABUPATEN/ KOTA,PROGRAM,KEGIATAN,PENERIMA MANFAAT,KETERANGAN,UNIT,ANGGARAN,TAHUN,,,,,,,,,,
6541,SUMATERA BARAT,KOTA PADANG,RUMAH SWADAYA,Peningkatan Kualitas,Masyarakat Berpenghasilan Rendah (MBR),"Kec. Koto Tangah , Ds. Padang Sarai",76,1135000,2016,,,,,,,,,,
6542,SUMATERA BARAT,KOTA PADANG,RUMAH SWADAYA,Peningkatan Kualitas,Masyarakat Berpenghasilan Rendah (MBR),"Kec. Padang Timur , Ds. Andalas",54,810000,2016,,,,,,,,,,
6543,SUMATERA BARAT,KOTA PADANG,RUMAH SWADAYA,Peningkatan Kualitas,Masyarakat Berpenghasilan Rendah (MBR),"Kec. Padang Timur , Ds. Jati",24,360000,2016,,,,,,,,,,
6544,SUMATERA BARAT,KOTA PADANG,RUMAH SWADAYA,Peningkatan Kualitas,Masyarakat Berpenghasilan Rendah (MBR),"Kec. Padang Timur , Ds. Kubu Dalam Tarak-Tarakan",59,862500,2016,,,,,,,,,,
6545,SUMATERA BARAT,KOTA PADANG,RUMAH SWADAYA,Peningkatan Kualitas,Masyarakat Berpenghasilan Rendah (MBR),"Kec. Padang Selatan, Ds. Pasa Gadang",75,947500,2016,,,,,,,,,,
6546,SUMATERA BARAT,KOTA PADANG,RUMAH SWADAYA,Peningkatan Kualitas,Masyarakat Berpenghasilan Rendah (MBR),Kec. Koto Tangah Ds. Balai Gadang,185,2775000,2017,,,,,,,,,,
6547,SUMATERA BARAT,KOTA PADANG,RUMAH SWADAYA,Peningkatan Kualitas,Masyarakat Berpenghasilan Rendah (MBR),Kec. Koto Tangah Ds. Koto Panjang Ikua Koto,66,990000,2017,,,,,,,,,,
6548,SUMATERA BARAT,KOTA PADANG,RUMAH SWADAYA,Peningkatan Kualitas,Masyarakat Berpenghasilan Rendah (MBR),Kec. Kuranji Ds. Kuranji,105,1575000,2017,,,,,,,,,,
6549,SUMATERA BARAT,KOTA PADANG,RUMAH SWADAYA,Peningkatan Kualitas,Masyarakat Berpenghasilan Rendah (MBR),Kec. Padang Utara  Ds. Padang Utara,105,1575000,2017,,,,,,,,,,
6550,SUMATERA BARAT,KOTA PADANG,RUMAH KHUSUS,Pembangunan baru,NELAYAN,"Kel. Lubuk Buaya, kec Koto Tengah",50,8250000,2017,,,,,,,,,,
6551,SUMATERA BARAT,KOTA PADANG,RUMAH SUSUN,Pembangunan baru,POLRI,"SARPRAS POLDA, Pembangunan Rusun Sat Brimob Padang Sarai Ds. Padang Sarai, Kec. Padang Koto Tengah (T.45, L.3)",35,11326868,2015,,,,,,,,,,
6552,SUMATERA BARAT,KOTA PADANG,RUMAH KHUSUS,Pembangunan baru,TNI,"TNI AU, Lanud Padang",25,4895803,2015,,,,,,,,,,
6553,SUMATERA BARAT,KOTA PADANG,RUMAH SUSUN,Pembangunan baru,TNI,"LANTAMAL II PADANG, Jl. Padang Painan, Teluk Nibung, Kel. Gatesnan XX, Kec. Lubuk Begalung, Kota Padang, Prov. Sumatera Barat
 (T.45, L.3)", -   ,7528414,2015,,,,,,,,,,
6554,SUMATERA BARAT,KOTA PADANG,RUMAH SUSUN,Pembangunan baru,TNI,"Lantamal II Padang  (Cut Off 2015), Jl. Padang Painan, Teluk Nibung, Kel. Gatesnan XX Kec. Lubuk Begalun  (TB.1, T.45, L.3)",35,7620500,2016,,,,,,,,,,
6555,SUMATERA BARAT,KOTA PADANG,RUMAH KHUSUS,Pembangunan baru,,Ds. Lubuk Buaya,50,7721000,2017,,,,,,,,,,
6556,SUMATERA BARAT,KOTA PADANG PANJANG,RUMAH SUSUN,Pembangunan baru,Masyarakat Berpenghasilan Rendah (MBR),Jl. Kartini Kel. Tanah Hitam Kec. Padang Panjang Barat Kota Padang Panjang T. 36 / 5 Lt,70,23650000,2017,,,,,,,,,,
6557,SUMATERA BARAT,KOTA PARIAMAN,RUMAH SWADAYA,Peningkatan Kualitas,Masyarakat Berpenghasilan Rendah (MBR),"Kec. Pariaman Tengah, Ds. Jawi-jawi",25,325000,2016,,,,,,,,,,
6558,SUMATERA BARAT,KOTA PARIAMAN,RUMAH SWADAYA,Peningkatan Kualitas,Masyarakat Berpenghasilan Rendah (MBR),"Kec. Pariaman Tengah, Ds. Cimparuh",49,675000,2016,,,,,,,,,,
6559,SUMATERA BARAT,KOTA PARIAMAN,RUMAH SWADAYA,Peningkatan Kualitas,Masyarakat Berpenghasilan Rendah (MBR),"Kec. Pariaman Tengah, Ds. Pauh Barat",37,505000,2016,,,,,,,,,,
6560,SUMATERA BARAT,KOTA PARIAMAN,RUMAH SWADAYA,Peningkatan Kualitas,Masyarakat Berpenghasilan Rendah (MBR),"Kec. Pariaman Timur, Kp. Baru Padusunan",46,540000,2016,,,,,,,,,,
6561,SUMATERA BARAT,KOTA PARIAMAN,RUMAH KHUSUS,Pembangunan baru,NELAYAN,"Nagari Karan Aur, Kec. Pariaman Tengah",50,8250000,2017,,,,,,,,,,
6562,SUMATERA BARAT,KOTA PAYAKUMBUH,RUMAH SWADAYA,Peningkatan Kualitas,Masyarakat Berpenghasilan Rendah (MBR),"Kec. Lamposi Tigo Nagari, Ds.Parambahan",45,450000,2015,,,,,,,,,,
6563,SUMATERA BARAT,KOTA PAYAKUMBUH,RUMAH SWADAYA,Peningkatan Kualitas,Masyarakat Berpenghasilan Rendah (MBR),"Kec. Lamposi Tigo Nagari, Ds.Sungai durian",44,440000,2015,,,,,,,,,,
6564,SUMATERA BARAT,KOTA SAWAH LUNTO,RUMAH KHUSUS,Pembangunan baru,POLRI,"Rumdin Polsek Talawi, Jl. Anas Malik Dusun Binasi Desa Talawi Mudik Kec. Talawi",8,1488340,2016,,,,,,,,,,
6565,SUMATERA BARAT,KOTA SOLOK,RUMAH SUSUN,Pembangunan baru,PERGURUAN TINGGI,"Pusat Pendidikan dan Pelatihan/SKB (Sanggar Kegiatan Belajar), Kota Solok, Jl. Tembok, Desa Nan Balimo, Kec. Tanjung Harapan (T.24, L.3)",56,11524200,2016,,,,,,,,,,
6566,SUMATERA BARAT,KOTA SOLOK,RUMAH SUSUN,Pembangunan baru,Santri,"Pondok Pesantren Al Mumtaz, Kota Solok, Kel. Kampung Jawa, Kec. Tanjung Harapan (T.36, 12 LOS, L.3)",30,7537415,2016,,,,,,,,,,
6567,SUMATERA SELATAN,KABUPATEN BANYUASIN,RUMAH SWADAYA,Peningkatan Kualitas,Masyarakat Berpenghasilan Rendah (MBR),"Kec. Banyuasin I , Ds. Mariana ",92,1380000,2016,,,,,,,,,,
6568,SUMATERA SELATAN,KABUPATEN BANYUASIN,RUMAH SWADAYA,Peningkatan Kualitas,Masyarakat Berpenghasilan Rendah (MBR),"Kec. Banyuasin I , Ds. Mariana Ilir",100,1500000,2016,,,,,,,,,,
6569,SUMATERA SELATAN,KABUPATEN BANYUASIN,RUMAH SWADAYA,Peningkatan Kualitas,Masyarakat Berpenghasilan Rendah (MBR),"Kec. Banyuasin I , Ds. Pematang Palas",68,1020000,2016,,,,,,,,,,
6570,SUMATERA SELATAN,KABUPATEN BANYUASIN,RUMAH SWADAYA,Peningkatan Kualitas,Masyarakat Berpenghasilan Rendah (MBR),"Kec. Banyuasin I , Ds.Perajin",65,975000,2016,,,,,,,,,,
6571,SUMATERA SELATAN,KABUPATEN BANYUASIN,RUMAH SWADAYA,Peningkatan Kualitas,Masyarakat Berpenghasilan Rendah (MBR),Kec. Air Saleh Ds. Sidoharjo,110,1650000,2017,,,,,,,,,,
6572,SUMATERA SELATAN,KABUPATEN BANYUASIN,RUMAH SWADAYA,Peningkatan Kualitas,Masyarakat Berpenghasilan Rendah (MBR),Kec. Air Saleh Ds. Upang Marga,44,660000,2017,,,,,,,,,,
6573,SUMATERA SELATAN,KABUPATEN BANYUASIN,RUMAH SWADAYA,Peningkatan Kualitas,Masyarakat Berpenghasilan Rendah (MBR),Kec. Air Saleh Ds. Engkal Rejo,60,900000,2017,,,,,,,,,,
6574,SUMATERA SELATAN,KABUPATEN BANYUASIN,RUMAH SWADAYA,Peningkatan Kualitas,Masyarakat Berpenghasilan Rendah (MBR),Kec. Air Saleh Ds. Salek Mukti,51,765000,2017,,,,,,,,,,
6575,SUMATERA SELATAN,KABUPATEN BANYUASIN,RUMAH SWADAYA,Peningkatan Kualitas,Masyarakat Berpenghasilan Rendah (MBR),Kec. Air Saleh Ds. Srikaton,45,675000,2017,,,,,,,,,,
6576,SUMATERA SELATAN,KABUPATEN BANYUASIN,RUMAH SWADAYA,Peningkatan Kualitas,Masyarakat Berpenghasilan Rendah (MBR),Kec. Banyuasin I Ds. Pulau Borang,35,525000,2017,,,,,,,,,,
6577,SUMATERA SELATAN,KABUPATEN BANYUASIN,RUMAH SWADAYA,Peningkatan Kualitas,Masyarakat Berpenghasilan Rendah (MBR),Kec. Banyuasin I Ds. Pematang Palas,19,285000,2017,,,,,,,,,,
6578,SUMATERA SELATAN,KABUPATEN BANYUASIN,RUMAH SWADAYA,Peningkatan Kualitas,Masyarakat Berpenghasilan Rendah (MBR),Kec. Banyuasin II Ds. Sungsang I,23,345000,2017,,,,,,,,,,
6579,SUMATERA SELATAN,KABUPATEN BANYUASIN,RUMAH SWADAYA,Peningkatan Kualitas,Masyarakat Berpenghasilan Rendah (MBR),Kec. Banyuasin II Ds. Sungsang II,17,255000,2017,,,,,,,,,,
6580,SUMATERA SELATAN,KABUPATEN BANYUASIN,RUMAH UMUM DAN KOMERSIAL,PEMBANGUNAN PSU,Masyarakat Berpenghasilan Rendah (MBR),Tara Residen Talang Keramat ,160,708567,2015,,,,,,,,,,
6581,SUMATERA SELATAN,KABUPATEN BANYUASIN,RUMAH UMUM DAN KOMERSIAL,PEMBANGUNAN PSU,Masyarakat Berpenghasilan Rendah (MBR), Cahaya Sukawaras ,110,487141,2015,,,,,,,,,,
6582,SUMATERA SELATAN,KABUPATEN BANYUASIN,RUMAH UMUM DAN KOMERSIAL,PEMBANGUNAN PSU,Masyarakat Berpenghasilan Rendah (MBR),Griya Gading Pesona ,170,752852,2015,,,,,,,,,,
6583,SUMATERA SELATAN,KABUPATEN BANYUASIN,RUMAH UMUM DAN KOMERSIAL,PEMBANGUNAN PSU,Masyarakat Berpenghasilan Rendah (MBR),Kanten Sejahtera 6,175,1049610,2016,,,,,,,,,,
6584,SUMATERA SELATAN,KABUPATEN BANYUASIN,RUMAH UMUM DAN KOMERSIAL,PEMBANGUNAN PSU,Masyarakat Berpenghasilan Rendah (MBR),Griya Murni  Sejahtera,110,765049,2016,,,,,,,,,,
6585,SUMATERA SELATAN,KABUPATEN BANYUASIN,RUMAH UMUM DAN KOMERSIAL,PEMBANGUNAN PSU,Masyarakat Berpenghasilan Rendah (MBR),Mariana Permai,190,1321582,2016,,,,,,,,,,
6586,SUMATERA SELATAN,KABUPATEN BANYUASIN,RUMAH UMUM DAN KOMERSIAL,PEMBANGUNAN PSU,Masyarakat Berpenghasilan Rendah (MBR),Prajin Trade Center,86,598137,2016,,,,,,,,,,
6587,SUMATERA SELATAN,KABUPATEN BANYUASIN,RUMAH UMUM DAN KOMERSIAL,PEMBANGUNAN PSU,Masyarakat Berpenghasilan Rendah (MBR),Cahaya Sukawaras,63,344260,2016,,,,,,,,,,
6588,SUMATERA SELATAN,KABUPATEN BANYUASIN,RUMAH UMUM DAN KOMERSIAL,PEMBANGUNAN PSU,Masyarakat Berpenghasilan Rendah (MBR),Griya Arisma Azhar,160,874346,2016,,,,,,,,,,
6589,SUMATERA SELATAN,KABUPATEN BANYUASIN,RUMAH UMUM DAN KOMERSIAL,PEMBANGUNAN PSU,Masyarakat Berpenghasilan Rendah (MBR),Merital Indah Anggrek,190,1038353,2016,,,,,,,,,,
6590,SUMATERA SELATAN,KABUPATEN BANYUASIN,RUMAH UMUM DAN KOMERSIAL,PEMBANGUNAN PSU,Masyarakat Berpenghasilan Rendah (MBR),Bukit Sentosa Residence,80,437156,2016,,,,,,,,,,
6591,SUMATERA SELATAN,KABUPATEN BANYUASIN,RUMAH KHUSUS,Pembangunan baru,NELAYAN,"Kec. Banyuasin II, Desa Muara Sungsang ",50,9491366,2015,,,,,,,,,,
6592,SUMATERA SELATAN,KABUPATEN BANYUASIN,RUMAH KHUSUS,Pembangunan baru,NELAYAN,Desa Marga Sungsang,50,8250000,2017,,,,,,,,,,
6593,SUMATERA SELATAN,KABUPATEN BANYUASIN,RUMAH SUSUN,Pembangunan baru,PERGURUAN TINGGI,"Akademi Komunitas Negeri Kab. Banyuasin, Jl. Sukojo No. 21, Ds. Kedondong Raya, Kec. Banyuasin III (TB.1,T.24, L.3)",56,12999825,2016,,,,,,,,,,
6594,SUMATERA SELATAN,KABUPATEN BANYUASIN,RUMAH KHUSUS,Pembangunan baru,POLRI,"Polres Banyuasin, Rumdin Anggota Polres, T.36 Koppel, Jl. Cahaya Berlian Pangkalan Balai 30753",10,1375743,2015,,,,,,,,,,
6595,SUMATERA SELATAN,KABUPATEN BANYUASIN,RUMAH KHUSUS,Pembangunan baru,POLRI,"Polres Banyuasin, Rumdin Perwira Polres, T.54, Jl. Cahaya Berlian Pangkalan Balai 30753",4,550297,2015,,,,,,,,,,
6596,SUMATERA SELATAN,KABUPATEN BANYUASIN,RUMAH KHUSUS,Pembangunan baru,POLRI,"Polres Banyuasin, Rumdin Polsek Pangkalan Balai, T.54 Koppel, Jl. Cahaya Berlian Pangkalan Balai 30753",4,550297,2015,,,,,,,,,,
6597,SUMATERA SELATAN,KABUPATEN BANYUASIN,RUMAH SUSUN,Pembangunan baru,POLRI,"Asrama Polres Banyuasin, Komplek Perkantoran, Jl. Sekojo, Kel. Mulya Agung, Kec. Pangkalan Balai (T.36, L.3)",47,11592941,2016,,,,,,,,,,
6598,SUMATERA SELATAN,KABUPATEN BANYUASIN,RUMAH SUSUN,Pembangunan baru,Santri,"PP. ASH-SHIDIQIYAH, Jl. Simpang Rantau Kasih, Kec. Lawang Wetan, Kab. Musi Banyuasin, Prov. Sumatera Selatan (L.3)",30,7938124,2015,,,,,,,,,,
6599,SUMATERA SELATAN,KABUPATEN EMPAT LAWANG,RUMAH SWADAYA,Peningkatan Kualitas,Masyarakat Berpenghasilan Rendah (MBR),"Kec. Tebing Tinggi, Ds. Mekar Jaya",64,960000,2016,,,,,,,,,,
6600,SUMATERA SELATAN,KABUPATEN EMPAT LAWANG,RUMAH SWADAYA,Peningkatan Kualitas,Masyarakat Berpenghasilan Rendah (MBR),"Kec. Tebing Tinggi, Ds. Lampar Batu",49,735000,2016,,,,,,,,,,
6601,SUMATERA SELATAN,KABUPATEN EMPAT LAWANG,RUMAH SWADAYA,Peningkatan Kualitas,Masyarakat Berpenghasilan Rendah (MBR),"Kec. Tebing Tinggi, Ds. Sugi Waras",60,900000,2016,,,,,,,,,,
6602,SUMATERA SELATAN,KABUPATEN EMPAT LAWANG,RUMAH SWADAYA,Peningkatan Kualitas,Masyarakat Berpenghasilan Rendah (MBR),"Kec. Tebing Tinggi, Ds. Jayaloka",58,870000,2016,,,,,,,,,,
6603,SUMATERA SELATAN,KABUPATEN EMPAT LAWANG,RUMAH SWADAYA,Peningkatan Kualitas,Masyarakat Berpenghasilan Rendah (MBR),"Kec. Tebing Tinggi, Ds. Pasar Tebing Tinggi",57,855000,2016,,,,,,,,,,
6604,SUMATERA SELATAN,KABUPATEN EMPAT LAWANG,RUMAH SWADAYA,Peningkatan Kualitas,Masyarakat Berpenghasilan Rendah (MBR),Kec. Tebing Tinggi Ds. Batu Pance,50,750000,2017,,,,,,,,,,
6605,SUMATERA SELATAN,KABUPATEN EMPAT LAWANG,RUMAH SWADAYA,Peningkatan Kualitas,Masyarakat Berpenghasilan Rendah (MBR),Kec. Tebing Tinggi Ds. Pajar Bakti,58,870000,2017,,,,,,,,,,
6606,SUMATERA SELATAN,KABUPATEN EMPAT LAWANG,RUMAH SWADAYA,Peningkatan Kualitas,Masyarakat Berpenghasilan Rendah (MBR),Kec. Tebing Tinggi Ds. Pasar Tebing Tinggi,30,450000,2017,,,,,,,,,,
6607,SUMATERA SELATAN,KABUPATEN EMPAT LAWANG,RUMAH SWADAYA,Peningkatan Kualitas,Masyarakat Berpenghasilan Rendah (MBR),Kec. Tebing Tinggi Ds. Ulak Mengkudu,57,855000,2017,,,,,,,,,,
6608,SUMATERA SELATAN,KABUPATEN EMPAT LAWANG,RUMAH SWADAYA,Peningkatan Kualitas,Masyarakat Berpenghasilan Rendah (MBR),Kec. Tebing Tinggi Ds. Kupang,46,690000,2017,,,,,,,,,,
6609,SUMATERA SELATAN,KABUPATEN EMPAT LAWANG,RUMAH SWADAYA,Peningkatan Kualitas,Masyarakat Berpenghasilan Rendah (MBR),Kec. Tebing Tinggi Ds. Seguring,59,885000,2017,,,,,,,,,,
6610,SUMATERA SELATAN,KABUPATEN LAHAT,RUMAH KHUSUS,Pembangunan baru,POLRI,"Polres Lahat, Rumdin Polsek Kikim Barat, T.36 Koppel, Jl. Lintas Sumatera-Lahat Lubuk Linggau Desa Saung Naga Kec. Kikim Barat",4,550297,2015,,,,,,,,,,
6611,SUMATERA SELATAN,KABUPATEN LAHAT,RUMAH KHUSUS,Pembangunan baru,POLRI,"Polres Lahat, Rumdin Polsek Mulak Ulu, T.36 Koppel, Desa Muara Tiga Kecamatan Mulak Ulu",4,550297,2015,,,,,,,,,,
6612,SUMATERA SELATAN,KABUPATEN LAHAT,RUMAH KHUSUS,Pembangunan baru,POLRI,"Polres Lahat, Rumdin Kapolsek Pulau Pinang, T.54, Jl. Lintas Lahat-Pagaralam Desa Jati Kec. Pulau Pinang",1,137574,2015,,,,,,,,,,
6613,SUMATERA SELATAN,KABUPATEN LAHAT,RUMAH KHUSUS,Pembangunan baru,POLRI,"Polres Lahat, Rumdin Kapolsek Mulak Ulu, T.54, Desa Muara Tiga Kecamatan Mulak Ulu",1,137574,2015,,,,,,,,,,
6614,SUMATERA SELATAN,KABUPATEN LAHAT,RUMAH SUSUN,Pembangunan baru,Santri,"PP Al Kautsar / Yayasan Swarnadina Era Mozza, Jl. Raya Tanjung Payang, Desa Tanjung Payang, Kec. Lahat (12 LOS, L.3)",30,9605969,2016,,,,,,,,,,
6615,SUMATERA SELATAN,KOTA LUBUKLINGGAU,RUMAH UMUM DAN KOMERSIAL,PEMBANGUNAN PSU,Masyarakat Berpenghasilan Rendah (MBR),"Perumahan Grand Mulya II, Kota Lubuk Linggau (PSU17-SUM07-01-PL)",61,216242,2017,,,,,,,,,,
6616,SUMATERA SELATAN,KOTA LUBUKLINGGAU,RUMAH UMUM DAN KOMERSIAL,PEMBANGUNAN PSU,Masyarakat Berpenghasilan Rendah (MBR),Perumahan Green Garden,120,425340,2017,,,,,,,,,,
6617,SUMATERA SELATAN,KABUPATEN MUARA ENIM,RUMAH SWADAYA,Peningkatan Kualitas,Masyarakat Berpenghasilan Rendah (MBR),"Kec. Muara Belida, Ds.Arisan Musi",89,935000,2015,,,,,,,,,,
6618,SUMATERA SELATAN,KABUPATEN MUARA ENIM,RUMAH SWADAYA,Peningkatan Kualitas,Masyarakat Berpenghasilan Rendah (MBR),"Kec. Muara Belida, Ds.Arisan Musi Timur",41,480000,2015,,,,,,,,,,
6619,SUMATERA SELATAN,KABUPATEN MUARA ENIM,RUMAH SWADAYA,Peningkatan Kualitas,Masyarakat Berpenghasilan Rendah (MBR),"Kec. Muara Belida, Ds.Gedung Buruk",121,1465000,2015,,,,,,,,,,
6620,SUMATERA SELATAN,KABUPATEN MUARA ENIM,RUMAH SWADAYA,Peningkatan Kualitas,Masyarakat Berpenghasilan Rendah (MBR),"Kec. Muara Belida, Ds.Harapan Mulia",93,1280000,2015,,,,,,,,,,
6621,SUMATERA SELATAN,KABUPATEN MUARA ENIM,RUMAH SWADAYA,Peningkatan Kualitas,Masyarakat Berpenghasilan Rendah (MBR),"Kec. Muara Belida, Ds.Mulia Abadi",122,1645000,2015,,,,,,,,,,
6622,SUMATERA SELATAN,KABUPATEN MUARA ENIM,RUMAH SWADAYA,Peningkatan Kualitas,Masyarakat Berpenghasilan Rendah (MBR),"Kec. Rambang Dangku, Ds.Banuayu",77,960000,2015,,,,,,,,,,
6623,SUMATERA SELATAN,KABUPATEN MUARA ENIM,RUMAH SWADAYA,Peningkatan Kualitas,Masyarakat Berpenghasilan Rendah (MBR),"Kec. Rambang Dangku, Ds. Baturaja",32,350000,2015,,,,,,,,,,
6624,SUMATERA SELATAN,KABUPATEN MUARA ENIM,RUMAH SWADAYA,Peningkatan Kualitas,Masyarakat Berpenghasilan Rendah (MBR),"Kec. Rambang Dangku, Ds. Dangku",67,710000,2015,,,,,,,,,,
6625,SUMATERA SELATAN,KABUPATEN MUARA ENIM,RUMAH SWADAYA,Peningkatan Kualitas,Masyarakat Berpenghasilan Rendah (MBR),"Kec. Rambang Dangku, Ds. Kuripan Selatan",36,380000,2015,,,,,,,,,,
6626,SUMATERA SELATAN,KABUPATEN MUARA ENIM,RUMAH SWADAYA,Peningkatan Kualitas,Masyarakat Berpenghasilan Rendah (MBR),"Kec. Rambang Dangku, Ds. Siku",38,440000,2015,,,,,,,,,,
6627,SUMATERA SELATAN,KABUPATEN MUARA ENIM,RUMAH SWADAYA,Peningkatan Kualitas,Masyarakat Berpenghasilan Rendah (MBR),"Kec. Rambang Dangku, Ds.Muara Niru",55,580000,2015,,,,,,,,,,
6628,SUMATERA SELATAN,KABUPATEN MUARA ENIM,RUMAH SWADAYA,Peningkatan Kualitas,Masyarakat Berpenghasilan Rendah (MBR),"Kec. Rambang Dangku, Ds. Jemenang",45,500000,2015,,,,,,,,,,
6629,SUMATERA SELATAN,KABUPATEN MUARA ENIM,RUMAH SWADAYA,Peningkatan Kualitas,Masyarakat Berpenghasilan Rendah (MBR),"Kec. Rambang Dangku, Ds. Air Limau",42,475000,2015,,,,,,,,,,
6630,SUMATERA SELATAN,KABUPATEN MUARA ENIM,RUMAH SWADAYA,Peningkatan Kualitas,Masyarakat Berpenghasilan Rendah (MBR),"Kec. Muara Belida, Ds. Kayuara Batu",135,1885000,2016,,,,,,,,,,
6631,SUMATERA SELATAN,KABUPATEN MUARA ENIM,RUMAH SWADAYA,Peningkatan Kualitas,Masyarakat Berpenghasilan Rendah (MBR),"Kec. Muara Belida, Ds. Patra Tani",106,1445000,2016,,,,,,,,,,
6632,SUMATERA SELATAN,KABUPATEN MUARA ENIM,RUMAH SWADAYA,Peningkatan Kualitas,Masyarakat Berpenghasilan Rendah (MBR),"Kec. Muara Belida, Ds. Tanjung Baru",190,2392500,2016,,,,,,,,,,
6633,SUMATERA SELATAN,KABUPATEN MUARA ENIM,RUMAH SWADAYA,Peningkatan Kualitas,Masyarakat Berpenghasilan Rendah (MBR),Kec. Rambang Dangku Ds. Aur Duri,73,1095000,2017,,,,,,,,,,
6634,SUMATERA SELATAN,KABUPATEN MUARA ENIM,RUMAH SWADAYA,Peningkatan Kualitas,Masyarakat Berpenghasilan Rendah (MBR),Kec. Rambang Dangku Ds. Air Enau UPT XI,34,510000,2017,,,,,,,,,,
6635,SUMATERA SELATAN,KABUPATEN MUARA ENIM,RUMAH SWADAYA,Peningkatan Kualitas,Masyarakat Berpenghasilan Rendah (MBR),Kec. Rambang Dangku Ds. Kuripan Baru,40,600000,2017,,,,,,,,,,
6636,SUMATERA SELATAN,KABUPATEN MUARA ENIM,RUMAH SWADAYA,Peningkatan Kualitas,Masyarakat Berpenghasilan Rendah (MBR),Kec. Ujan Mas Ds. Muara Gula Lama,27,405000,2017,,,,,,,,,,
6637,SUMATERA SELATAN,KABUPATEN MUARA ENIM,RUMAH SWADAYA,Peningkatan Kualitas,Masyarakat Berpenghasilan Rendah (MBR),Kec. Ujan Mas Ds. Pinang Belarik,46,690000,2017,,,,,,,,,,
6638,SUMATERA SELATAN,KABUPATEN MUARA ENIM,RUMAH SWADAYA,Peningkatan Kualitas,Masyarakat Berpenghasilan Rendah (MBR),Kec. Ujan Mas Ds. Ujan Mas Baru,100,1500000,2017,,,,,,,,,,
6639,SUMATERA SELATAN,KABUPATEN MUARA ENIM,RUMAH SWADAYA,Peningkatan Kualitas,Masyarakat Berpenghasilan Rendah (MBR),Kec. Ujan Mas Ds. Ujan Mas Lama,35,525000,2017,,,,,,,,,,
