NO,PROVINSI,KABUPATEN/ KOTA,PROGRAM,KEGIATAN,PENERIMA MANFAAT,KETERANGAN,UNIT,ANGGARAN,TAHUN,,,,,,,,,,
5945,SULAWESI TENGGARA,KABUPATEN BUTON SELATAN,RUMAH SWADAYA,Peningkatan Kualitas,Masyarakat Berpenghasilan Rendah (MBR),Kec. Lapandewa Ds. Lapandewa,30,450000,2017,,,,,,,,,,
5946,SULAWESI TENGGARA,KABUPATEN BUTON SELATAN,RUMAH SWADAYA,Peningkatan Kualitas,Masyarakat Berpenghasilan Rendah (MBR),Kec. Lapandewa Ds. Lapandewa Kaindea,30,450000,2017,,,,,,,,,,
5947,SULAWESI TENGGARA,KABUPATEN BUTON SELATAN,RUMAH SWADAYA,Peningkatan Kualitas,Masyarakat Berpenghasilan Rendah (MBR),Kec. Lapandewa Ds. Burungasi Makmur,30,450000,2017,,,,,,,,,,
5948,SULAWESI TENGGARA,KABUPATEN BUTON SELATAN,RUMAH SWADAYA,Peningkatan Kualitas,Masyarakat Berpenghasilan Rendah (MBR),Kec. Lapandewa Ds. Gaya Baru,30,450000,2017,,,,,,,,,,
5949,SULAWESI TENGGARA,KABUPATEN BUTON SELATAN,RUMAH SWADAYA,Peningkatan Kualitas,Masyarakat Berpenghasilan Rendah (MBR),Kec. Lapandewa Ds. Lapandewa Jaya,30,450000,2017,,,,,,,,,,
5950,SULAWESI TENGGARA,KABUPATEN BUTON TENGAH,RUMAH SWADAYA,Peningkatan Kualitas,Masyarakat Berpenghasilan Rendah (MBR),"Kec. Lakudo, Ds. Matawine",23,297500,2016,,,,,,,,,,
5951,SULAWESI TENGGARA,KABUPATEN BUTON TENGAH,RUMAH SWADAYA,Peningkatan Kualitas,Masyarakat Berpenghasilan Rendah (MBR),"Kec. Lakudo, Ds. Wongko Lakudo",22,305000,2016,,,,,,,,,,
5952,SULAWESI TENGGARA,KABUPATEN BUTON TENGAH,RUMAH SWADAYA,Peningkatan Kualitas,Masyarakat Berpenghasilan Rendah (MBR),"Kec. Lakudo, Ds. One Waara",26,372500,2016,,,,,,,,,,
5953,SULAWESI TENGGARA,KABUPATEN BUTON TENGAH,RUMAH SWADAYA,Peningkatan Kualitas,Masyarakat Berpenghasilan Rendah (MBR),"Kec. Lakudo, Ds. Teluk Lasongko",22,320000,2016,,,,,,,,,,
5954,SULAWESI TENGGARA,KABUPATEN BUTON TENGAH,RUMAH SWADAYA,Peningkatan Kualitas,Masyarakat Berpenghasilan Rendah (MBR),"Kec. Gu, Ds. Rahia",23,330000,2016,,,,,,,,,,
5955,SULAWESI TENGGARA,KABUPATEN BUTON TENGAH,RUMAH SWADAYA,Peningkatan Kualitas,Masyarakat Berpenghasilan Rendah (MBR),"Kec. Sangia Wambulu, Ds. Tolandona",25,305000,2016,,,,,,,,,,
5956,SULAWESI TENGGARA,KABUPATEN BUTON TENGAH,RUMAH SWADAYA,Peningkatan Kualitas,Masyarakat Berpenghasilan Rendah (MBR),"Kec. Sangia Wambulu, Ds. Baruta Lestari",20,255000,2016,,,,,,,,,,
5957,SULAWESI TENGGARA,KABUPATEN BUTON TENGAH,RUMAH SWADAYA,Peningkatan Kualitas,Masyarakat Berpenghasilan Rendah (MBR),"Kec. Sangia Wambulu, Ds. Baruta",23,315000,2016,,,,,,,,,,
5958,SULAWESI TENGGARA,KABUPATEN BUTON TENGAH,RUMAH SWADAYA,Peningkatan Kualitas,Masyarakat Berpenghasilan Rendah (MBR),"Kec. Sangia Wambulu, Ds. Tolandona Matanaeo",22,265000,2016,,,,,,,,,,
5959,SULAWESI TENGGARA,KABUPATEN BUTON UTARA,RUMAH SWADAYA,Peningkatan Kualitas,Masyarakat Berpenghasilan Rendah (MBR),"Kec. Kalisusu, Ds. Triwacuwacu",94,705000,2016,,,,,,,,,,
5960,SULAWESI TENGGARA,KABUPATEN BUTON UTARA,RUMAH SWADAYA,Peningkatan Kualitas,Masyarakat Berpenghasilan Rendah (MBR),"Kec. Wakorumba, Ds. Labajaya",56,690000,2016,,,,,,,,,,
5961,SULAWESI TENGGARA,KABUPATEN BUTON UTARA,RUMAH SWADAYA,Peningkatan Kualitas,Masyarakat Berpenghasilan Rendah (MBR),"Kec. Wakorumba, Ds. Lasiwa",77,645000,2016,,,,,,,,,,
5962,SULAWESI TENGGARA,KABUPATEN KOLAKA,RUMAH SWADAYA,Peningkatan Kualitas,Masyarakat Berpenghasilan Rendah (MBR),"Kec. Pomala, Ds. Dawi-Dawi",39,450000,2016,,,,,,,,,,
5963,SULAWESI TENGGARA,KABUPATEN KOLAKA,RUMAH SWADAYA,Peningkatan Kualitas,Masyarakat Berpenghasilan Rendah (MBR),"Kec. Pomala, Ds. Huko-Huko",69,810000,2016,,,,,,,,,,
5964,SULAWESI TENGGARA,KABUPATEN KOLAKA,RUMAH SWADAYA,Peningkatan Kualitas,Masyarakat Berpenghasilan Rendah (MBR),"Kec. Pomala, Ds. Oko-Oko",47,555000,2016,,,,,,,,,,
5965,SULAWESI TENGGARA,KABUPATEN KOLAKA,RUMAH SWADAYA,Peningkatan Kualitas,Masyarakat Berpenghasilan Rendah (MBR),"Kec. Pomala, Ds. Pelambua",50,585000,2016,,,,,,,,,,
5966,SULAWESI TENGGARA,KABUPATEN KOLAKA,RUMAH SWADAYA,Peningkatan Kualitas,Masyarakat Berpenghasilan Rendah (MBR),"Kec. Tanggetada, Ds. Anaiwoi",48,570000,2016,,,,,,,,,,
5967,SULAWESI TENGGARA,KABUPATEN KOLAKA,RUMAH SWADAYA,Peningkatan Kualitas,Masyarakat Berpenghasilan Rendah (MBR),"Kec. Tanggetada, Ds. Lamedai",51,600000,2016,,,,,,,,,,
5968,SULAWESI TENGGARA,KABUPATEN KOLAKA,RUMAH SWADAYA,Peningkatan Kualitas,Masyarakat Berpenghasilan Rendah (MBR),"Kec. Tanggetada, Ds. Petudua",45,442500,2016,,,,,,,,,,
5969,SULAWESI TENGGARA,KABUPATEN KOLAKA,RUMAH SWADAYA,Peningkatan Kualitas,Masyarakat Berpenghasilan Rendah (MBR),"Kec. Wundulako, Ds. Tikonu",30,450000,2016,,,,,,,,,,
5970,SULAWESI TENGGARA,KABUPATEN KOLAKA,RUMAH SWADAYA,Peningkatan Kualitas,Masyarakat Berpenghasilan Rendah (MBR),"Kec. Tanggetada, Ds. Tanggetada",30,412500,2016,,,,,,,,,,
5971,SULAWESI TENGGARA,KABUPATEN KOLAKA,RUMAH SWADAYA,Peningkatan Kualitas,Masyarakat Berpenghasilan Rendah (MBR),"Kec. Tanggetada, Ds. Pewisoa Jaya",25,337500,2016,,,,,,,,,,
5972,SULAWESI TENGGARA,KABUPATEN KOLAKA,RUMAH SWADAYA,Peningkatan Kualitas,Masyarakat Berpenghasilan Rendah (MBR),"Kec. Toari, Ds. Wonua Raya",20,300000,2016,,,,,,,,,,
5973,SULAWESI TENGGARA,KABUPATEN KOLAKA,RUMAH SWADAYA,Peningkatan Kualitas,Masyarakat Berpenghasilan Rendah (MBR),Kec. Wolo Ds. Ulu Wolo,52,780000,2017,,,,,,,,,,
5974,SULAWESI TENGGARA,KABUPATEN KOLAKA,RUMAH SWADAYA,Peningkatan Kualitas,Masyarakat Berpenghasilan Rendah (MBR),Kec. Wolo Ds. Lana,75,1125000,2017,,,,,,,,,,
5975,SULAWESI TENGGARA,KABUPATEN KOLAKA,RUMAH SWADAYA,Peningkatan Kualitas,Masyarakat Berpenghasilan Rendah (MBR),Kec. Woimwndaa Ds. Ulukalo,21,315000,2017,,,,,,,,,,
5976,SULAWESI TENGGARA,KABUPATEN KOLAKA,RUMAH SWADAYA,Peningkatan Kualitas,Masyarakat Berpenghasilan Rendah (MBR),Kec. Woimwndaa Ds. Lasiroku,46,690000,2017,,,,,,,,,,
5977,SULAWESI TENGGARA,KABUPATEN KOLAKA,RUMAH SWADAYA,Peningkatan Kualitas,Masyarakat Berpenghasilan Rendah (MBR),Kec. Woimwndaa Ds. Tamborasi,39,585000,2017,,,,,,,,,,
5978,SULAWESI TENGGARA,KABUPATEN KOLAKA TIMUR,RUMAH SWADAYA,Peningkatan Kualitas,Masyarakat Berpenghasilan Rendah (MBR),"Kec. Ladongi, Ds. Ladongi",56,570000,2016,,,,,,,,,,
5979,SULAWESI TENGGARA,KABUPATEN KOLAKA TIMUR,RUMAH SWADAYA,Peningkatan Kualitas,Masyarakat Berpenghasilan Rendah (MBR),"Kec. Loea, Ds. Loea",53,480000,2016,,,,,,,,,,
5980,SULAWESI TENGGARA,KABUPATEN KOLAKA TIMUR,RUMAH SWADAYA,Peningkatan Kualitas,Masyarakat Berpenghasilan Rendah (MBR),"Kec. Tirawuta, Ds. Orawa",52,495000,2016,,,,,,,,,,
5981,SULAWESI TENGGARA,KABUPATEN KOLAKA TIMUR,RUMAH SWADAYA,Peningkatan Kualitas,Masyarakat Berpenghasilan Rendah (MBR),"Kec. Tirawuta, Ds. Tawainalu",47,480000,2016,,,,,,,,,,
5982,SULAWESI TENGGARA,KABUPATEN KOLAKA TIMUR,RUMAH SWADAYA,Peningkatan Kualitas,Masyarakat Berpenghasilan Rendah (MBR),"Kec. Tirawuta, Ds.Tirawuta",49,465000,2016,,,,,,,,,,
5983,SULAWESI TENGGARA,KABUPATEN KOLAKA TIMUR,RUMAH SWADAYA,Peningkatan Kualitas,Masyarakat Berpenghasilan Rendah (MBR),"Kec. Tirawuta, Ds. Tumbuh Daido",52,480000,2016,,,,,,,,,,
5984,SULAWESI TENGGARA,KABUPATEN KOLAKA TIMUR,RUMAH SWADAYA,Peningkatan Kualitas,Masyarakat Berpenghasilan Rendah (MBR),"Kec. Tirawuta, Ds. Woiha",55,510000,2016,,,,,,,,,,
5985,SULAWESI TENGGARA,KABUPATEN KOLAKA UTARA,RUMAH SUSUN,Pembangunan baru,Masyarakat Berpenghasilan Rendah (MBR),"Dinas Pekerjaan Umum Kab. Kolaka Utara, Jl. Bypass Kel. Lasussua, Kec. Lassusua (TB. 1, T.24, L.5)",114,11917382,2016,,,,,,,,,,
5986,SULAWESI TENGGARA,KABUPATEN KOLAKA UTARA,RUMAH SUSUN,Pembangunan baru,Masyarakat Berpenghasilan Rendah (MBR),"Jl. Bypass Kel. Lasussua, Kec. Lassusua, Kab. Kolaka Utara, Prov. Sulawesi Tenggara T. 24 / 5 Lt",114,16922000,2017,,,,,,,,,,
5987,SULAWESI TENGGARA,KABUPATEN KOLAKA UTARA,RUMAH SWADAYA,Pembangunan baru,Masyarakat Berpenghasilan Rendah (MBR),"Kec. Ngapa, Desa. Lapai",3,60000,2015,,,,,,,,,,
5988,SULAWESI TENGGARA,KABUPATEN KOLAKA UTARA,RUMAH SWADAYA,Pembangunan baru,Masyarakat Berpenghasilan Rendah (MBR),"Kec. Rante Angin, Ds. Torotuo",3,90000,2016,,,,,,,,,,
5989,SULAWESI TENGGARA,KABUPATEN KOLAKA UTARA,RUMAH SWADAYA,Pembangunan baru,Masyarakat Berpenghasilan Rendah (MBR),"Kec. Tiwu, Ds. Lapolu",1,30000,2016,,,,,,,,,,
5990,SULAWESI TENGGARA,KABUPATEN KOLAKA UTARA,RUMAH SWADAYA,Peningkatan Kualitas,Masyarakat Berpenghasilan Rendah (MBR),"Kec. Ngapa, Desa. Ngapa",77,970000,2015,,,,,,,,,,
5991,SULAWESI TENGGARA,KABUPATEN KOLAKA UTARA,RUMAH SWADAYA,Peningkatan Kualitas,Masyarakat Berpenghasilan Rendah (MBR),"Kec. Ngapa, Desa. Puu Rau",54,695000,2015,,,,,,,,,,
5992,SULAWESI TENGGARA,KABUPATEN KOLAKA UTARA,RUMAH SWADAYA,Peningkatan Kualitas,Masyarakat Berpenghasilan Rendah (MBR),"Kec. Ngapa, Desa. Lapai",261,3075000,2015,,,,,,,,,,
5993,SULAWESI TENGGARA,KABUPATEN KOLAKA UTARA,RUMAH SWADAYA,Peningkatan Kualitas,Masyarakat Berpenghasilan Rendah (MBR),"Kec. Batu Putih, Ds. Lalewawo",40,585000,2016,,,,,,,,,,
5994,SULAWESI TENGGARA,KABUPATEN KOLAKA UTARA,RUMAH SWADAYA,Peningkatan Kualitas,Masyarakat Berpenghasilan Rendah (MBR),"Kec. Batu Putih, Ds.Mosiku",32,480000,2016,,,,,,,,,,
5995,SULAWESI TENGGARA,KABUPATEN KOLAKA UTARA,RUMAH SWADAYA,Peningkatan Kualitas,Masyarakat Berpenghasilan Rendah (MBR),"Kec. Tolala, Ds. Lawaki",37,480000,2016,,,,,,,,,,
5996,SULAWESI TENGGARA,KABUPATEN KOLAKA UTARA,RUMAH SWADAYA,Peningkatan Kualitas,Masyarakat Berpenghasilan Rendah (MBR),"Kec. Tolala, Ds. Leleulu",39,510000,2016,,,,,,,,,,
5997,SULAWESI TENGGARA,KABUPATEN KOLAKA UTARA,RUMAH SWADAYA,Peningkatan Kualitas,Masyarakat Berpenghasilan Rendah (MBR),"Kec. Tolala, Ds. Loka",41,480000,2016,,,,,,,,,,
5998,SULAWESI TENGGARA,KABUPATEN KOLAKA UTARA,RUMAH SWADAYA,Peningkatan Kualitas,Masyarakat Berpenghasilan Rendah (MBR),"Kec. Tolala, Ds. Patikala",39,510000,2016,,,,,,,,,,
5999,SULAWESI TENGGARA,KABUPATEN KOLAKA UTARA,RUMAH SWADAYA,Peningkatan Kualitas,Masyarakat Berpenghasilan Rendah (MBR),"Kec. Tolala, Ds. Tolala",46,600000,2016,,,,,,,,,,
6000,SULAWESI TENGGARA,KABUPATEN KOLAKA UTARA,RUMAH SWADAYA,Peningkatan Kualitas,Masyarakat Berpenghasilan Rendah (MBR),"Kec. Lasusua, Ds. Lasusua",30,450000,2016,,,,,,,,,,
6001,SULAWESI TENGGARA,KABUPATEN KOLAKA UTARA,RUMAH SWADAYA,Peningkatan Kualitas,Masyarakat Berpenghasilan Rendah (MBR),"Kec. Lasusua, Ds. Pitulua",30,440000,2016,,,,,,,,,,
6002,SULAWESI TENGGARA,KABUPATEN KOLAKA UTARA,RUMAH SWADAYA,Peningkatan Kualitas,Masyarakat Berpenghasilan Rendah (MBR),"Kec. Lasusua, Ds. Rante Limbong",30,435000,2016,,,,,,,,,,
6003,SULAWESI TENGGARA,KABUPATEN KOLAKA UTARA,RUMAH SWADAYA,Peningkatan Kualitas,Masyarakat Berpenghasilan Rendah (MBR),"Kec. Lasusua, Ds. Tojabi",28,380000,2016,,,,,,,,,,
6004,SULAWESI TENGGARA,KABUPATEN KOLAKA UTARA,RUMAH SWADAYA,Peningkatan Kualitas,Masyarakat Berpenghasilan Rendah (MBR),"Kec. Lasusua, Ds. Ponggiha",30,430000,2016,,,,,,,,,,
6005,SULAWESI TENGGARA,KABUPATEN KOLAKA UTARA,RUMAH SWADAYA,Peningkatan Kualitas,Masyarakat Berpenghasilan Rendah (MBR),"Kec. Lasusua, Ds. Watuliwu",30,450000,2016,,,,,,,,,,
6006,SULAWESI TENGGARA,KABUPATEN KOLAKA UTARA,RUMAH SWADAYA,Peningkatan Kualitas,Masyarakat Berpenghasilan Rendah (MBR),"Kec. Lasusua, Ds. Patowonua",29,425000,2016,,,,,,,,,,
6007,SULAWESI TENGGARA,KABUPATEN KOLAKA UTARA,RUMAH SWADAYA,Peningkatan Kualitas,Masyarakat Berpenghasilan Rendah (MBR),"Kec. Lasusua, Ds. Batu Ganda Permai",30,425000,2016,,,,,,,,,,
6008,SULAWESI TENGGARA,KABUPATEN KOLAKA UTARA,RUMAH SWADAYA,Peningkatan Kualitas,Masyarakat Berpenghasilan Rendah (MBR),"Kec. Lasusua, Ds. Puncak Monapa",30,430000,2016,,,,,,,,,,
6009,SULAWESI TENGGARA,KABUPATEN KOLAKA UTARA,RUMAH SWADAYA,Peningkatan Kualitas,Masyarakat Berpenghasilan Rendah (MBR),"Kec. Rante Angin, Ds. Torotuo",27,355000,2016,,,,,,,,,,
6010,SULAWESI TENGGARA,KABUPATEN KOLAKA UTARA,RUMAH SWADAYA,Peningkatan Kualitas,Masyarakat Berpenghasilan Rendah (MBR),"Kec. Tiwu, Ds. Lapolu",29,370000,2016,,,,,,,,,,
6011,SULAWESI TENGGARA,KABUPATEN KOLAKA UTARA,RUMAH SWADAYA,Peningkatan Kualitas,Masyarakat Berpenghasilan Rendah (MBR),Kec. Batu Putih Ds. Bukit Baru,42,630000,2017,,,,,,,,,,
6012,SULAWESI TENGGARA,KABUPATEN KOLAKA UTARA,RUMAH SWADAYA,Peningkatan Kualitas,Masyarakat Berpenghasilan Rendah (MBR),Kec. Batu Putih Ds. Bukit Tinggi,34,510000,2017,,,,,,,,,,
6013,SULAWESI TENGGARA,KABUPATEN KOLAKA UTARA,RUMAH SWADAYA,Peningkatan Kualitas,Masyarakat Berpenghasilan Rendah (MBR),Kec. Batu Putih Ds. Puncak Harapan,37,555000,2017,,,,,,,,,,
6014,SULAWESI TENGGARA,KABUPATEN KOLAKA UTARA,RUMAH SWADAYA,Peningkatan Kualitas,Masyarakat Berpenghasilan Rendah (MBR),Kec. Ranteangin Ds. Torotuo,24,360000,2017,,,,,,,,,,
6015,SULAWESI TENGGARA,KABUPATEN KOLAKA UTARA,RUMAH SWADAYA,Peningkatan Kualitas,Masyarakat Berpenghasilan Rendah (MBR),Kec. Ranteangin Ds. Maroko,26,390000,2017,,,,,,,,,,
6016,SULAWESI TENGGARA,KABUPATEN KOLAKA UTARA,RUMAH KHUSUS,Pembangunan baru,POLRI,"POLRES KOLAKA UTARA, Rumdin Polsek Ngapa, Ds Todoumerah Kec. Pakue",7,1437013,2016,,,,,,,,,,
6017, SULAWESI TENGGARA ,KABUPATEN KOLAKA UTARA,RUMAH KHUSUS,Pembangunan baru, Wajib Kerja Dokter Spesialis , RSUD H.M Djafar Harun ,1, -   ,2017,,,,,,,,,,
6018,SULAWESI TENGGARA,KABUPATEN KONAWE,RUMAH SWADAYA,Peningkatan Kualitas,Masyarakat Berpenghasilan Rendah (MBR),Kec. Konawe Ds. Mokowu,100,1500000,2017,,,,,,,,,,
6019,SULAWESI TENGGARA,KABUPATEN KONAWE,RUMAH SWADAYA,Peningkatan Kualitas,Masyarakat Berpenghasilan Rendah (MBR),Kec. Konawe Ds. Tawanga,35,525000,2017,,,,,,,,,,
6020,SULAWESI TENGGARA,KABUPATEN KONAWE,RUMAH SWADAYA,Peningkatan Kualitas,Masyarakat Berpenghasilan Rendah (MBR),Kec. Konawe Ds. Asiniwowo,64,960000,2017,,,,,,,,,,
6021,SULAWESI TENGGARA,KABUPATEN KONAWE,RUMAH SWADAYA,Peningkatan Kualitas,Masyarakat Berpenghasilan Rendah (MBR),Kec. Konawe Ds. Bungguossu,100,1500000,2017,,,,,,,,,,
6022,SULAWESI TENGGARA,KABUPATEN KONAWE,RUMAH SWADAYA,Peningkatan Kualitas,Masyarakat Berpenghasilan Rendah (MBR),Kec. Konawe Ds. Konawe,32,480000,2017,,,,,,,,,,
6023,SULAWESI TENGGARA,KABUPATEN KONAWE KEPULAUAN,RUMAH SWADAYA,Peningkatan Kualitas,Masyarakat Berpenghasilan Rendah (MBR),"Kec. Wawoni Barat, Ds. Bukit Permai",36,480000,2016,,,,,,,,,,
6024,SULAWESI TENGGARA,KABUPATEN KONAWE KEPULAUAN,RUMAH SWADAYA,Peningkatan Kualitas,Masyarakat Berpenghasilan Rendah (MBR),"Kec. Wawoni Barat, Ds. Lamoluo",43,535000,2016,,,,,,,,,,
6025,SULAWESI TENGGARA,KABUPATEN KONAWE KEPULAUAN,RUMAH SWADAYA,Peningkatan Kualitas,Masyarakat Berpenghasilan Rendah (MBR),"Kec. Wawoni Barat, Ds. Langara Indah",46,500000,2016,,,,,,,,,,
6026,SULAWESI TENGGARA,KABUPATEN KONAWE KEPULAUAN,RUMAH SWADAYA,Peningkatan Kualitas,Masyarakat Berpenghasilan Rendah (MBR),"Kec. Wawoni Barat, Ds. Langara Iwawo",41,450000,2016,,,,,,,,,,
6027,SULAWESI TENGGARA,KABUPATEN KONAWE KEPULAUAN,RUMAH SWADAYA,Peningkatan Kualitas,Masyarakat Berpenghasilan Rendah (MBR),"Kec. Wawoni Barat, Ds. Langara Laut",42,540000,2016,,,,,,,,,,
6028,SULAWESI TENGGARA,KABUPATEN KONAWE KEPULAUAN,RUMAH SWADAYA,Peningkatan Kualitas,Masyarakat Berpenghasilan Rendah (MBR),"Kec. Wawoni Barat, Ds. Lanowatu",49,585000,2016,,,,,,,,,,
6029,SULAWESI TENGGARA,KABUPATEN KONAWE KEPULAUAN,RUMAH SWADAYA,Peningkatan Kualitas,Masyarakat Berpenghasilan Rendah (MBR),"Kec. Wawoni Barat, Ds. Mata Langara",37,495000,2016,,,,,,,,,,
6030,SULAWESI TENGGARA,KABUPATEN KONAWE KEPULAUAN,RUMAH SWADAYA,Peningkatan Kualitas,Masyarakat Berpenghasilan Rendah (MBR),"Kec. Wawoni Barat, Ds. Tanjung Batu",59,585000,2016,,,,,,,,,,
6031,SULAWESI TENGGARA,KABUPATEN KONAWE KEPULAUAN,RUMAH SWADAYA,Peningkatan Kualitas,Masyarakat Berpenghasilan Rendah (MBR),"Kec. Wawoni Barat, Ds. Wawola",47,540000,2016,,,,,,,,,,
6032,SULAWESI TENGGARA,KABUPATEN KONAWE KEPULAUAN,RUMAH SWADAYA,Peningkatan Kualitas,Masyarakat Berpenghasilan Rendah (MBR),"Kec. Wawoni Barat, Ds. Wawobili",36,495000,2016,,,,,,,,,,
6033,SULAWESI TENGGARA,KABUPATEN KONAWE KEPULAUAN,RUMAH SWADAYA,Peningkatan Kualitas,Masyarakat Berpenghasilan Rendah (MBR),Kec. Wawoni Selatan Ds. Baku-Baku,62,930000,2017,,,,,,,,,,
6034,SULAWESI TENGGARA,KABUPATEN KONAWE KEPULAUAN,RUMAH SWADAYA,Peningkatan Kualitas,Masyarakat Berpenghasilan Rendah (MBR),Kec. Wawoni Selatan Ds. Bobolio,51,765000,2017,,,,,,,,,,
6035,SULAWESI TENGGARA,KABUPATEN KONAWE KEPULAUAN,RUMAH SWADAYA,Peningkatan Kualitas,Masyarakat Berpenghasilan Rendah (MBR),Kec. Wawoni Selatan Ds. Wungkolo,74,1110000,2017,,,,,,,,,,
6036,SULAWESI TENGGARA,KABUPATEN KONAWE KEPULAUAN,RUMAH SWADAYA,Peningkatan Kualitas,Masyarakat Berpenghasilan Rendah (MBR),Kec. Wawoni Selatan Ds. Lawey,32,480000,2017,,,,,,,,,,
6037,SULAWESI TENGGARA,KABUPATEN KONAWE KEPULAUAN,RUMAH KHUSUS,Pembangunan baru,NELAYAN,"Kel. Purirano, Kec. Kendari",51,7683920,2016,,,,,,,,,,
6038,SULAWESI TENGGARA,KABUPATEN KONAWE SELATAN,RUMAH SWADAYA,Peningkatan Kualitas,Masyarakat Berpenghasilan Rendah (MBR),"Kec. Laonti, Ds. Tambeanga",30,435000,2016,,,,,,,,,,
6039,SULAWESI TENGGARA,KABUPATEN KONAWE SELATAN,RUMAH SWADAYA,Peningkatan Kualitas,Masyarakat Berpenghasilan Rendah (MBR),"Kec. Buke, Ds. Puudaria",40,575000,2016,,,,,,,,,,
6040,SULAWESI TENGGARA,KABUPATEN KONAWE SELATAN,RUMAH SWADAYA,Peningkatan Kualitas,Masyarakat Berpenghasilan Rendah (MBR),"Kec. Buke, Ds. Tetenggolasa",30,435000,2016,,,,,,,,,,
6041,SULAWESI TENGGARA,KABUPATEN KONAWE SELATAN,RUMAH SWADAYA,Peningkatan Kualitas,Masyarakat Berpenghasilan Rendah (MBR),"Kec. Buke, Ds. Wulele Jaya",70,970000,2016,,,,,,,,,,
6042,SULAWESI TENGGARA,KABUPATEN KONAWE SELATAN,RUMAH SWADAYA,Peningkatan Kualitas,Masyarakat Berpenghasilan Rendah (MBR),"Kec. Baito, Ds. Mekar Jaya",30,430000,2016,,,,,,,,,,
6043,SULAWESI TENGGARA,KABUPATEN KONAWE SELATAN,RUMAH SWADAYA,Peningkatan Kualitas,Masyarakat Berpenghasilan Rendah (MBR),Kec. Palangga Ds. Aosole,47,705000,2017,,,,,,,,,,
6044,SULAWESI TENGGARA,KABUPATEN KONAWE SELATAN,RUMAH SWADAYA,Peningkatan Kualitas,Masyarakat Berpenghasilan Rendah (MBR),Kec. Ranomeeto Ds. Rambu-Rambu Jaya,20,300000,2017,,,,,,,,,,
