{
    "Maluku": {
        "Kabupaten Maluku Tenggara Barat": {
            "Tanimbar Selatan": [
                "Lermatang",
                "Latdalam",
                "Saumlaki",
                "Olilit",
                "Sifnana",
                "Lauran",
                "Kabiarat Raya",
                "Ilngei",
                "Wowonda",
                "Matakus",
                "Bomaki"
            ],
            "Wer Tamrian": [
                "Tumbur",
                "Lorulun",
                "Amdasa",
                "Sangliat Dol",
                "Sangliat Krawain",
                "Arui Bab",
                "Arui Das",
                "Atubul Da",
                "Atubul Dol"
            ],
            "Wer Maktian": [
                "Batu Putih",
                "Wermatang",
                "Makatian",
                "Weratan",
                "Themin",
                "Welutu",
                "Rumah Salut",
                "Kamatubun",
                "Marantutul"
            ],
            "Selaru": [
                "Werain",
                "Fursui",
                "Lingat",
                "Kandar",
                "Namtabung",
                "Adaut",
                "Eliasa"
            ],
            "Tanimbar Utara": [
                "Lelingluan",
                "Ritabel",
                "Ridool",
                "Waitidal",
                "Keliober",
                "Lamdesar Timur",
                "Lamdesar Barat",
                "Kelaan"
            ],
            "Yaru": [
                "Romean",
                "Rumngeur",
                "Awear",
                "Sofyanin",
                "Walerang",
                "Adodo Fordata"
            ],
            "Wuar Labobar": [
                "Kilon",
                "Abat",
                "Labobar",
                "Wunlah",
                "Karatat",
                "Awear Rumngeur",
                "Watmasa",
                "Lingada",
                "Teineman",
                "Wabar",
                "Romnus"
            ],
            "Nirunmas": [
                "Waturu",
                "Tutukembong",
                "Manglusi",
                "Arma",
                "Watmuri"
            ],
            "Kormomolin": [
                "Lorwembun",
                "Alusi Batjas",
                "Alusi Tamrian",
                "Alusi Buuk Jalin",
                "Alusi Kelaan",
                "Alusi Krawain",
                "Kilmasa",
                "Lumasebu",
                "Meyano Bab",
                "Meyano Das"
            ],
            "Molu Maru": [
                "Nurkat",
                "Tutunametal",
                "Wulmasa",
                "Wadankau",
                "Adodomolo"
            ]
        },
        "Kabupaten Maluku Tenggara": {
            "Kei Kecil": [
                "Ngabub",
                "Ibra",
                "Sathean",
                "Faan",
                "Ohoingur",
                "Kel. Ohoijang Watdek",
                "Kolser",
                "Kelanit",
                "Ohoidertawun",
                "Letman",
                "Wearlilir",
                "Loon",
                "Dudunwahan",
                "Ohoider Atas",
                "Sitniohoi"
            ],
            "Kei Kecil Barat": [
                "Ohoidertutu",
                "Madwaer",
                "Somlain",
                "Ohoiren",
                "Ohoira",
                "Ur Pulau",
                "Tanimbar Kei",
                "Warbal",
                "Ohoidertom",
                "Yatwav",
                "...",
                "....",
                "....",
                "....",
                "....."
            ],
            "Kei Kecil Timur": [
                "Mastur",
                "Ohoinol",
                "Wain",
                "Abean",
                "Raat",
                "Rumat",
                "Rewav",
                "Mastur Baru",
                "Ohoilus",
                "Tenbuk",
                "Denwet",
                "Semawi",
                "Iso",
                "Wain Baru",
                "Disuk",
                "Marfun",
                "Yafawun",
                "Watngon"
            ],
            "Hoat Sorbay": [
                "Warwut",
                "Wab",
                "Arso",
                "Watngil",
                "Ohoibadar",
                "Evu",
                "Letvuan",
                "Tetoat",
                "Ngursit",
                "Madwat",
                "Wirin",
                "Dian Pulau",
                "Dian Darat"
            ],
            "Manyeuw": [
                "Rumadian",
                "Debut",
                "Namar",
                "Lairngangas",
                "Selayar",
                "Ngayub",
                "Ohoiluk",
                "Ngilngof",
                "Ohoililir"
            ],
            "Kei Kecil Timur Selatan": [
                "Ohoiseb",
                "Sare",
                "Uf",
                "Mar",
                "Danar Ternate",
                "Lumefar",
                "Ngursoin",
                "Elaar Lamagorang",
                "Elaar Let",
                "Ngurwul",
                "Garara"
            ],
            "Kei Besar": [
                "Ohoiwait",
                "Ohoiel",
                "Werka",
                "Ler Ohoilim",
                "Rahareng",
                "Waur",
                "Ngefuit",
                "Waurtahait",
                "Yamtel",
                "Ohoinangan",
                "Elat",
                "Depur",
                "Ohoilim",
                "Fako",
                "Reyamru",
                "Elralang",
                "Watuar",
                "Mataholat",
                "Harangur",
                "Udar",
                "Daftel",
                "Karkarit",
                "Rahareng Atas",
                "Wulurat",
                "Ngefuit Atas",
                "Nabaheng",
                "Ohoiwang",
                "Fangamas",
                "Ohoinangan Atas",
                "Wakol",
                "Ngurdu",
                "Soindrat",
                "Wermaf",
                "Bombay",
                "Watsin",
                "Sirbante",
                "Ngat"
            ],
            "Kei Besar Utara Timur": [
                "Kilwair",
                "Hollat",
                "Ohoifau",
                "Watlar",
                "Banda Eli",
                "Renfaan",
                "Langgiar Haar",
                "Haar Ohoimel",
                "Ohoiraut",
                "Ohoiwirin",
                "Tuburngil",
                "Yamtimur",
                "Hollat Solair",
                "Hoko",
                "Hollay",
                "Ohoifaruan",
                "Banda Efruan",
                "Banda Suku Tiga Puluh",
                "Tuburlay",
                "Renfaan Islam",
                "Renfaan Gpm",
                "Fanwav",
                "Ur",
                "Ohoimajang",
                "Haar Renrahantel",
                "Haar Ohoimur Gpm",
                "Haar Ohoimur Rk",
                "Haar Ohoiwait",
                "Haar Wassar",
                "Soin"
            ],
            "Kei Besar Selatan": [
                "Kilwat",
                "Tamangil Nuhuyanat",
                "Sather",
                "Tutrean",
                "Weduar",
                "Tamangil Nuhuten",
                "Larat",
                "Nerong",
                "Ohoirenan",
                "Soindat"
            ],
            "Kei Besar Utara Barat": [
                "Weer Ohoinam",
                "Weer Ohoiker",
                "Weer Frawav",
                "Faa",
                "Dangarat",
                "Ohoituf",
                "Hangur",
                "Ngurwalek",
                "Uwat",
                "Uwat Wear",
                "Uwat Reyaan",
                "Mun Ohoitadium",
                "Mun Wefran",
                "Mun Ohoiir",
                "Mun Esoy",
                "Mun Kahar",
                "Mun Ngurditwain",
                "Ad Wearaur",
                "Ad Ngurwul",
                "Ad Ohoiwaf",
                "Lar",
                "Hoor Islam",
                "Hoor Kristen",
                "Waer",
                "Waerat"
            ],
            "Kei Besar Selatan Barat": [
                "Weduar Feer",
                "Rahangiar",
                "Uat",
                "Ngan",
                "Ohoilean",
                "Wafol",
                "Watkidat",
                "Feer",
                "Rerean",
                "Ngurko",
                "Hako",
                "Ngafan",
                "Hoat"
            ]
        },
        "Kabupaten Maluku Tengah": {
            "Banda": [
                "Pulau Rhun",
                "Pulau Ai",
                "Lonthor",
                "Pulau Hatta",
                "Selamon",
                "Kampung Baru",
                "Dwi Warna",
                "Rajawali",
                "Merdeka",
                "Nusantara",
                "Waer",
                "Tanah Rata",
                "Uring Tutra",
                "Lautang",
                "Wailing Spanciby",
                "Boiyauw",
                "Dender",
                "Combir Kasestoren"
            ],
            "Tehoru": [
                "Salamahu",
                "Haya",
                "Tehoru",
                "Saunulu",
                "Yaputih",
                "Piliana",
                "Hatu",
                "Hatumete",
                "Mosso",
                "Teluti Baru"
            ],
            "Telutih": [
                "Wolu",
                "Lafa",
                "Tehua",
                "Maneoratu",
                "Laimu",
                "Hunisi",
                "Yamalatu",
                "Laha",
                "Lahakaba",
                "Ulahahan"
            ],
            "Amahai": [
                "Banda Baru",
                "Yafila",
                "Hollo",
                "Makariki",
                "Sehati",
                "Haruru",
                "Amahai",
                "Soahuku",
                "Rutah",
                "Sepa",
                "Tamilouw",
                "Nua Nea",
                "Yainuelo",
                "Nuweletetu",
                "Hatuhenu"
            ],
            "Kota Masohi": [
                "Letwaru",
                "Lesane",
                "Ampera",
                "Namaelo",
                "Namasina"
            ],
            "Teluk Elpaputih": [
                "Sahulau",
                "Liang",
                "Tananahu",
                "Waraka"
            ],
            "Teon Nila Serua": [
                "Usliapan",
                "Kuralele",
                "Kokroman",
                "Mesa",
                "Ameth",
                "Bumey",
                "Sifluru",
                "Wotay",
                "Isu",
                "Watludan",
                "Trana",
                "Jerili",
                "Lesluru",
                "Layeni",
                "Upt Tonetanah",
                "Waru",
                "Nakupia"
            ],
            "Saparua": [
                "Saparua",
                "Tiouw",
                "Paperu",
                "Booi",
                "Haria",
                "Portho",
                "Kulur"
            ],
            "Nusalaut": [
                "Titawaai",
                "Abubu",
                "Akoon",
                "Ameth",
                "Nalahia",
                "Sila",
                "Leinitu"
            ],
            "Saparua Timur": [
                "Ouw",
                "Ullath",
                "Siri Sori",
                "Siri-Sori Amalatu",
                "Tuhaha",
                "Ihamahu",
                "Iha",
                "Noloth",
                "Itawaka",
                "Mahu"
            ],
            "P. Haruku": [
                "Haruku",
                "Oma",
                "Wassu",
                "Aboru",
                "Hulaliu",
                "Kariuw",
                "Pelauw",
                "Kailolo",
                "Kabau",
                "Rohomoni",
                "Sameth"
            ],
            "Salahutu": [
                "Suli",
                "Tial",
                "Tengah-Tengah",
                "Tulehu",
                "Waai",
                "Liang"
            ],
            "Leihitu": [
                "Asilulu",
                "Ureng",
                "Negeri Lima",
                "Seith",
                "Kaitetu",
                "Hila",
                "Wakal",
                "Hitu Lama",
                "Hitu Mesing",
                "Mamala",
                "Morela"
            ],
            "Leihitu Barat": [
                "Larike",
                "Wakasihu",
                "Allang",
                "Liliboi",
                "Hatu"
            ],
            "Seram Utara": [
                "Huaulu",
                "Sawai",
                "Manusela",
                "Kanikeh",
                "Roho",
                "Rumah Sokat",
                "Wahai",
                "Air Besar",
                "Pasahari",
                "Kaloa",
                "Malaku",
                "Besi",
                "Maraina",
                "Solea",
                "Siatele"
            ],
            "Seram Utara Barat": [
                "Warasiwa",
                "Rumahwey",
                "Lisabata Timur",
                "Latea",
                "Gale-Gale",
                "Labuan",
                "Pasanea",
                "Karlutukara",
                "Paa",
                "Wailulu",
                "Horale",
                "Saleman"
            ],
            "Seram Utara Timur Kobi": [
                "Kobi",
                "Kobi Mukti",
                "Maneo Rendah",
                "Leawai",
                "Samal",
                "Waitonipa",
                "Morokay",
                "Waimusi",
                "Waiasih",
                "Marasahua",
                "Sariputih",
                "Kabauhari"
            ],
            "Seram Utara Timur Seti": [
                "Tihuana",
                "Kobisonta",
                "Seti",
                "Wailoping",
                "Waitila",
                "Waiputih",
                "Aketernate",
                "Tanah Merah",
                "Namto",
                "Waimusal",
                "Loping Mulyo"
            ]
        },
        "Kabupaten Buru": {
            "Namlea": [
                "Jamilu",
                "Sanleko",
                "Siahoni",
                "Namlea",
                "Lala",
                "Karang Jaya",
                "Batu Boy"
            ],
            "Waeapo": [
                "Waenetat",
                "Waekasar",
                "Waekerta",
                "Savanajaya",
                "Waetele",
                "Wanareja",
                "Gogrea"
            ],
            "Waplau": [
                "Waepoti",
                "Waprea",
                "Wailihang",
                "Hatawano",
                "Namsina",
                "Samalagi",
                "Waeura",
                "Waplau",
                "Lamahang",
                "Skikilale"
            ],
            "Bata Bual": [
                "Ilath",
                "Waemorat",
                "Batu Jungku",
                "Pela",
                "Namlea Ilath"
            ],
            "Teluk Kaiely": [
                "Kaki Air",
                "Kayeli",
                "Masarete",
                "Waelapia",
                "Seith"
            ],
            "Waelata": [
                "Waflan",
                "Waetina",
                "Waehata",
                "Waeleman",
                "Waelo",
                "Basalale",
                "Parbulu",
                "Widit",
                "Debowae",
                "Dava",
                "Upt Wamsait"
            ],
            "Lolong Guba": [
                "Nafrua",
                "Wapsalit",
                "Lele",
                "Grandeng",
                "Waegeren",
                "Tifu",
                "Wanakarta",
                "Wabloy",
                "Kubalahin",
                "Ohilahin"
            ],
            "Lilialy": [
                "Waeperang",
                "Sawa",
                "Waimiting",
                "Jikumerasa",
                "Ubung"
            ],
            "Air Buaya": [
                "Bara",
                "Tanjung Karang",
                "Air Buaya",
                "Waimangit",
                "Waipure",
                "Selwadu",
                "Kampung Baru",
                "Wasbaka",
                "Batlale",
                "Awilinan"
            ],
            "Fena Leisela": [
                "Waemite",
                "Waereman",
                "Wasi",
                "Wamana Baru",
                "Waelanalana",
                "Raheriat",
                "Lemanpoli",
                "Waidanga",
                "Balbalu",
                "Wamlana",
                "Waspait",
                "Waikose",
                "Wainibe"
            ]
        },
        "Kabupaten Kepulauan Aru": {
            "Aru Selatan": [
                "Popjetur",
                "Ngaibor",
                "Fatural",
                "Gaimar",
                "Jelia",
                "Doka Barat",
                "Doka Timur",
                "Laininir",
                "Marafenfen",
                "Ngaiguli",
                "Feruni",
                "Kalar Kalar",
                "Kabalukin",
                "Jerol",
                "Lor Lor"
            ],
            "Aru Selatan Timur": [
                "Batugoyang",
                "Salarem",
                "Meror",
                "Siya",
                "Beltubur",
                "Dosimar",
                "Karey",
                "Jorang",
                "Gomarmeti",
                "Gomarsungai"
            ],
            "Aru Selatan Utara": [
                "Tabarfane",
                "Rebi",
                "Lutur",
                "Hokmar",
                "Juring",
                "Erersin",
                "Maekor"
            ],
            "Aru Tengah": [
                "Kobadangar",
                "Kobaseltimur",
                "Kobaselfara",
                "Fatlabata",
                "Murai",
                "Manjau",
                "Lorang",
                "Gardakau",
                "Maijuring",
                "Selilau",
                "Benjina",
                "Papakula",
                "Irloy",
                "Kwarbola",
                "Algadang",
                "Namara",
                "Gulili",
                "Jirlay",
                "Wakua",
                "Maririmar",
                "Tanah Miring",
                "Selibatabata"
            ],
            "Aru Tengah Timur": [
                "Ponom",
                "Wailay",
                "Kaiwabar",
                "Basada",
                "Kobror",
                "Warjukur",
                "Lola",
                "Mariri",
                "Warloy",
                "Koijabi",
                "Balatan",
                "Dosinamalau",
                "Karawai"
            ],
            "Aru Tengah Selatan": [
                "Apara",
                "Longgar",
                "Bemun",
                "Mesiang",
                "Gomo Gomo",
                "Jambu Air",
                "Warabal"
            ],
            "Pulau-Pulau Aru": [
                "Napar",
                "Kobraur",
                "Lau Lau",
                "Tunguwatu",
                "Jabulenga",
                "Tungu",
                "Gorar",
                "Karangguli",
                "Durjela",
                "Wangel",
                "Galay Dubu",
                "Siwalima",
                "Wokam",
                "Samang",
                "Ujir"
            ],
            "Aru Utara": [
                "Warialau",
                "Selmona",
                "Masidang",
                "Kolamar",
                "Marlasi",
                "Foket",
                "Wahayum",
                "Jerwatu",
                "Wahangulangula",
                "Kaibolafin",
                "Tasinwaha",
                "Kabufin"
            ],
            "Aru Utara Timur Batuley": [
                "Batuley",
                "Kabalsiang",
                "Benjuring",
                "Kumul",
                "Waria",
                "Sewer",
                "Jursiang",
                "Kompane",
                "Kobamar"
            ],
            "Sir-Sir": [
                "Waifual",
                "Wafan",
                "Langhalau",
                "Gomsey",
                "Leiting",
                "Berdefan",
                "Mohongsel",
                "Kolaha",
                "Goda Goda"
            ]
        },
        "Kabupaten Seram Bagian Barat": {
            "Huamual Belakang": [
                "Tahalupu",
                "Sole",
                "Waesala",
                "Buano Selatan",
                "Buano Utara",
                "Tonu Jaya",
                "Alang Asaude"
            ],
            "Kepulauan Manipa": [
                "Tuniwara",
                "Buano Hatuputih",
                "Tumalehu Barat",
                "Tumalehu Timur",
                "Kelang Asaude",
                "Masawoi",
                "Luhutuban"
            ],
            "Seram Barat": [
                "Kaibobu",
                "Etty",
                "Lumoli",
                "Morekau",
                "Neniari",
                "Piru",
                "Negeri Kawa"
            ],
            "Huamual": [
                "Kulur",
                "Iha",
                "Luhu",
                "Lokki",
                "Ariate"
            ],
            "Kairatu": [
                "Kairatu",
                "Seruawan",
                "Kamarian",
                "Waimital",
                "Hatusua",
                "Uraur",
                "Waipirit"
            ],
            "Kairatu Barat": [
                "Waisarisa",
                "Kamal",
                "Nurue",
                "Waesamu",
                "Waihatu",
                "Lohiatala"
            ],
            "Inamosol": [
                "Rumberu",
                "Honitetu",
                "Hukuanakota",
                "Rambatu",
                "Manusa"
            ],
            "Amalatu": [
                "Tihulale",
                "Rumahkay",
                "Latu",
                "Tomalehu",
                "Hualoy",
                "Seriholo",
                "Tala"
            ],
            "Elpaputih": [
                "Sumeith Pasinaro",
                "Ahiolo Abio",
                "Watui",
                "Huku Kecil",
                "Sanahu",
                "Wasia",
                "Elpaputih"
            ],
            "Taniwel": [
                "Rumahsoal",
                "Lohia Sapalewa",
                "Laturake",
                "Buria",
                "Riring",
                "Niniari",
                "Mornaten",
                "Nikulukan",
                "Niwelehu",
                "Nuniali",
                "Lisabata",
                "Wakolo",
                "Patahuwe",
                "Taniwel",
                "Uweth",
                "Hulung",
                "Kasie",
                "Nukuhay",
                "Pasinalo"
            ],
            "Taniwel Timur": [
                "Souhuwe",
                "Maloang",
                "Lumahlatal",
                "Hatunuru",
                "Matapa",
                "Seakasale",
                "Makububuy",
                "Sukaraja",
                "Lumapelu",
                "Uwen Pantai",
                "Tounussa",
                "Musihuwey",
                "Solea",
                "Waraloin",
                "Walakone"
            ]
        },
        "Kabupaten Seram Bagian Timur": {
            "Pulau Gorom": [
                "Amarsekaru",
                "Mida",
                "Dai",
                "Ondor",
                "Kataloka",
                "Loko",
                "Sera",
                "Ilili",
                "Kelibingan",
                "Rumeon",
                "Kulugowa",
                "Miran Gota",
                "Namalean"
            ],
            "Wakate": [
                "Tamher Warat",
                "Kelangan",
                "Tamher Timur",
                "Amar Laut",
                "Utta",
                "Lahema",
                "Effa",
                "Ilili",
                "Tanah Baru",
                "Guliar",
                "Keldor",
                "Wunnin Eldedora",
                "Karlomin",
                "Otademan"
            ],
            "Teor": [
                "Kilwouw",
                "Mamur",
                "Kampung Baru",
                "Kampung Tenga Wermaf",
                "Kartutin Kartenga",
                "Karlokin",
                "Ker-Ker",
                "Kampung Jawa",
                "Teor",
                "Duryar Rumoy"
            ],
            "Gorom Timur": [
                "Tunas Ilur",
                "Sagey",
                "Armada",
                "Amarwawatu",
                "Waisalan",
                "Basarin",
                "Goha",
                "Kota Siri",
                "Kilkoda",
                "Bas",
                "Tuha",
                "Aran",
                "Miran",
                "Rarat",
                "Tinaru",
                "Adar"
            ],
            "Pulau Panjang": [
                "Lalasa",
                "P. Panjang",
                "Argam",
                "Ruku-Ruku",
                "Basaranggi",
                "Magat"
            ],
            "Seram Timur": [
                "Kiltai",
                "Kilwaru",
                "Geser",
                "Kellu",
                "Keffing",
                "Urung",
                "Kilfura"
            ],
            "Tutuk Tolu": [
                "Danama",
                "Kilmoy",
                "Kilbat",
                "Sesar",
                "Airkasar",
                "Waras-Waras",
                "Gah",
                "Walang Tenga",
                "Bati Kilwouw",
                "Taruy"
            ],
            "Kilmury": [
                "Selor",
                "Kilmury",
                "Kilbon Kway",
                "Nekan",
                "Afang Kota",
                "Afang Defol",
                "Kumelang",
                "Undur",
                "Kamar",
                "Gunak",
                "Sumbawa",
                "Mising"
            ],
            "Lian Vitu": [
                "Air Nanang",
                "Kwaos",
                "Suru",
                "Liantasik",
                "Keta",
                "Keta Rumadan",
                "Kianlaut",
                "Salagor Kota",
                "Salagor Air",
                "Aruan Gaur"
            ],
            "Kian Darat": [
                "Kiandarat",
                "Artafela",
                "Rumoga",
                "Angar",
                "Watu-Watu",
                "Kelaba",
                "Kilga Kilwouw",
                "Kilga Watubau",
                "Rumfakar",
                "Kileser"
            ],
            "Werinama": [
                "Bemo",
                "Werinama",
                "Hatumeten",
                "Batuasa",
                "Tobo",
                "Osong",
                "Gusalaut",
                "Tum",
                "Bemo Perak",
                "Funa Naiyaba"
            ],
            "Siwalalat": [
                "Dihil",
                "Liliama",
                "Polin",
                "Tunsai",
                "Lapela",
                "Nayet",
                "Elnusa",
                "Atiahu",
                "Adabai",
                "Naiwel Ahinulin",
                "Abuleta",
                "Sabuai"
            ],
            "Bula": [
                "Salas",
                "Bula",
                "Bula Air Fattolo",
                "Sesar",
                "Englas",
                "Lemumir",
                "Fattolo",
                "Tansi Ambon",
                "Kampung Wailola",
                "Kampung Gorom"
            ],
            "Bula Barat": [
                "Hote",
                "Silohan",
                "Rukun Jaya",
                "Jembatan Basah",
                "Sumber Agung",
                "Benggoi",
                "Jakarta Baru",
                "Waiketam Baru",
                "Waimatakabu",
                "Waisamet",
                "Aki Jaya"
            ],
            "Teluk Waru": [
                "Tubir Masiwang",
                "Waru",
                "Karay",
                "Nama Lena",
                "Nama Andan",
                "Belis",
                "Solang",
                "Kampung Baru",
                "Dawang"
            ]
        },
        "Kabupaten Maluku Barat Daya": {
            "Wetar": [
                "Arnau",
                "Hiay",
                "Ilwaki",
                "Ilputih",
                "Mahuan",
                "Masapun"
            ],
            "Wetar Barat": [
                "Ustutun",
                "Karbubu",
                "Klishatu",
                "Ilmamau",
                "Telemar"
            ],
            "Wetar Utara": [
                "Eray",
                "Nabar",
                "Esulit",
                "Naumatang",
                "Lurang",
                "Uhak"
            ],
            "Wetar Timur": [
                "Moning",
                "Tomliapat",
                "Ilpokil",
                "Kohoilin",
                "Ilway",
                "Arwala"
            ],
            "Pp. Terselatan": [
                "Lekloor",
                "Oirata Barat",
                "Oirata Timur",
                "Abusur",
                "Kota Lama",
                "Wonreli"
            ],
            "Kisar Utara": [
                "Nomaha",
                "Pur- Pura",
                "Lebelau"
            ],
            "Kepulauan Romang": [
                "Jerusu",
                "Hila",
                "Solath"
            ],
            "Letti": [
                "Nuwewang",
                "Tomra",
                "Tutuwaru",
                "Luhulely",
                "Tutukey",
                "Batumiau",
                "Laitutun"
            ],
            "Moa": [
                "Wakarleli",
                "Kaiwatu",
                "Patti",
                "Werwaru",
                "Klis",
                "Tounwawan",
                "Moain"
            ],
            "Lakor": [
                "Letoda",
                "Ketty",
                "Sera",
                "Yamluli",
                "Lolotwara"
            ],
            "Damer": [
                "Wulur",
                "Batumerah",
                "Kuay Melu",
                "Kumur",
                "Bebar Timur",
                "Ilih",
                "Kehli"
            ],
            "Mdona Hiera": [
                "Luang Barat",
                "Luang Timur",
                "Elo",
                "Romkisar",
                "Lelang",
                "Romdara",
                "Mahaleta",
                "Rotnama",
                "Batu Gajah",
                "Pupioliora",
                "Regoha"
            ],
            "Pp. Babar": [
                "Tela",
                "Imroing",
                "Tepa",
                "Letsiara",
                "Manuwui",
                "Hertuti",
                "Lewah",
                "Sinairusi",
                "Yaltubung"
            ],
            "Pulau Wetang": [
                "Pota Besar",
                "Pota Kecil",
                "Upuhupun",
                "Wasarili",
                "Rumah Lewang Besar",
                "Herley\/ Hoka",
                "Rumah Lewang Kecil",
                "Nusiata"
            ],
            "Babar Timur": [
                "Empalwas",
                "Tutuwawang",
                "Manuari",
                "Analutur",
                "Ahanari",
                "Wakpapapi",
                "Kokwari",
                "Letwurung",
                "Kroing",
                "Yatoke",
                "Nakarhamto"
            ],
            "Pulau Masela": [
                "Babyotang",
                "Iblatmuntah",
                "Lawawang",
                "Telalora\/letoda",
                "Ilbutung",
                "Nura",
                "Latalola Besar",
                "Marsela",
                "Serili",
                "Latalola Kecil",
                "Bululora"
            ],
            "Dawelor Dawera": [
                "Ilmarang",
                "Welora",
                "Letmasa",
                "Watuwey",
                "Wairatan",
                "Nurnyaman"
            ]
        },
        "Kabupaten Buru Selatan": {
            "Kepala Madan": [
                "Walbele",
                "Waepandan",
                "Fogi",
                "Pasir Putih",
                "Biloro",
                "Nanali",
                "Waekeka",
                "Balpetu",
                "Sekat",
                "Air Ternate",
                "Batu Layar",
                "Siopot",
                "Emguhen",
                "Bala Bala",
                "Waeha",
                "Waehotong"
            ],
            "Leksula": [
                "Waemulang",
                "Waeturen",
                "Waehaka",
                "Waemala",
                "Ewiri",
                "Tifu",
                "Mepa",
                "Leksula",
                "Nalbessy",
                "Kase",
                "Slealale",
                "Neath",
                "Liang",
                "Walun Helat",
                "Grahwaen",
                "Terkury",
                "Waewali",
                "Waha Olon",
                "Waenama Olon"
            ],
            "Fena Fafan": [
                "Mngeswaen",
                "Waeraman",
                "Waelo",
                "Fakal",
                "Nusarua",
                "Uneth",
                "Waekatin",
                "Batu Karang",
                "Trukat",
                "Waeeken",
                "Siwatlahin"
            ],
            "Namrole": [
                "Wamkana",
                "Waenalut",
                "Lektama",
                "Fatmite",
                "Elfule",
                "Leku",
                "Oki Lama",
                "Oki Baru",
                "Labuang",
                "Wali",
                "Batu Tulis",
                "Waefusi",
                "Kamlanglale",
                "Namrinat",
                "Waenono",
                "Tikbari",
                "Masnana"
            ],
            "Waisama": [
                "Pohon Batu",
                "Wamsisi",
                "Waelikut",
                "Simi",
                "Lena",
                "Waesili",
                "Waetawa",
                "Waeteba",
                "Hote",
                "Waemasing",
                "Batu Kasa"
            ],
            "Ambalau": [
                "Siwar",
                "Selasi",
                "Elara",
                "Lumoy",
                "Masawoy",
                "Ulima",
                "Kampung Baru"
            ]
        },
        "Kota Ambon": {
            "Nusaniwe": [
                "Latuhalat",
                "Seilale",
                "Nusaniwe",
                "Amahusu",
                "Kel Nusaniwe",
                "Kel Benteng",
                "Kel Wainitu",
                "Kel Kudamati",
                "Urimesing",
                "Kel Mangga Dua",
                "Kel Urimesing",
                "Kel Waihaong",
                "Kel Silale"
            ],
            "Sirimau": [
                "Soya",
                "Waihoka",
                "Kel Karang Panjang",
                "Kel Batu Meja",
                "Kel Batu Gaja",
                "Kel Ahusen",
                "Kel Honipopu",
                "Uritetu",
                "Kel Rijali",
                "Kel Amantelu",
                "Batu Merah",
                "Pandan Kasturi",
                "Hative Kecil",
                "Galala"
            ],
            "Leitimur Selatan": [
                "Naku",
                "Kilang",
                "Hukurila",
                "Ema",
                "Hatalae",
                "Hutumuri",
                "Rutong",
                "Leahari"
            ],
            "Teluk Ambon Baguala": [
                "Waiheru",
                "Nania",
                "Negeri Lama",
                "Passo",
                "Lateri",
                "Halong",
                "Latta"
            ],
            "Teluk Ambon": [
                "Laha",
                "Tawiri",
                "Hative Besar",
                "Waiyame",
                "Rumah Tiga",
                "Tihu",
                "Poka",
                "Hunuth\/durian Patah"
            ]
        },
        "Kota Tual": {
            "Pp. Kur": [
                "Tubyal",
                "Finualen",
                "Lokwirin",
                "Kaimear",
                "Sermaf"
            ],
            "Kur Selatan": [
                "Kanara",
                "Warkar",
                "Yapas",
                "Romoin",
                "Hirit",
                "Mangur Niela",
                "Tiflean"
            ],
            "Tayando Tam": [
                "Tayando Langgiar",
                "Tayando Ohoiel",
                "Tayando Yamru",
                "Tayando Yamtel",
                "Tam Ngurhir"
            ],
            "Pulau Dullah Utara": [
                "Fiditan",
                "Ngadi",
                "Labetawi",
                "Tamedan",
                "Ohoitahit",
                "Ohoitel",
                "Dullah Darat",
                "Dullah Laut"
            ],
            "Pulau Dullah Selatan": [
                "Taar",
                "Kel. Ketsoblak",
                "Tual",
                "Kel. Masrum",
                "Kel. Lodar El"
            ]
        }
    }
}