{
    "Kalimantan Utara": {
        "Kabupaten Malinau": {
            "Sungai Boh": [
                "Mahak Baru",
                "Dumu Mahak",
                "Long Top",
                "Data Baru",
                "Long Lebusan",
                "Agung Baru"
            ],
            "Kayan Selatan": [
                "Long Ampung",
                "Long Sungai Barang",
                "Lidung Payau",
                "Long Uro",
                "Metulang"
            ],
            "Kayan Hulu": [
                "Long Temuyat",
                "Nawang Baru",
                "Long Betaoh",
                "Long Nawang",
                "Long Payau"
            ],
            "Kayan Hilir": [
                "Metun",
                "Sungai Anai",
                "Long Pipa",
                "Long Sule",
                "Data Dian"
            ],
            "Pujungan": [
                "Long Belaka Pitau",
                "Long Masahan",
                "Long Pua",
                "Long Ketaman",
                "Long Aran",
                "Long Lame",
                "Long Pujungan",
                "Long Paliran",
                "Long Bena"
            ],
            "Bahau Hulu": [
                "Long Uli",
                "Long Tebulo",
                "Long Alango",
                "Long Atua\/long Kemuat",
                "Long Berini",
                "Apau Ping"
            ],
            "Sungai Tubu": [
                "Long Pada",
                "Long Nyau",
                "Long Titi",
                "Long Ranau",
                "Rian Tubu"
            ],
            "Malinau Selatan Hulu": [
                "Long Jalan",
                "Tanjung Nanga",
                "Nahakramo Baru",
                "Metut",
                "Long Lake",
                "Halanga",
                "Punan Mirau",
                "Long Rat"
            ],
            "Malinau Selatan": [
                "Langap",
                "Laban Nyarit",
                "Nunuk Tanah Kibang",
                "Sengayan",
                "Pelencau",
                "Bila Bekayuk",
                "Long Loreh",
                "Paya Seturan",
                "Punan Rian"
            ],
            "Malinau Selatan Hilir": [
                "Long Adiu",
                "Punan Gong Solok",
                "Batu Kajang",
                "Gong Solok",
                "Punan Long Adiu",
                "Punan Setarap",
                "Setarap",
                "Setulang"
            ],
            "Mentarang": [
                "Harapan Maju",
                "Paking",
                "Long Liku",
                "Mentarang Baru",
                "Long Bisai",
                "Long Gafid",
                "Temalang",
                "Lidung Kemenci",
                "Pulau Sapi"
            ],
            "Mentarang Hulu": [
                "Semamu",
                "Long Berang",
                "Long Simau",
                "Long Pala",
                "Long Mekatip",
                "Long Kebinu",
                "Long Sulit"
            ],
            "Malinau Utara": [
                "Sembuak Warod",
                "Luso",
                "Respen Tubu",
                "Kaliamok",
                "Malinau Seberang",
                "Lubok Manis",
                "Semengaris",
                "Kelapis",
                "Belayan",
                "Putat",
                "Salap",
                "Seruyung"
            ],
            "Malinau Barat": [
                "Punan Bengalun",
                "Sesua",
                "Sempayang",
                "Kuala Lapang",
                "Tanjung Lapang",
                "Taras",
                "Long Kenipe",
                "Sentaban",
                "Long Bila"
            ],
            "Malinau Kota": [
                "Batu Lidung",
                "Tanjung Keranjang",
                "Malinau Hilir",
                "Malinau Kota",
                "Pelita Kanaan",
                "Malinau Hulu"
            ]
        },
        "Kabupaten Bulungan": {
            "Peso": [
                "Long Lejuh",
                "Long Peleban",
                "Long Yiin\/pelaah",
                "Long Buang",
                "Long Lian",
                "Muara Pengean",
                "Long Peso",
                "Long Bia",
                "Lepak Aru",
                "Long Lasan"
            ],
            "Peso Hilir": [
                "Naha Aya",
                "Long Telenjau",
                "Long Bang Hulu",
                "Long Bang",
                "Long Tungu",
                "Long Lembu"
            ],
            "Tanjung Palas Barat": [
                "Long Beluah",
                "Long Sam",
                "Long Pari",
                "Mara Satu",
                "Mara Hilir"
            ],
            "Tanjung Palas": [
                "Antutan",
                "Pejalin",
                "Tanjung Palas Hulu",
                "Tanjung Palas Tengah",
                "Karang Anyar",
                "Gunung Putih\/kr. Jenawi",
                "Tanjung Palas Hilir",
                "Teras Baru",
                "Teras Nawang"
            ],
            "Tanjung Selor": [
                "Gunung Seriang",
                "Tanjung Selor Hulu",
                "Jelarai Selor",
                "Gunung Sari",
                "Bumi Rahayu",
                "Apung",
                "Tengkapak",
                "Tanjung Selor Timur",
                "Tanjung Selor Hilir"
            ],
            "Tanjung Palas Timur": [
                "Mangku Padi",
                "Tanah Kuning",
                "Binai",
                "Sajau",
                "Pura Sajau",
                "Sajau Hilir",
                "Wono Mulyo",
                "Tanjung Agung"
            ],
            "Tanjung Palas Tengah": [
                "Tanjung Buka",
                "Salim Batu",
                "Silva Rahayu"
            ],
            "Tanjung Palas Utara": [
                "Pimping",
                "Kelubir",
                "Karang Agung",
                "Ruhui Rahayu",
                "Panca Agung",
                "Ardi Mulya"
            ],
            "Sekatak": [
                "Ujang",
                "Tenggiling",
                "Terindak",
                "Pungit",
                "Sekatak Bengara",
                "Pentian",
                "Ambalat",
                "Kendari",
                "Kelincawan",
                "Bunau",
                "Anjar Arip",
                "Paru Abang",
                "Kelising",
                "Bekiliu",
                "Punan Dulau",
                "Bambang",
                "Kelembunan",
                "Maritam",
                "Turung",
                "Keriting",
                "Sekatak Buji",
                "Liagu"
            ],
            "Bunyu": [
                "Bunyu Barat",
                "Bunyu Selatan",
                "Bunyu Timur"
            ]
        },
        "Kabupaten Tana Tidung": {
            "Muruk Rian": [
                "Balayan Ari",
                "Seputuk",
                "Rian",
                "Kapuak",
                "Rian Rayo",
                "Sapari"
            ],
            "Sesayap": [
                "Sedulun",
                "Limbu Sedulun",
                "Gunawan",
                "Tideng Pale",
                "Tideng Pale Timur",
                "Sebidai",
                "Sebawang"
            ],
            "Betayau": [
                "Mendupo",
                "Periuk",
                "Bebakung",
                "Kujau",
                "Maning",
                "Buang Baru"
            ],
            "Sesayap Hilir": [
                "Seludau",
                "Sesayap",
                "Sepala Dalung",
                "Bandan Bikis",
                "Bebatu",
                "Sengkong",
                "Menjelutung"
            ],
            "Tana Lia": [
                "Tanah Merah",
                "Sambungan",
                "Tengku Dacing"
            ]
        },
        "Kabupaten Nunukan": {
            "Krayan Selatan": [
                "Long Pasia",
                "Liang Lunuk",
                "Pa Ibang",
                "Pa Amai",
                "Pa Kaber",
                "Pa Tera",
                "Pa Sing",
                "Long Budung",
                "Pa Dalan",
                "Pa Urang",
                "Long Birar",
                "Pa Upan",
                "Tang Paye",
                "Long Kelupan",
                "Long Rungan",
                "Pa Milau",
                "Long Pupung",
                "Pa Yalau",
                "Long Mutan",
                "Tang Badui",
                "Long Padi",
                "Long Rian",
                "Ba Liku",
                "Binuang"
            ],
            "Krayan": [
                "Pa Inan",
                "Pa Mulak",
                "Long Mangan",
                "Long Kabid",
                "Pa Butal",
                "Pa Urud",
                "Pa Kemut",
                "Buduk Kubul",
                "Pa Matung",
                "Pa Putuk",
                "Cinglat",
                "Long Tugul",
                "Long Puak",
                "Lembudud",
                "Pa Delung",
                "Pa Kidang",
                "Lembada",
                "Liang Turan",
                "Liang Alig",
                "Pa Padi",
                "Liang Biadung",
                "Wa Laya",
                "Long Matung",
                "Long Rupan",
                "Long Katung",
                "Pa Payak",
                "Pa Mering",
                "Pa Terutun",
                "Long Bawan",
                "Lepatar",
                "Liang Bua",
                "Pa Pirit",
                "Pa Rupai",
                "Buduk Tumu",
                "Long Nawang",
                "Kampung Baru",
                "Ma Libu",
                "Long Umung",
                "Pa Kebuan",
                "Buduk Kinangan",
                "Wa Yanud",
                "Pa Betung",
                "Pa Lutut",
                "Bungayan",
                "Wa Yagung",
                "Sembudud",
                "Pa Melade",
                "Long Sepayang",
                "Pa Umung",
                "Pa Pawan",
                "Long Nuat",
                "Long Tenem",
                "Pa Sire",
                "Pa Lidung",
                "Pa Rangeb",
                "Pa Raye",
                "Pa Nado",
                "Liang Tuer",
                "Long Api",
                "Ba Sikor",
                "Long Berayang",
                "Pa Pani",
                "Liang Butan",
                "Pa Pala",
                "Sinar Baru"
            ],
            "Lumbis Ogong": [
                "Payang",
                "Suyadon",
                "Tukulon",
                "Bulu Mengelom",
                "Batung",
                "Ubel Sulok",
                "Ubel Alung",
                "Nan Sapan",
                "Sedalit",
                "Tambalang Hilir",
                "Paluan",
                "Jukup",
                "Long Bulu",
                "Kalam Buku",
                "Tadungus",
                "Semata",
                "Linsayung",
                "Salan",
                "Sungoi",
                "Sinampala I",
                "Samunti",
                "Sinampala Ii",
                "Limpakon",
                "Labuk",
                "Sumentobol",
                "Sanal",
                "Tumatalas",
                "Nantukidan",
                "Labang",
                "Sumantipal",
                "Ngawol",
                "Bulu Laun Hilir",
                "Lagas",
                "Tantalujuk",
                "Panas",
                "Kuyo",
                "Bokok",
                "Tambalang Hulu",
                "Langgason",
                "Sibalu",
                "Mamasin",
                "Duyan",
                "Tau Lumbis",
                "Kabungalor",
                "Tetagas",
                "Bulu Laun Hulu",
                "Tantu Libing",
                "Kalisun",
                "Lepaga"
            ],
            "Lumbis": [
                "Sangkup",
                "Pa Loo",
                "Libang",
                "Kalampising",
                "Sedongon",
                "Mansalong",
                "Deralon",
                "Siawang",
                "Semalat",
                "Dubulon",
                "Pa Lemumut",
                "Saludan",
                "Sumalumung",
                "Tanjung Hilir",
                "Tanjung Hulu",
                "Bulan Bulan",
                "Liang",
                "Sapuyan",
                "Nainsid",
                "Likos",
                "Tubus",
                "Sasibu",
                "Taluan",
                "Pulu Bulawan",
                "Lintong",
                "Patal I",
                "Patal Ii",
                "Podong"
            ],
            "Sembakung Atulai": [
                "Liuk Bulu",
                "Binanun",
                "Pulau Keras",
                "Sabuluan",
                "Tulang",
                "Saduman",
                "Pagaluyon",
                "Mambulu",
                "Katul",
                "Lubok Buat"
            ],
            "Sembakung": [
                "Butas Bagu",
                "Labuk",
                "Pagar",
                "Tujung",
                "Manuk Bungkul",
                "Atap",
                "Lubakan",
                "Tagul",
                "Plaju",
                "Tepian"
            ],
            "Sebuku": [
                "Sujau",
                "Lulu",
                "Melasu Baru",
                "Bebanas",
                "Tetaban",
                "Kunyit",
                "Kekayap",
                "Apas",
                "Harapan",
                "Pembeliangan"
            ],
            "Tulin Onsoi": [
                "Belatikan",
                "Naputi",
                "Tau Baru",
                "Tinampak Ii",
                "Tinampak I",
                "Salang",
                "Tembalang",
                "Kalun Sayan",
                "Sekikilan",
                "Semunad",
                "Sanur",
                "Makmur"
            ],
            "Sei Menggaris": [
                "Tabur Lestari",
                "Samaenre Semaja",
                "Sri Nanti",
                "Sekaduyan Taka"
            ],
            "Nunukan": [
                "Nunukan Barat",
                "Binusan",
                "Nunukan Tengah",
                "Nunukan Timur",
                "Nunukan Utara"
            ],
            "Nunukan Selatan": [
                "Tanjung Harapan",
                "Mansapa",
                "Nunukan Selatan",
                "Selisun"
            ],
            "Sebatik Barat": [
                "Bambangan",
                "Liang Bunyu",
                "Binalawan",
                "Setabu"
            ],
            "Sebatik": [
                "Balansiku",
                "Tanjung Karang",
                "Sei Manurung",
                "Padaidi"
            ],
            "Sebatik Timur": [
                "Sungai Nyamuk",
                "Tanjung Harapan",
                "Bukit Aru Indah",
                "Tanjung Aru"
            ],
            "Sebatik Tengah": [
                "Sungai Limau",
                "Maspul",
                "Aji Kuning",
                "Bukit Harapan"
            ],
            "Sebatik Utara": [
                "Lapri",
                "Pancang",
                "Seberang"
            ]
        },
        "Kota Tarakan": {
            "Tarakan Timur": [
                "Mamburungan",
                "Mamburungan Timur",
                "Pantai Amal",
                "Kampung Enam",
                "Kampung Empat",
                "Gunung Lingkas",
                "Lingkas Ujung"
            ],
            "Tarakan Tengah": [
                "Selumit Pantai",
                "Selumit",
                "Sebengkok",
                "Pamusian",
                "Kampung Satu Skip"
            ],
            "Tarakan Barat": [
                "Karang Rejo",
                "Karang Balik",
                "Karang Anyar",
                "Karang Anyar Pantai",
                "Karang Harapan"
            ],
            "Tarakan Utara": [
                "Juata Permai",
                "Juata Kerikil",
                "Juata Laut"
            ]
        }
    }
}