{
    "Bali": {
        "Kabupaten Jembrana": {
            "Melaya": [
                "Gilimanuk",
                "Melaya",
                "Candikusuma",
                "Tuwed",
                "Tukadaya",
                "Manistutu",
                "Warnasari",
                "Nusa Sari",
                "Ekasari",
                "Blimbingsari"
            ],
            "Negara": [
                "Cupel",
                "Tegal Badeng Barat",
                "Tegal Badeng Timur",
                "Pengambengan",
                "Loloan Barat",
                "Lelateng",
                "Banjar Tengah",
                "Baluk",
                "Banyubiru",
                "Kaliakah",
                "Berangbang",
                "Baler Bale Agung"
            ],
            "Jembrana": [
                "Perancak",
                "Air Kuning",
                "Yeh Kuning",
                "Budeng",
                "Sangkaragung",
                "Dauhwaru",
                "Loloan Timur",
                "Pendem",
                "Batuagung",
                "Dangin Tukadaya"
            ],
            "Mendoyo": [
                "Mendoyo Dauh Tukad",
                "Mendoyo Dangin Tukad",
                "Pohsanten",
                "Pergung",
                "Delod Berawah",
                "Tegal Cangkring",
                "Penyaringan",
                "Yeh Embang Kauh",
                "Yeh Embang",
                "Yeh Embang Kangin",
                "Yeh Sumbul"
            ],
            "Pekutatan": [
                "Medewi",
                "Pulukan",
                "Pekutatan",
                "Pangyangan",
                "Gumbrih",
                "Pengeragoan",
                "Asahduren",
                "Manggissari"
            ]
        },
        "Kabupaten Tabanan": {
            "Selemadeg": [
                "Antap",
                "Bajera",
                "Berembeng",
                "Serampingan",
                "Selemadeg",
                "Pupuan Sawah",
                "Wanagiri",
                "Wanagiri Kauh",
                "Manikyang",
                "Bajera Utara"
            ],
            "Selemadeg Timur": [
                "Tegal Mengkeb",
                "Beraban",
                "Tangguntiti",
                "Mambang",
                "Bantas",
                "Megati",
                "Gadungan",
                "Gunung Salak",
                "Dalang",
                "Gadung Sari"
            ],
            "Selemadeg Barat": [
                "Lalang Linggah",
                "Antosari",
                "Tiying Gading",
                "Lumbung",
                "Lumbung Kauh",
                "Mundeh",
                "Mundeh Kangin",
                "Angkah",
                "Mundeh Kauh",
                "Selabih",
                "Bengkel Sari"
            ],
            "Kerambitan": [
                "Tibubiyu",
                "Kelating",
                "Penarukan",
                "Belumbang",
                "Tista",
                "Kerambitan",
                "Pangkung Karung",
                "Kukuh",
                "Baturiti",
                "Meliling",
                "Sembung Gede",
                "Samsam",
                "Batuaji",
                "Kesiut",
                "Timpag"
            ],
            "Tabanan": [
                "Sudimara",
                "Bongan",
                "Gubug",
                "Dauh Peken",
                "Delod Peken",
                "Dajan Peken",
                "Subamia",
                "Denbantas",
                "Buahan",
                "Tunjuk",
                "Wanasari",
                "Sesandan"
            ],
            "Kediri": [
                "Pangkung Tibah",
                "Belalang",
                "Beraban",
                "Buwit",
                "Cepaka",
                "Kaba-Kaba",
                "Pandak Gede",
                "Bengkel",
                "Pejaten",
                "Nyitdah",
                "Pandak Bandung",
                "Nyambu",
                "Kediri",
                "Abian Tuwung",
                "Banjar Anyar"
            ],
            "Marga": [
                "Tegaljadi",
                "Kukuh",
                "Beringkit Belayu",
                "Peken Belayu",
                "Batannyuh",
                "Kuwum",
                "Caubelayu",
                "Selanbawak",
                "Marga",
                "Petiga",
                "Tua",
                "Payangan",
                "Dauh Puri",
                "Dajan Puri",
                "Geluntung",
                "Baru"
            ],
            "Baturiti": [
                "Perean",
                "Perean Tengah",
                "Perean Kangin",
                "Luwus",
                "Mekarsari",
                "Apuan",
                "Angseri",
                "Bangli",
                "Baturiti",
                "Batunya",
                "Antapan",
                "Candikuning"
            ],
            "Penebel": [
                "Rejasa",
                "Jegu",
                "Riang Gede",
                "Buruan",
                "Tajen",
                "Pitra",
                "Penatahan",
                "Tengkudak",
                "Mengeste",
                "Penebel",
                "Biaung",
                "Babahan",
                "Senganan",
                "Jatiluwih",
                "Wongaya Gede",
                "Pesagi",
                "Tegalinggah",
                "Sangketan"
            ],
            "Pupuan": [
                "Belatungan",
                "Kebon Padangan",
                "Belimbing",
                "Sanda",
                "Batungsel",
                "Pujungan",
                "Pajahan",
                "Munduk Temu",
                "Pupuan",
                "Bantiran",
                "Padangan",
                "Jelijih Punggang",
                "Karya Sari",
                "Sai"
            ]
        },
        "Kabupaten Badung": {
            "Kuta Selatan": [
                "Pecatu",
                "Ungasan",
                "Kutuh",
                "Benoa",
                "Tanjung Benoa",
                "Jimbaran"
            ],
            "Kuta": [
                "Kedonganan",
                "Tuban",
                "Kuta",
                "Legian",
                "Seminyak"
            ],
            "Kuta Utara": [
                "Kerobokan Kelod",
                "Kerobokan",
                "Kerobokan Kaja",
                "Tibubeneng",
                "Canggu",
                "Dalung"
            ],
            "Mengwi": [
                "Cemagi",
                "Munggu",
                "Pererenan",
                "Tumbak Bayuh",
                "Buduk",
                "Abianbase",
                "Sempidi",
                "Sading",
                "Lukluk",
                "Kapal",
                "Kekeran",
                "Mengwitani",
                "Mengwi",
                "Gulingan",
                "Penarungan",
                "Baha",
                "Werdi Bhuwana",
                "Sobangan",
                "Sembung",
                "Kuwum"
            ],
            "Abiansemal": [
                "Darmasaba",
                "Sibang Gede",
                "Jagapati",
                "Angantaka",
                "Sedang",
                "Sibang Kaja",
                "Mekar Bhuana",
                "Mambal",
                "Abiansemal",
                "Dauh Yeh Cani",
                "Ayunan",
                "Blahkiuh",
                "Punggul",
                "Bongkasa",
                "Taman",
                "Selat",
                "Sangeh",
                "Bongkasa Pertiwi"
            ],
            "Petang": [
                "Carangsari",
                "Getasan",
                "Pangsan",
                "Petang",
                "Sulangai",
                "Pelaga",
                "Belok\/sidan"
            ]
        },
        "Kabupaten Gianyar": {
            "Sukawati": [
                "Batubulan",
                "Batubulan Kangin",
                "Ketewel",
                "Guwang",
                "Sukawati",
                "Celuk",
                "Singapadu",
                "Singapadu Tengah",
                "Singapadu Kaler",
                "Batuan",
                "Batuan Kaler",
                "Kemenuh"
            ],
            "Blahbatuh": [
                "Saba",
                "Pering",
                "Keramas",
                "Medahan",
                "Bona",
                "Belega",
                "Blahbatuh",
                "Buruan",
                "Bedulu"
            ],
            "Gianyar": [
                "Lebih",
                "Tulikup",
                "Temesi",
                "Sidan",
                "Samplangan",
                "Serongga",
                "Abianbase",
                "Gianyar",
                "Beng",
                "Bitera",
                "Bakbakan",
                "Siangan",
                "Suwat",
                "Petak",
                "Petak Kaja",
                "Sumita",
                "Tegal Tugu"
            ],
            "Tampaksiring": [
                "Pejeng Kawan",
                "Pejeng",
                "Pejeng Kelod",
                "Pejeng Kangin",
                "Pejeng Kaja",
                "Sanding",
                "Tampaksiring",
                "Manukaya"
            ],
            "Ubud": [
                "Singekerta",
                "Lodtunduh",
                "Mas",
                "Peliatan",
                "Petulu",
                "Ubud",
                "Sayan",
                "Kedewatan"
            ],
            "Tegallalang": [
                "Keliki",
                "Tegallalang",
                "Kenderan",
                "Kedisan",
                "Pupuan",
                "Sebatu",
                "Taro"
            ],
            "Payangan": [
                "Melinggih Kelod",
                "Melinggih",
                "Kelusa",
                "Beresela",
                "Bukian",
                "Puhu",
                "Buahan",
                "Buahan Kaja",
                "Kerta"
            ]
        },
        "Kabupaten Klungkung": {
            "Nusapenida": [
                "Sakti",
                "Bunga Mekar",
                "Batumadeg",
                "Klumpu",
                "Batukandik",
                "Sekartaji",
                "Tanglad",
                "Pejukutan",
                "Suana",
                "Batununggul",
                "Kutampi",
                "Kutampi Kaler",
                "Ped",
                "Kampung Toyapakeh",
                "Lembongan",
                "Jungutbatu"
            ],
            "Banjarangkan": [
                "Negari",
                "Takmung",
                "Banjarangkan",
                "Tusan",
                "Bakas",
                "Getakan",
                "Tihingan",
                "Aan",
                "Nyalian",
                "Bungbungan",
                "Timuhun",
                "Nyanglan",
                "Tohpati"
            ],
            "Klungkung": [
                "Satra",
                "Tojan",
                "Gelgel",
                "Kampung Gelgel",
                "Jumpai",
                "Tangkas",
                "Kamasan",
                "Semarapura Kelod",
                "Semarapura Kelod Kangin",
                "Semarapura Kangin",
                "Semarapura Tengah",
                "Semarapura Kauh",
                "Semarapura Kaja",
                "Akah",
                "Manduang",
                "Selat",
                "Tegak",
                "Selisihan"
            ],
            "Dawan": [
                "Kusamba",
                "Kampung Kusamba",
                "Pesinggahan",
                "Dawan Klod",
                "Gunaksa",
                "Sampalan Klod",
                "Sampalan Tengah",
                "Sulang",
                "Paksebali",
                "Dawan Kaler",
                "Pikat",
                "Besan"
            ]
        },
        "Kabupaten Bangli": {
            "Susut": [
                "Apuan",
                "Abuan",
                "Demulih",
                "Susut",
                "Sulahan",
                "Tiga",
                "Penglumbaran",
                "Selat",
                "Pengiangan"
            ],
            "Bangli": [
                "Bunutin",
                "Taman Bali",
                "Bebalang",
                "Kawan",
                "Cempaga",
                "Kubu",
                "Kayubihi",
                "Pengotan",
                "Landih"
            ],
            "Tembuku": [
                "Jehem",
                "Tembuku",
                "Yangapi",
                "Undisan",
                "Bangbang",
                "Peninjoan"
            ],
            "Kintamani": [
                "Mengani",
                "Binyan",
                "Ulian",
                "Bunutin",
                "Langgahan",
                "Lembean",
                "Bayungcerik",
                "Mangguh",
                "Belancan",
                "Katung",
                "Banua",
                "Abuan",
                "Bonyoh",
                "Sekaan",
                "Bayung Gede",
                "Sekardadi",
                "Kedisan",
                "Buahan",
                "Suter",
                "Abang Batu Dinding",
                "Abang Songan",
                "Terunyan",
                "Songan B",
                "Songan A",
                "Batur Selatan",
                "Batur Tengah",
                "Batur Utara",
                "Kintamani",
                "Serahi",
                "Manikliyu",
                "Awan",
                "Belantih",
                "Gunungbau",
                "Belanga",
                "Batukaang",
                "Catur",
                "Pengejaran",
                "Satra",
                "Selulung",
                "Dausa",
                "Daup",
                "Bantang",
                "Kutuh",
                "Sukawana",
                "Subaya",
                "Siyakin",
                "Pinggan",
                "Belandingan"
            ]
        },
        "Kabupaten Karangasem": {
            "Rendang": [
                "Pesaban",
                "Nongan",
                "Rendang",
                "Menanga",
                "Besakih",
                "Pempatan"
            ],
            "Sidemen": [
                "Tangkup",
                "Talibeng",
                "Telaga Tawang",
                "Sidemen",
                "Sindu Wati",
                "Sangkan Gunung",
                "Loka Sari",
                "Kertha Buana",
                "Tri Eka Buana",
                "Wisma Kerta"
            ],
            "Manggis": [
                "Antiga",
                "Gegelang",
                "Padangbai",
                "Ulakan",
                "Manggis",
                "Selumbung",
                "Ngis",
                "Nyuh Tebel",
                "Tenganan",
                "Antiga Kelod",
                "Sengkidu",
                "Pesedahan"
            ],
            "Karangasem": [
                "Bugbug",
                "Pertima",
                "Subagan",
                "Padang Kerta",
                "Karangasem",
                "Tumbu",
                "Tegallinggah",
                "Bukit",
                "Seraya Barat",
                "Seraya",
                "Seraya Timur"
            ],
            "Abang": [
                "Ababi",
                "Tiyingtali",
                "Abang",
                "Pidpid",
                "Nawakerti",
                "Kesimpar",
                "Tista",
                "Kerta Mandala",
                "Culik",
                "Datah",
                "Laba Sari",
                "Purwakerti",
                "Bunutan",
                "Tri Buana"
            ],
            "Bebandem": [
                "Sibetan",
                "Bebandem",
                "Bungaya",
                "Bungaya Kangin",
                "Budakeling",
                "Bhuana Giri",
                "Jungutan",
                "Macang"
            ],
            "Selat": [
                "Muncan",
                "Pering Sari",
                "Selat",
                "Duda",
                "Duda Timur",
                "Duda Utara",
                "Sebudi",
                "Amerta Bhuana"
            ],
            "Kubu": [
                "Ban",
                "Dukuh",
                "Tulamben",
                "Kubu",
                "Baturinggit",
                "Sukadana",
                "Tianyar",
                "Tianyar Tengah",
                "Tianyar Barat"
            ]
        },
        "Kabupaten Buleleng": {
            "Gerokgak": [
                "Sumber Klampok",
                "Pejarakan",
                "Sumberkima",
                "Pemuteran",
                "Banyupoh",
                "Penyabangan",
                "Musi",
                "Sanggalangit",
                "Gerokgak",
                "Patas",
                "Pengulon",
                "Tinga Tinga",
                "Celukan Bawang",
                "Tukad Sumaga"
            ],
            "Seririt": [
                "Unggahan",
                "Gunungsari",
                "Munduk Bestala",
                "Bestala",
                "Mayong",
                "Rangdu",
                "Ularan",
                "Ringdikit",
                "Joanyar",
                "Kalianget",
                "Tangguwisia",
                "Sulanyah",
                "Bubunan",
                "Seririt",
                "Pengastulan",
                "Patemon",
                "Lokapaksa",
                "Umeanyar",
                "Banjar Asem",
                "Kalisada",
                "Pangkungparuk"
            ],
            "Busungbiu": [
                "Sepang Kelod",
                "Tista",
                "Bongancina",
                "Pucaksari",
                "Sepang",
                "Telaga",
                "Titab",
                "Kekeran",
                "Busungbiu",
                "Pelapuan",
                "Subuk",
                "Tinggarsari",
                "Kedis",
                "Bengkel",
                "Umejero"
            ],
            "Banjar": [
                "Banyuatis",
                "Gesing",
                "Munduk",
                "Gobleg",
                "Kayuputih",
                "Tirtasari",
                "Banyusri",
                "Pedawa",
                "Tigawasa",
                "Cempaga",
                "Sidetapa",
                "Tampekan",
                "Banjar Tegeha",
                "Banjar",
                "Dencarik",
                "Temukus",
                "Kaliasem"
            ],
            "Sukasada": [
                "Pancasari",
                "Wanagiri",
                "Ambengan",
                "Gitgit",
                "Pegayaman",
                "Silangjana",
                "Pegadungan",
                "Padangbulia",
                "Sukasada",
                "Sambangan",
                "Panji",
                "Panji Anom",
                "Tegal Linggah",
                "Selat",
                "Kayuputih"
            ],
            "Buleleng": [
                "Kalibukbuk",
                "Anturan",
                "Tukadmungga",
                "Pemaron",
                "Baktiseraga",
                "Banyuasri",
                "Banjar Tegal",
                "Paket Agung",
                "Beratan",
                "Liligundi",
                "Kampung Singaraja",
                "Kendran",
                "Astina",
                "Banjar Jawa",
                "Banjar Bali",
                "Kampung Kajanan",
                "Kaliuntu",
                "Kampung Anyar",
                "Kampung Bugis",
                "Kampung Baru",
                "Banyuning",
                "Penarukan",
                "Jinengdalem",
                "Penglatan",
                "Petandakan",
                "Sari Mekar",
                "Nagasepaha",
                "Alasangker",
                "Poh Bergong"
            ],
            "Sawan": [
                "Lemukih",
                "Galungan",
                "Sekumpul",
                "Bebetin",
                "Sudaji",
                "Sawan",
                "Menyali",
                "Suwug",
                "Jagaraga",
                "Sinabun",
                "Kerobokan",
                "Sangsit",
                "Bungkulan",
                "Giri Emas"
            ],
            "Kubutambahan": [
                "Tambakan",
                "Pakisan",
                "Bontihing",
                "Tajun",
                "Tunjung",
                "Depeha",
                "Bulian",
                "Tamblang",
                "Bila",
                "Bengkala",
                "Kubutambahan",
                "Bukti",
                "Mengening"
            ],
            "Tejakula": [
                "Sembiran",
                "Pacung",
                "Julah",
                "Bondalem",
                "Madenan",
                "Tejakula",
                "Les",
                "Penuktukan",
                "Sambirenteng",
                "Tembok"
            ]
        },
        "Kota Denpasar": {
            "Denpasar Selatan": [
                "Pemogan",
                "Pedungan",
                "Sesetan",
                "Serangan",
                "Sidakarya",
                "Panjer",
                "Renon",
                "Sanur Kauh",
                "Sanur",
                "Sanur Kaja"
            ],
            "Denpasar Timur": [
                "Dangin Puri Klod",
                "Sumerta Kelod",
                "Kesiman",
                "Kesiman Petilan",
                "Kesiman Kertalangu",
                "Sumerta",
                "Sumerta Kaja",
                "Sumerta Kauh",
                "Dangin Puri",
                "Penatih",
                "Penatih Dangin Puri"
            ],
            "Denpasar Barat": [
                "Padangsambian Klod",
                "Pemecutan Klod",
                "Dauh Puri Kauh",
                "Dauh Puri Klod",
                "Dauh Puri",
                "Dauh Puri Kangin",
                "Pemecutan",
                "Tegal Harum",
                "Tegal Kertha",
                "Padangsambian",
                "Padangsambian Kaja"
            ],
            "Denpasar Utara": [
                "Pemecutan Kaja",
                "Dauh Puri Kaja",
                "Dangin Puri Kauh",
                "Dangin Puri Kaja",
                "Dangin Puri Kangin",
                "Tonja",
                "Peguyangan",
                "Ubung",
                "Ubung Kaja",
                "Peguyangan Kaja",
                "Peguyangan Kangin"
            ]
        }
    }
}