{
    "Sumatera Barat": {
        "Kabupaten Kepulauan Mentawai": {
            "Pagai Selatan": [
                "Bulasat",
                "Sinaka",
                "Makalo",
                "Malakopa"
            ],
            "Sikakap": [
                "Taikako",
                "Sikakap",
                "Matobe"
            ],
            "Pagai Utara": [
                "Saumanganya",
                "Silabu",
                "Betumonga"
            ],
            "Sipora Selatan": [
                "Bosua",
                "Nemnemleleu",
                "Beriulou",
                "Mara",
                "Sioban",
                "Saureinu",
                "Matobe"
            ],
            "Sipora Utara": [
                "Betumonga",
                "Goisooinan",
                "Bukit Pamewa",
                "Sipora Jaya",
                "Sido Makmur",
                "Tuapejat"
            ],
            "Siberut Selatan": [
                "Madobag",
                "Muara Siberut",
                "Maileppet",
                "Muntei",
                "Matotonan"
            ],
            "Seberut Barat Daya": [
                "Pasakiat Teileleu",
                "Katurei",
                "Sagulubbeg"
            ],
            "Siberut Tengah": [
                "Saliguma",
                "Saibi Samukop",
                "Cimpungan"
            ],
            "Siberut Utara": [
                "Sirilogui",
                "Muara Sikabaluan",
                "Mongan Poula",
                "Sotboyak",
                "Bojakan",
                "Malancan"
            ],
            "Siberut Barat": [
                "Simatalu",
                "Simalegi",
                "Sigapokna"
            ]
        },
        "Kabupaten Pesisir Selatan": {
            "Silaut": [
                "Silaut",
                "Sambungo",
                "Air Hitam",
                "Lubuk Bunta",
                "Durian Seribu",
                "Pasir Binjai",
                "Talang Binjai",
                "Sungai Sarik",
                "Sungai Pulai",
                "Sungai Sirah"
            ],
            "Lunang": [
                "Lunang",
                "Lunang Selatan",
                "Lunang Utara",
                "Lunang Barat",
                "Sindang Lunang",
                "Lunang Satu",
                "Lunang Tengah",
                "Pondok Parian Lunang",
                "Lunang Dua",
                "Lunang Tiga"
            ],
            "Basa Ampek Balai Tapan": [
                "Tapan",
                "Batang Arah Tapan",
                "Pasar Tapan",
                "Ampang Tulak Tapan",
                "Koto Anau Tapan",
                "Dusun Baru Tapan",
                "Tanjung Pondok Tapan",
                "Batang Betung Tapan",
                "Riak Danau Tapan",
                "Bukit Buai Tapan"
            ],
            "Ranah Ampek Hulu Tapan": [
                "Kubu Tapan",
                "Talang Koto Pulai Tapan",
                "Binjai Tapan",
                "Sungai Gambir Sako Tapan",
                "Simpang Gunung Tapan",
                "Kampung Tengah Tapan",
                "Sungai Pinang Tapan",
                "Tebing Tinggi Tapan",
                "Talang Balarik Tapan",
                "Limau Purut Tapan"
            ],
            "Pancung Soal": [
                "Inderapura",
                "Muaro Sakai Inderapura",
                "Inderapura Barat",
                "Tigo Sepakat Inderapura",
                "Inderapura Selatan",
                "Kudo-Kudo Inderapura",
                "Simpang Lama Inderapura",
                "Tluk Amplu Indrapura",
                "Inderapura Tengah",
                "Tigo Sungai Inderapura"
            ],
            "Airpura": [
                "Inderapura Timur",
                "Inderapura Utara",
                "Pulau Rajo Inderapura",
                "Tluk Kualo Inderapura",
                "Palokan Inderapura",
                "Tanah Bakali Inderapura",
                "Lubuk Betung Inderapura",
                "Damar Lapan Batang Inderapura",
                "Muara Inderapura",
                "Lalang Panjang Inderapura"
            ],
            "Linggo Sari Baganti": [
                "Aie Haji",
                "Punggasan",
                "Punggasan Timur",
                "Padang Xi Punggasan",
                "Lagan Mudik Punggasan",
                "Lagan Hilir Punggasan",
                "Punggasan Utara",
                "Muara Gadang Air Haji",
                "Air Haji Barat",
                "Pasar Bukit Air Haji",
                "Sungai Sirah Air Haji",
                "Rantau Simalenang Air Haji",
                "Air Haji Tengah",
                "Pasar Lama Muara Air Haji",
                "Air Haji Tenggara",
                "Muara Kandis Punggasan"
            ],
            "Ranah Pesisir": [
                "Sungai Tunu",
                "Palangai",
                "Sungai Tunu Barat",
                "Sungai Tunu Utara",
                "Nyiur Melambai Pelangai",
                "Pelangai Kaciak",
                "Pelangai Gadang",
                "Koto Viii Pelangai",
                "Pasia Pelangai",
                "Sungai Liku Pelangai"
            ],
            "Lengayang": [
                "Lakitan",
                "Kambang",
                "Lakitan Selatan",
                "Lakitan Tengah",
                "Lakitan Timur",
                "Lakitan Utara",
                "Kambang Barat",
                "Kambang Utara",
                "Kambang Timur"
            ],
            "Sutera": [
                "Amping Parak",
                "Surantih",
                "Taratak",
                "Amping Parak Timur",
                "Aur Duri Surantih",
                "Rawang Gunung Malelo Surantih",
                "Koto Nan Tigo Selatan Surantih",
                "Koto Nan Tigo Utara Surantih",
                "Gantiang Mudiak Selatan Surantih",
                "Gantiang Mudiak Utara Surantih",
                "Lansano Taratak",
                "Koto Taratak"
            ],
            "Batang Kapas": [
                "Iv Koto Hilie",
                "Iv Koto Mudiek",
                "Taluk",
                "Koto Nan Tigo Iv Koto Hilie",
                "Koto Nan Duo Iv Koto Hilie",
                "Sungai Nyalo Iv Koto Mudiek",
                "Tuik Iv Koto Mudiek",
                "Taratak Tempatih Iv Koto Mudiek",
                "Taluk Tigo Sakato"
            ],
            "Iv Jurai": [
                "Salido",
                "Painan",
                "Lumpo",
                "Tambang",
                "Bungo Pasang Salido",
                "Sago Salido",
                "Painan Selatan Painan",
                "Painan Timur Painan",
                "Bukik Kaciak Lumpo",
                "Sungai Sariak Lumpo",
                "Sungai Gayo Lumpo",
                "Gunung Bungkuak Lumpo",
                "Ampang Tareh Lumpo",
                "Ampuan Lumpo",
                "Balai Sinayan Lumpo",
                "Taratak Tangah Lumpo",
                "Batu Kunik Lumpo",
                "Limau Gadang Lumpo",
                "Koto Rawang",
                "Salido Sari Bulan"
            ],
            "Bayang": [
                "Pasar Baru",
                "Talaok",
                "Koto Barapak",
                "Gurun Panjang",
                "Api-Api Pasar Baru",
                "Tanjung Durian Pasar Baru",
                "Asam Kamba Pasar Baru",
                "Sawah Laweh Pasar Baru",
                "Kapeh Panji Jaya Talaok",
                "Aur Begalung Talaok",
                "Kapelgam Koto Barapak",
                "Kapujan Koto Barapak",
                "Koto Baru Koto Barapak",
                "Kubang Koto Barapak",
                "Gurun Panjang Selatan",
                "Gurun Panjang Utara",
                "Gurun Panjang Barat"
            ],
            "Iv Nagari Bayang Utara": [
                "Puluik Puluik",
                "Koto Ranah",
                "Muaro Aie",
                "Pancuang Taba",
                "Puluik Puluik Selatan",
                "Limau Gadang Pancung Taba"
            ],
            "Koto Xi Tarusan": [
                "Kapuh",
                "Ampang Pulai",
                "Nanggalo",
                "Batu Hampar",
                "Duku",
                "Barung Barung Balantai",
                "Sungai Pinang",
                "Siguntur",
                "Taratak Sungai Lundang",
                "Kapuh Utara",
                "Mandeh",
                "Barung Barung Balantai Selatan",
                "Jinang Kampung Pansur Ampang Pulai",
                "Pulau Karam Ampang Pulai",
                "Cerocok Anau Ampang Pulai",
                "Sungai Nyalo Mudiak Aie",
                "Setara Nanggalo",
                "Batu Hampar Selatan",
                "Duku Utara",
                "Barung-Barung Balantai Timur",
                "Siguntur Tua",
                "Kampung Baru Korong Nan Ampek",
                "Barung-Barung Balantai Tengah"
            ]
        },
        "Kabupaten Solok": {
            "Pantai Cermin": [
                "Surian",
                "Lolo"
            ],
            "Lembah Gumanti": [
                "Alahan Panjang",
                "Sungai Nanam",
                "Salimpek",
                "Aie Dingin"
            ],
            "Hiliran Gumanti": [
                "Sungai Abu",
                "Sariak Alahan Tigo",
                "Talang Babungo"
            ],
            "Payung Sekaki": [
                "Sirukam",
                "Supayang",
                "Aia Luo"
            ],
            "Tigo Lurah": [
                "Rangkiang Luluih",
                "Batu Bajanjang",
                "Simanau",
                "Tanjuang Balik Sumiso",
                "Garabak Data"
            ],
            "Lembang Jaya": [
                "Koto Anau",
                "Batu Banyak",
                "Limau Lunggo",
                "Koto Laweh",
                "Salayo Tanang Bukik Sileh",
                "Batu Bajanjang"
            ],
            "Danau Kembar": [
                "Kampuang Batu Dalam",
                "Simpang Tanjuang Nan Iv"
            ],
            "Gunung Talang": [
                "Cupak",
                "Talang",
                "Sungai Janiah",
                "Koto Gadang Guguak",
                "Koto Gaek Guguak",
                "Jawi-Jawi Guguak",
                "Batang Barus",
                "Aia Batumbuak"
            ],
            "Bukit Sundi": [
                "Muaro Paneh",
                "Kinari",
                "Parambahan",
                "Dilam",
                "Bukik Tandang"
            ],
            "Ix Koto Sungai Lasi": [
                "Pianggu",
                "Taruang-Taruang",
                "Siaro-Aro",
                "Indudua",
                "Guguak Sarai",
                "Sungai Durian",
                "Bukit Bais",
                "Koto Laweh",
                "Sungai Jambua"
            ],
            "Kubung": [
                "Gauang",
                "Panyakalan",
                "Saok Laweh",
                "Tanjuang Bingkuang",
                "Gantuang Ciri",
                "Koto Hilalang",
                "Selayo",
                "Koto Baru"
            ],
            "X Koto Diatas": [
                "Katialo",
                "Tanjuang Balik",
                "Paninjauan",
                "Labuah Panjang",
                "Sulik Aia",
                "Pasilihan",
                "Bukik Kanduang",
                "Kuncia",
                "Siberambang"
            ],
            "X Koto Singkarak": [
                "Kacang",
                "Tikalak",
                "Singkarak",
                "Sumani",
                "Saniang Baka",
                "Koto Sani",
                "Tanjuang Alai",
                "Aripan"
            ],
            "Junjung Sirih": [
                "Muaro Pingai",
                "Paninggahan"
            ]
        },
        "Kabupaten Sijunjung": {
            "Kamang Baru": [
                "Sungai Lansek",
                "Muaro Takung",
                "Kunangan Parit Rantang",
                "Kamang",
                "Air Amo",
                "Sungai Batuang",
                "Siaur",
                "Lubuk Tarantang",
                "Maloro",
                "Tanjung Kaliang",
                "Padang Tarok"
            ],
            "Tanjung Gadang": [
                "Langki",
                "Sibakur",
                "Pulasan",
                "Tanjung Lolo",
                "Tanjung Gadang",
                "Taratak Baru",
                "Timbulun",
                "Sinyamu",
                "Taratak Baru Utara"
            ],
            "Sijunjung": [
                "Muaro",
                "Kandang Baru",
                "Pematang Panjang",
                "Sijunjung",
                "Aia Angek",
                "Solok Ambah",
                "Paruh",
                "Muaro Silokek",
                "Durian Gadang"
            ],
            "Lubuk Tarok": [
                "Buluh Kasok",
                "Lubuk Tarok",
                "Lalan",
                "Silongo",
                "Kampung Dalam",
                "Latang"
            ],
            "Iv Nagari": [
                "Mundam Sakti",
                "Koto Baru",
                "Muaro Bodi",
                "Palangki",
                "Koto Tuo"
            ],
            "Kupitan": [
                "Batu Manjulua",
                "Padang Sibusuak",
                "Pamuatan",
                "Kampung Baru"
            ],
            "Koto Tujuh": [
                "Limo Koto",
                "Padang Laweh",
                "Tanjung",
                "Palaluar",
                "Guguk",
                "Bukit Bual",
                "Padang Laweh Selatan"
            ],
            "Sumpur Kudus": [
                "Kumanis",
                "Tanjung Bonai Aur",
                "Sisawah",
                "Tamparungo",
                "Sumpur Kudus",
                "Mengganti",
                "Sepakat Silantai",
                "Unggan",
                "Tanjung Bonai Aur Selatan",
                "Tanjuang Labuah",
                "Sumpur Kudus Selatan"
            ]
        },
        "Kabupaten Tanah Datar": {
            "Sepuluh Koto": [
                "Tambangan",
                "Jaho",
                "Paninjauan",
                "Panyalaian",
                "Aie Angek",
                "Koto Baru",
                "Pandai Sikek",
                "Singgalang",
                "Koto Laweh"
            ],
            "Batipuh": [
                "Tanjung Barulak",
                "Bungo Tanjung",
                "Pitalah",
                "Gunung Rajo",
                "Batipuh Baruah",
                "Batipuah Ateh",
                "Sabu",
                "Andaleh"
            ],
            "Batipuh Selatan": [
                "Guguak Malalo",
                "Padang Laweh Malalo",
                "Sumpur",
                "Batu Taba"
            ],
            "Pariangan": [
                "Batu Basa",
                "Tabek",
                "Sawah Tangah",
                "Simabur",
                "Pariangan",
                "Sungai Jambu"
            ],
            "Rambatan": [
                "Simawang",
                "Balimbiang",
                "Iii Koto",
                "Padang Magek",
                "Rambatan"
            ],
            "Lima Kaum": [
                "Cubadak",
                "Parambahan",
                "Labuh",
                "Lima Kaum",
                "Baringin"
            ],
            "Tanjung Emas": [
                "Pagaruyung",
                "Saruaso",
                "Koto Tangah",
                "Tanjung Barulak"
            ],
            "Padang Ganting": [
                "Padang Ganting",
                "Atar"
            ],
            "Lintau Buo": [
                "Taluak",
                "Tigo Jangko",
                "Pangian",
                "Buo"
            ],
            "Lintau Buo Utara": [
                "Tepi Selo",
                "Lubuak Jantan",
                "Balai Tangah",
                "Batu Bulek",
                "Tanjuang Bonai"
            ],
            "Sungayang": [
                "Minangkabau",
                "Andaleh Baruh Bukik",
                "Sungayang",
                "Tanjuang",
                "Sungai Patai"
            ],
            "Sungai Tarab": [
                "Talang Tangah",
                "Gurun",
                "Simpuruik",
                "Sungai Tarab",
                "Padang Laweh",
                "Koto Tuo",
                "Pasie Laweh",
                "Kumango",
                "Rao Rao",
                "Koto Baru"
            ],
            "Salimpaung": [
                "Tabek Patah",
                "Lawang Mandahiliang",
                "Salimpaung",
                "Supayang",
                "Situmbuk",
                "Sumaniak"
            ],
            "Tanjung Baru": [
                "Tanjuang Alam",
                "Barulak"
            ]
        },
        "Kabupaten Padang Pariaman": {
            "Batang Anai": [
                "Katapiang",
                "Kasang",
                "Sungai Buluh",
                "Buayan Lubuk Alung"
            ],
            "Lubuk Alung": [
                "Lubuk Alung",
                "Aie Tajun Lubuk Alung",
                "Sikabu Lubuk Alung",
                "Pasie Laweh Lubuk Alung",
                "Punggung Kasiak Lubuk Alung"
            ],
            "Sintuk Toboh Gadang": [
                "Toboh Gadang",
                "Sintuk"
            ],
            "Ulakan Tapakis": [
                "Tapakis",
                "Ulakan"
            ],
            "Nan Sabaris": [
                "Sunua",
                "Padang Bintungan",
                "Pauah Kamba",
                "Kapalo Koto",
                "Kurai Taji"
            ],
            "2 X 11 Enam Lingkung": [
                "Lubuk Pandan",
                "Sicincin",
                "Sungai Asam"
            ],
            "Enam Lingkung": [
                "Koto Tinggi",
                "Gadua",
                "Toboh Ketek",
                "Pakandangan",
                "Parik Malintang"
            ],
            "2 X 11 Kayu Tanam": [
                "Kapalo Hilalang",
                "Kayu Tanam",
                "Guguak",
                "Anduring"
            ],
            "Vii Koto Sungai Sariak": [
                "Balah Aia",
                "Lareh Nan Panjang",
                "Lurah Ampalu",
                "Sungai Sariak"
            ],
            "Patamuan": [
                "Sungai Durian",
                "Tandikat",
                "Tandikat Utara"
            ],
            "Padang Sago": [
                "Koto Dalam",
                "Batu Kalang",
                "Koto Baru"
            ],
            "V Koto Kp Dalam": [
                "Campago",
                "Sikucur"
            ],
            "V Koto Timur": [
                "Limau Puruik",
                "Kudu Gantiang",
                "Gunung Padang Alai"
            ],
            "Sungai Limau": [
                "Pilubang",
                "Kuranji Hilir",
                "Koto Tinggi Kuranji Hilir",
                "Guguak Kuranji Hilir"
            ],
            "Batang Gasan": [
                "Gasan Gadang",
                "Malai V Suku"
            ],
            "Sungai Geringging": [
                "Kuranji Hulu",
                "Malai Iii Koto",
                "Batu Gadang Kuranji Hulu",
                "Sungai Sirah Kuranji Hulu"
            ],
            "Iv Koto Aur Malintang": [
                "Iii Koto Aur Malintang",
                "Iii Koto Aur Malintang Selatan",
                "Iii Koto Aur Malintang Timur",
                "Iii Koto Aur Malintang Utara",
                "Balai Baik Malai Iii Koto"
            ]
        },
        "Kabupaten Agam": {
            "Tanjung Mutiara": [
                "Tiku Selatan",
                "Tiku Utara",
                "Tiku Limo Jorong"
            ],
            "Lubuk Basung": [
                "Manggopoh",
                "Garagahan",
                "Kampuang Tangah",
                "Kampung Pinang",
                "Lubuk Basung"
            ],
            "Ampek Nagari": [
                "Bawan",
                "Sitanang",
                "Batu Kambing",
                "Sitalang"
            ],
            "Tanjung Raya": [
                "Tanjung Sani",
                "Sungai Batang",
                "Maninjau",
                "Bayua",
                "Duo Koto",
                "Paninjauan",
                "Koto Kaciak",
                "Koto Gadang Anam Koto",
                "Koto Malintang"
            ],
            "Matur": [
                "Matua Mudiak",
                "Parik Panjang",
                "Panta Pauah",
                "Matua Hilia",
                "Tigo Balai",
                "Lawang"
            ],
            "Iv Koto": [
                "Koto Tuo",
                "Balingka",
                "Sungai Landia",
                "Koto Panjang",
                "Sianok Anam Suku",
                "Koto Gadang",
                "Guguak Tabek Sarojo"
            ],
            "Malalak": [
                "Malalak Selatan",
                "Malalak Barat",
                "Malalak Timur",
                "Malalak Utara"
            ],
            "Banuhampu": [
                "Pakan Sinayan",
                "Sungai Tanang",
                "Padang Lua",
                "Cingkariang",
                "Ladang Laweh",
                "Taluak Ampek Suku",
                "Kubang Putiah"
            ],
            "Sungai Pua": [
                "Batu Palano",
                "Padang Laweh",
                "Batagak",
                "Sariak",
                "Sungai Pua"
            ],
            "Ampek Angkek": [
                "Batu Taba",
                "Pasia",
                "Balai Gurah",
                "Ampang Gadang",
                "Biaro Gadang",
                "Lambah",
                "Panampuang"
            ],
            "Canduang": [
                "Bukik Batabuah",
                "Lasi",
                "Canduang Koto Laweh"
            ],
            "Baso": [
                "Koto Tinggi",
                "Padang Tarok",
                "Simarasok",
                "Tabek Panjang",
                "Salo",
                "Koto Baru"
            ],
            "Tilatang Kamang": [
                "Gadut",
                "Kapau",
                "Koto Tangah"
            ],
            "Kamang Magek": [
                "Magek",
                "Kamang Hilia",
                "Kamang Mudiak"
            ],
            "Palembayan": [
                "Baringin",
                "Sungai Puar",
                "Sipinang",
                "Ampek Koto Palembayan",
                "Tigo Koto Silungkang",
                "Salareh Aia"
            ],
            "Palupuh": [
                "Koto Rantang",
                "Pasia Laweh",
                "Pagadih",
                "Nan Tujuah"
            ]
        },
        "Kabupaten Lima Puluh Kota": {
            "Payakumbuh": [
                "Sungai Baringin",
                "Koto Baru Simalanggang",
                "Simalanggang",
                "Koto Tangah Simalanggang",
                "Taeh Baruah",
                "Piobang",
                "Taeh Bukik"
            ],
            "Akabiluru": [
                "Koto Tangah Batu Hampa",
                "Batu Hampa",
                "Sariak Laweh",
                "Sungai Balantiak",
                "Suayan",
                "Pauah Sangik",
                "Durian Gadang"
            ],
            "Luak": [
                "Mungo",
                "Andaleh",
                "Sungai Kamuyang",
                "Tanjuang Aro Sikabu-Kabu Pd. Panjang"
            ],
            "Lareh Sago Halaban": [
                "Halaban",
                "Ampalu",
                "Tanjuang Gadang",
                "Sitanang",
                "Batu Payuang",
                "Labuah Gunuang",
                "Balai Panjang",
                "Bukik Sikumpa"
            ],
            "Situjuah Limo Nagari": [
                "Situjuah Gadang",
                "Situjuah Banda Dalam",
                "Situjuah Batua",
                "Tungka",
                "Situjuah Ladang Laweh"
            ],
            "Harau": [
                "Taram",
                "Bukik Limbuku",
                "Pilubang",
                "Batu Balang",
                "Koto Tuo",
                "Lubuak Batingkok",
                "Gurun",
                "Sarilamak",
                "Tarantang",
                "Solok Bio-Bio",
                "Harau"
            ],
            "Guguak": [
                "Kubang",
                "Simpang Sugiran",
                "Sungai Talang",
                "Guguak Viii Koto",
                "Vii Koto Talago"
            ],
            "Mungka": [
                "Jopang Manganti",
                "Mungka",
                "Talang Maua",
                "Simpang Kapuak",
                "Sungai Antuan"
            ],
            "Suliki": [
                "Kurai",
                "Suliki",
                "Limbanang",
                "Sungai Rimbang",
                "Tanjuang Bungo",
                "Andiang"
            ],
            "Bukik Barisan": [
                "Koto Tangah",
                "Banja Laweh",
                "Maek",
                "Sungai Naniang",
                "Baruah Gunuang"
            ],
            "Gunuang Omeh": [
                "Pandam Gadang",
                "Talang Anau",
                "Koto Tinggi"
            ],
            "Kapur Ix": [
                "Koto Lamo",
                "Lubuak Alai",
                "Muaro Paiti",
                "Koto Bangun",
                "Durian Tinggi",
                "Sialang",
                "Galugua"
            ],
            "Pangkalan Koto Baru": [
                "Koto Alam",
                "Manggilang",
                "Pangkalan",
                "Gunuang Malintang",
                "Tanjuang Balik",
                "Tanjuang Pauah"
            ]
        },
        "Kabupaten Pasaman": {
            "Bonjol": [
                "Koto Kaciak",
                "Limo Koto",
                "Ganggo Hilia",
                "Ganggo Mudiak"
            ],
            "Tigo Nagari": [
                "Binjai",
                "Ladang Panjang",
                "Malampah"
            ],
            "Simpang Alahan Mati": [
                "Alahan Mati",
                "Simpang"
            ],
            "Lubuk Sikaping": [
                "Tanjung Beringin",
                "Jambak",
                "Durian Tinggi",
                "Pauah",
                "Aia Manggih",
                "Sundata"
            ],
            "Dua Koto": [
                "Cubadak",
                "Simpang Tonang"
            ],
            "Panti": [
                "Panti",
                "Panti Selatan",
                "Panti Timur"
            ],
            "Padang Gelugur": [
                "Padang Galugua",
                "Persiapan Bahagia Padang Galugua",
                "Persiapan Sitombol Padang Galugua",
                "Persiapan Sontang Cubadak"
            ],
            "Rao": [
                "Taruang-Taruang",
                "Padang Mantinggi"
            ],
            "Mapat Tunggul": [
                "Lubuak Gadang",
                "Pintu Padang",
                "Muaro Tais"
            ],
            "Mapat Tunggul Selatan": [
                "Muaro Sei Lolo",
                "Silayang"
            ],
            "Rao Selatan": [
                "Lansek Kadok",
                "Tanjung Betung",
                "Lubuak Layang"
            ],
            "Rao Utara": [
                "Koto Nopan",
                "Koto Rajo",
                "Languang"
            ]
        },
        "Kabupaten Solok Selatan": {
            "Sangir": [
                "Lubuk Gadang",
                "Lubuk Gadang Timur",
                "Lubuk Gadang Selatan",
                "Lubuk Gadang Utara"
            ],
            "Sangir Jujuan": [
                "Lubuk Malako",
                "Padang Air Dingin",
                "Bidar Alam",
                "Padang Limau Sundai",
                "Padang Gantiang"
            ],
            "Sangir Balai Janggo": [
                "Sungai Kunyit",
                "Talunan Maju",
                "Talao Sungai Kunyit",
                "Sungai Kunyit Barat"
            ],
            "Sangir Batang Hari": [
                "Abai",
                "Ranah Pantai Cermin",
                "Dusun Tangah",
                "Sitapus",
                "Lubuk Ulang Aling",
                "Lubuk Ulang Aling Selatan",
                "Lubuk Ulang Aling Tengah"
            ],
            "Sungai Pagu": [
                "Koto Baru",
                "Pasar Muara Labuh",
                "Pulakek Koto Baru",
                "Sako Pasia Talang",
                "Pasir Talang",
                "Bomas",
                "Sako Selatan Pasia Talang",
                "Sako Utara Pasia Talang",
                "Pasir Talang Selatan",
                "Pasir Talang Barat",
                "Pasir Talang Timur"
            ],
            "Pauah Duo": [
                "Alam Pauh Duo",
                "Kapau Alam Pauh Duo",
                "Luak Kapau Alam Pauh Duo",
                "Pauh Duo Nan Batigo"
            ],
            "Koto Parik Gadang Diateh": [
                "Pakan Rabaa",
                "Pakan Rabaa Timur",
                "Pakan Rabaa Utara",
                "Pakan Rabaa Tengah"
            ]
        },
        "Kabupaten Dharmasraya": {
            "Sungai Rumbai": [
                "Sungai Rumbai",
                "Kurnia Koto Salak",
                "Sungai Rumbai Timur",
                "Kurnia Selatan"
            ],
            "Koto Besar": [
                "Koto Gadang",
                "Koto Tinggi",
                "Bonjol",
                "Abai Siat",
                "Koto Besar",
                "Koto Laweh",
                "Koto Ranah"
            ],
            "Asam Jujuhan": [
                "Lubuk Besar",
                "Alahan Nan Tigo",
                "Sungai Limau",
                "Sinamar",
                "Tanjung Alam"
            ],
            "Koto Baru": [
                "Ampang Kuranji",
                "Koto Baru",
                "Sialang Gaung",
                "Koto Padang"
            ],
            "Koto Salak": [
                "Padukuan",
                "Pulau Mainan",
                "Simalidu",
                "Koto Salak",
                "Ampalu"
            ],
            "Tiumang": [
                "Koto Beringin",
                "Sipangkur",
                "Sungai Langkok",
                "Tiumang"
            ],
            "Padang Laweh": [
                "Batu Rijal",
                "Muaro Sopan",
                "Padang Laweh",
                "Sopan Jaya"
            ],
            "Sitiung": [
                "Sitiung",
                "Siguntur",
                "Gunung Medan",
                "Sungai Duo"
            ],
            "Timpeh": [
                "Panyubarangan",
                "Tabek",
                "Timpeh",
                "Taratak Tinggi",
                "Ranah Palabi"
            ],
            "Pulau Punjung": [
                "Iv Koto Pulau Punjung",
                "Sungai Dareh",
                "Tebing Tinggi",
                "Sungai Kambut",
                "Gunung Selasih",
                "Sikabau"
            ],
            "Ix Koto": [
                "Banai",
                "Lubuk Karak",
                "Silago",
                "Koto Nan Iv Dibawuah"
            ]
        },
        "Kabupaten Pasaman Barat": {
            "Sungai Beremas": [
                "Aia Bangih"
            ],
            "Ranah Batahan": [
                "Desa Baru",
                "Batahan"
            ],
            "Koto Balingka": [
                "Parik"
            ],
            "Sungai Aur": [
                "Sungai Aua"
            ],
            "Lembah Malintang": [
                "Ujuang Gadiang"
            ],
            "Gunung Tuleh": [
                "Muaro Kiawai",
                "Rabi Jongor"
            ],
            "Talamau": [
                "Kajai",
                "Talu",
                "Sinuruik"
            ],
            "Pasaman": [
                "Lingkuang Aua",
                "Aua Kuniang",
                "Aia Gadang"
            ],
            "Luhak Nan Duo": [
                "Koto Baru",
                "Kapa"
            ],
            "Sasak Ranah Pasisie": [
                "Sasak"
            ],
            "Kinali": [
                "Katiagan",
                "Kinali"
            ]
        },
        "Kota Padang": {
            "Bungus Teluk Kabung": [
                "Teluk Kabung Selatan",
                "Bungus Selatan",
                "Teluk Kabung Tengah",
                "Teluk Kabung Utara",
                "Bungus Timur",
                "Bungus Barat"
            ],
            "Lubuk Kilangan": [
                "Tarantang",
                "Beringin",
                "Batu Gadang",
                "Indarung",
                "Padang Besi",
                "Koto Lalang",
                "Bandar Buat"
            ],
            "Lubuk Begalung": [
                "Kampung Baru Nan Xx",
                "Pampangan Nan Xx",
                "Koto Baru Nan Xx",
                "Tanjuang Aur Nan Xx",
                "Gurun Laweh Nan Xx",
                "Banuaran Nan Xx",
                "Lubuk Begalung Nan Xx",
                "Cengkeh Nan Xx",
                "Gates Nan Xx",
                "Pagambiran Ampulu Nan Xx",
                "Parak Laweh Pulau Air Nan Xx",
                "Tanjung Saba Pitameh Nan Xx",
                "Tanah Sirah Piai Nan Xx",
                "Kampung Jua Nan Xx",
                "Batuang Taba Nan Xx"
            ],
            "Padang Selatan": [
                "Air Manis",
                "Bukik Gado Gado",
                "Batang Arau",
                "Seberang Palinggam",
                "Pasa Gadang",
                "Belakang Pondok",
                "Alang Laweh",
                "Taluak Bayua",
                "Rawang",
                "Mato Aie",
                "Seberang Padang",
                "Ranah Parak Rumbio"
            ],
            "Padang Timur": [
                "Sawahan",
                "Ganting Parak Gadang",
                "Parak Gadang Timur",
                "Kubu Marapalam",
                "Kubu Parak Karakah",
                "Andalas",
                "Simpang Haru",
                "Sawahan Timur",
                "Jati Baru",
                "Jati"
            ],
            "Padang Barat": [
                "Belakang Tangsi",
                "Olo",
                "Ujung Gurun",
                "Berok Nipah",
                "Kampung Pondok",
                "Kampung Jao",
                "Purus",
                "Padang Pasir",
                "Rimbo Kaluang",
                "Flamboyan Baru"
            ],
            "Padang Utara": [
                "Gunung Pangilun",
                "Ulak Karang Selatan",
                "Ulak Karang Utara",
                "Air Tawar Timur",
                "Air Tawar Barat",
                "Alai Parak Kopi",
                "Lolong Belanti"
            ],
            "Nanggalo": [
                "Tabiang Banda Gadang",
                "Gurun Laweh",
                "Kampung Olo",
                "Kampung Lapai Baru",
                "Surau Gadang",
                "Kurao Pagang"
            ],
            "Kuranji": [
                "Anduring",
                "Pasar Ambacang",
                "Lubuk Lintah",
                "Ampang",
                "Kalumbuk",
                "Korong Gadang",
                "Kuranji",
                "Gunung Sarik",
                "Sungai Sapih"
            ],
            "Pauh": [
                "Pisang",
                "Binuang Kampung Dalam",
                "Piai Tangah",
                "Cupak Tangah",
                "Kapala Koto",
                "Koto Luar",
                "Lambung Bukit",
                "Limau Manis Selatan",
                "Limau Manis"
            ],
            "Koto Tangah": [
                "Dadok Tunggul Hitam",
                "Air Pacah",
                "Lubuk Minturun",
                "Bungo Pasang",
                "Parupuk Tabing",
                "Batang Kabung",
                "Lubuk Buaya",
                "Padang Sarai",
                "Koto Panjang Ikua Koto",
                "Pasir Nan Tigo",
                "Koto Pulai",
                "Balai Gadang",
                "Batipuh Panjang"
            ]
        },
        "Kota Solok": {
            "Lubuk Sikarah": [
                "Tanah Garam",
                "Vi Suku",
                "Sinapa Piliang",
                "Ix Korong",
                "Kampai Tabu Kerambil",
                "Aro Iv Korong",
                "Simpang Rumbio"
            ],
            "Tanjung Harapan": [
                "Koto Panjang",
                "Pasar Pandan Air Mati",
                "Tanjung Paku",
                "Nan Balimo",
                "Kampung Jawa",
                "Laing"
            ]
        },
        "Kota Sawah Lunto": {
            "Silungkang": [
                "Silungkang Oso",
                "Taratak Bancah",
                "Muaro Kalaban",
                "Silungkang Tigo",
                "Silungkang Duo"
            ],
            "Lembah Segar": [
                "Lunto Barat",
                "Lunto Timur",
                "Pasar Kubang",
                "Kubang Tangah",
                "Kubang Utara Sikabu",
                "Pasar",
                "Kubang Sirakuk Utara",
                "Kubang Sirakuk Selatan",
                "Aur Mulyo",
                "Tanah Lapang",
                "Air Dingin"
            ],
            "Barangin": [
                "Lumindai",
                "Balai Batu Sandaran",
                "Saringan",
                "Lubang Panjang",
                "Durian I",
                "Durian Ii",
                "Talago Gunung",
                "Santur",
                "Kolok Mudik",
                "Kolok Nan Tuo"
            ],
            "Talawi": []
        },
        "Kota Padang Panjang": {
            "Padang Panjang Barat": [
                "Silaing Bawah",
                "Silaing Atas",
                "Pasar Usang",
                "Kampung Manggis",
                "Tanah Hitam",
                "Pasar Baru",
                "Bukit Surungan",
                "Balai-Balai"
            ],
            "Padang Panjang Timur": [
                "Koto Panjang",
                "Koto Katik",
                "Ngalau",
                "Ekor Lubuk",
                "Sigando",
                "Ganting",
                "Guguk Malintang",
                "Tanah Pak Lambik"
            ]
        },
        "Kota Bukittinggi": {
            "Guguk Panjang": [
                "Bukit Cangang Kayu Ramang",
                "Tarok Dipo",
                "Pakan Kurai",
                "Aur Tajungkang Tengah Sawah",
                "Benteng Pasar Atas",
                "Kayu Kubu",
                "Bukit Apit Puhun"
            ],
            "Mandiangin Koto Selayan": [
                "Pulai Anak Air",
                "Koto Selayan",
                "Garegeh",
                "Manggis Ganting",
                "Campago Ipuh",
                "Puhun Tembok",
                "Puhun Pintu Kabun",
                "Kubu Gulai Bancah",
                "Campago Guguk Bulek"
            ],
            "Aur Birugo Tigo Baleh": [
                "Belakang Balok",
                "Sapiran",
                "Birugo",
                "Aur Kuning",
                "Pakan Labuh",
                "Kubu Tanjung",
                "Ladang Cakiah",
                "Parit Antang"
            ]
        },
        "Kota Payakumbuh": {
            "Payakumbuh Barat": [
                "Pakan Sinayan",
                "Kubu Gadang",
                "Bulakan Balai Kandi",
                "Tanjuang Pauah",
                "Ibuah",
                "Labuah Basilang",
                "Nunang",
                "Daya Bangun",
                "Parak Batuang",
                "Parik Rantang",
                "Piliang",
                "Padang Tangah",
                "Balai Nan Duo",
                "Sungai Pinago",
                "Tanjung Gadang",
                "Payolansek",
                "Padang Tinggi",
                "Tanah Mati",
                "Padang Data",
                "Subarang Batuang",
                "Koto Tangah",
                "Talang"
            ],
            "Payakumbuh Selatan": [
                "Balai Panjang",
                "Limbukan",
                "Limo Kampuang",
                "Padang Karambia",
                "Ampangan",
                "Kapalo Koto",
                "Aur Kuning",
                "Sawah Padang",
                "Koto Tuo",
                "Koto Tuo Limo Kampuang",
                "Kototuo Limokampuang",
                "Kapalo Koto Ampangan",
                "Limbukan",
                "Balai Panjang"
            ],
            "Payakumbuh Timur": [
                "Padang Tiakar Mudik",
                "Sicincin Mudik",
                "Sicincin Hilir",
                "Padang Tiakar Hilir",
                "Padang Tangah Payobada",
                "Balai Jaring",
                "Bodi",
                "Padang Alai",
                "Balai Nan Tuo",
                "Ranah",
                "Balai Batimah",
                "Payobasung",
                "Koto Panjang",
                "Koto Baru"
            ],
            "Payakumbuh Utara": [
                "Padang Kaduduak",
                "Napar",
                "Tarok",
                "Balai Baru",
                "Bunian",
                "Koto Baru",
                "Labuah Baru",
                "Kubu Gadang",
                "Balai Kaliki",
                "Balai Gadang",
                "Balai Cacang",
                "Muaro",
                "Balai Gurun",
                "Balai Jariang",
                "Cubadak Aia",
                "Kaniang Bukik",
                "Pasir",
                "Taruko",
                "Payolinyam",
                "Nan Kodok",
                "Tambago",
                "Payonibuang",
                "Talawi",
                "Balai Batuang",
                "Tanjung Anau"
            ],
            "Lamposi Tigo Nagori": [
                "Koto Panjang Padang",
                "Koto Panjang Dalam",
                "Parambahan",
                "Padang Sikabu",
                "Parit Muko Aie",
                "Sungai Durian"
            ]
        },
        "Kota Pariaman": {
            "Pariaman Selatan": [
                "Pasir Sunur",
                "Marunggi",
                "Kampung Apar",
                "Sikabu",
                "Palak Aneh",
                "Padang Cakur",
                "Taluk",
                "Marabau",
                "Sungai Kasai",
                "Batang Tajongkek",
                "Balai Kurai Taji",
                "Pauh Kurai Taji",
                "Simpang",
                "Toboh Palabah",
                "Rambai",
                "Punggung Lading"
            ],
            "Pariaman Tengah": [
                "Karan Aur",
                "Jalan Baru",
                "Ujung Batung",
                "Jalan Kereta Api",
                "Cimparuh",
                "Alai Gelombang",
                "Taratak",
                "Kampung Baru",
                "Lohong",
                "Pasir",
                "Kampung Perak",
                "Pondok Ii",
                "Jawi-Jawi I",
                "Jawi-Jawi Ii",
                "Kampung Jawa Ii",
                "Kampung Jawa I",
                "Kampung Pondok",
                "Pauh Barat",
                "Pauh Timur",
                "Rawang",
                "Jati Hilir",
                "Jati Mudik"
            ],
            "Pariaman Timur": [
                "Kampung Gadang",
                "Talago Sarik",
                "Bato",
                "Batang Kabung",
                "Sungai Sirah",
                "Bungo Tanjung",
                "Kampung Kandang",
                "Kaluat",
                "Kajai",
                "Kampung Tangah",
                "Sungai Pasak",
                "Air Santok",
                "Cubadak Mentawai",
                "Koto Marapak",
                "Pakasai",
                "Kampung Baru Padusunan"
            ],
            "Pariaman Utara": [
                "Ampalu",
                "Tanjung Sabar",
                "Apar",
                "Manggung",
                "Cubadak Air",
                "Cubadak Air Selatan",
                "Sikapak Timur",
                "Sikapak Barat",
                "Tungkal Selatan",
                "Tungkal Utara",
                "Cubadak Air Utara",
                "Naras Hilir",
                "Naras I",
                "Balai Naras",
                "Padang Birik-Birik",
                "Sintuk",
                "Sungai Rambai"
            ]
        }
    }
}