no,PROVINSI,NO KAB/KOT,KABUPATEN/ KOTA,PERUNTUKAN,PROGRAM,KEGIATAN,LOKASI,UNIT,ANGGARAN (000), STATUS KEPENGHUNIAN , KOORDINAT GEOGRAFIS ,TAHUN
3000,KALIMANTAN TIMUR,9,KABUPATEN PENAJAM PASER UTARA,SNVT,RUMAH SWADAYA,PENINGKATAN KUALITAS,"Kec. Babulu, Ds. Rawa Mulia",50,750000,,,2016
3001,KALIMANTAN TIMUR,9,KABUPATEN PENAJAM PASER UTARA,SNVT,RUMAH SWADAYA,PENINGKATAN KUALITAS,"Kec. Babulu, Ds. Rintik",30,450000,,,2016
3002,KALIMANTAN TIMUR,9,KABUPATEN PENAJAM PASER UTARA,SNVT,RUMAH SWADAYA,PENINGKATAN KUALITAS,"Kec. Babulu, Ds. Labangka Barat",30,450000,,,2016
3003,KALIMANTAN TIMUR,9,KABUPATEN PENAJAM PASER UTARA,,RUMAH UMUM DAN KOMERSIAL,BANTUAN PSU RUMAH UMUM,Kartini Residence,50,269520,,,2016
3004,KALIMANTAN TIMUR,7,KABUPATEN KUTAI BARAT,STRATEGIS,RUMAH KHUSUS,TNI,"Koramil 0912-03/Long Bangun, Jl. Bang Juk, Ds. Ujoh Bilang, Kec. Long Bangun",4,999004,,,2016
3005,KALIMANTAN TIMUR,7,KABUPATEN KUTAI BARAT,STRATEGIS,RUMAH KHUSUS,TNI,"Koramil 0912-04/Long Iram, Jl. Suwondo, Ds. Long Iram, Kec. Long Iram, Kab. Kutai Bara",4,999004,,,2016
3006,KALIMANTAN TIMUR,7,KABUPATEN KUTAI BARAT,,RUMAH KHUSUS,POLRI,Rumdin Polres Kutai Barat,4,773244,,,2016
3007,KALIMANTAN TIMUR,7,KABUPATEN KUTAI BARAT,,RUMAH KHUSUS,POLRI,Rumdin Polsek Siluq Ngurai,3,579933,,,2016
3008,KALIMANTAN TIMUR,7,KABUPATEN KUTAI BARAT,STRATEGIS,RUMAH KHUSUS,POLRI,Rumdin Polsek Melak,2,386622,,,2016
3009,KALIMANTAN TIMUR,3,KABUPATEN BERAU,,RUMAH UMUM DAN KOMERSIAL,BANTUAN PSU RUMAH UMUM,Perumnas Cabang Kaltara,100,419438,,,2016
3010,KALIMANTAN TIMUR,12,KOTA BALIKPAPAN,,RUMAH UMUM DAN KOMERSIAL,BANTUAN PSU RUMAH UMUM,Gran Mulia Residence,100,505090,,,2016
3011,KALIMANTAN TIMUR,13,KOTA SAMARINDA,SNVT,RUMAH SWADAYA,PENINGKATAN KUALITAS,"Kec. Samarinda Ilir, Ds. Selili",33,495000,,,2016
3012,KALIMANTAN TIMUR,13,KOTA SAMARINDA,SNVT,RUMAH SWADAYA,PENINGKATAN KUALITAS,"Kec. Samarinda Ilir, Ds. Sidomulyo",80,1195000,,,2016
3013,KALIMANTAN TIMUR,13,KOTA SAMARINDA,SNVT,RUMAH SWADAYA,PENINGKATAN KUALITAS,"Kec. Samarinda Kota, Ds. Sungai Karang Mumus",37,522500,,,2016
3014,KALIMANTAN TIMUR,13,KOTA SAMARINDA,SNVT,RUMAH SWADAYA,PENINGKATAN KUALITAS,"Kec. Samarinda Kota, Ds. Sungai Pinang Luar",70,975000,,,2016
3015,KALIMANTAN TIMUR,13,KOTA SAMARINDA,SNVT,RUMAH SWADAYA,PENINGKATAN KUALITAS,"Kec. Samarinda Ulu, Ds. Air Putih ",33,342500,,,2016
3016,KALIMANTAN TIMUR,13,KOTA SAMARINDA,SNVT,RUMAH SWADAYA,PENINGKATAN KUALITAS,"Kec. Samarinda Ulu, Ds. Gunung Kelua",59,655000,,,2016
3017,KALIMANTAN TIMUR,13,KOTA SAMARINDA,SNVT,RUMAH SWADAYA,PENINGKATAN KUALITAS,"Kec. Samarinda Ulu, Ds. Sidodadi",32,287500,,,2016
3018,KALIMANTAN TIMUR,13,KOTA SAMARINDA,,RUMAH UMUM DAN KOMERSIAL,BANTUAN PSU RUMAH UMUM,Bumi Citra Lestari,90,417200,,,2016
3019,KALIMANTAN TIMUR,13,KOTA SAMARINDA,,RUMAH UMUM DAN KOMERSIAL,BANTUAN PSU RUMAH UMUM,Sempaja Indah Permai,99,457055,,,2016
3020,KALIMANTAN TIMUR,15,KOTA BONTANG,STRATEGIS,RUMAH SUSUN,MBR,"Pemkot Bontang, Jl. Tarienggang, Kel. Guntung, Kec. Bontang Utara (TB. 1, T.24, L.5)",180,22735566,,,2016
3021,KALIMANTAN TIMUR,15,KOTA BONTANG,SNVT,RUMAH SWADAYA,PENINGKATAN KUALITAS,"Kec. Bontang Utara, Ds. Lok Tuan",68,1020000,,,2016
3022,KALIMANTAN TIMUR,15,KOTA BONTANG,SNVT,RUMAH SWADAYA,PENINGKATAN KUALITAS,"Kec. Bontang Selatan, Ds. Berbas Pantai",76,1140000,,,2016
3023,KALIMANTAN TIMUR,15,KOTA BONTANG,SNVT,RUMAH SWADAYA,PENINGKATAN KUALITAS,"Kec. Bontang Selatan, Ds. Tanjung Laut",46,690000,,,2016
3024,KALIMANTAN TIMUR,15,KOTA BONTANG,SNVT,RUMAH SWADAYA,PENINGKATAN KUALITAS,"Kec. Bontang Selatan, Ds. Tanjung Laut Indah",60,900000,,,2016
3025,KALIMANTAN TIMUR,15,KOTA BONTANG,STRATEGIS,RUMAH SWADAYA,PENINGKATAN KUALITAS,"Kec. Bontang Utara, Ds. Bontang Kuala",30,450000,,,2016
3026,KALIMANTAN TIMUR,15,KOTA BONTANG,STRATEGIS,RUMAH SWADAYA,PENINGKATAN KUALITAS,"Kec. Bontang Utara, Ds. Guntung",30,450000,,,2016
3027,KALIMANTAN TIMUR,15,KOTA BONTANG,,RUMAH SWADAYA,PENINGKATAN KUALITAS,"Kec. Bontang Utara, Ds. Api-api",30,450000,,,2016
3028,KALIMANTAN TIMUR,15,KOTA BONTANG,STRATEGIS,RUMAH SWADAYA,PENINGKATAN KUALITAS,"Kec. Bontang Selatan, Ds. Bontang Lestari",29,435000,,,2016
3029,MALUKU,3,KABUPATEN MALUKU TENGGARA BARAT,STRATEGIS,RUMAH KHUSUS,POLRI,"POLRES MTB, Pemb. Rumdin Sek Tanimbar Selatan, T.36 Koppel, Kec. Saumlaki",8,1867166,,,2015
3030,MALUKU,3,KABUPATEN MALUKU TENGGARA BARAT,STRATEGIS,RUMAH KHUSUS,POLRI,"POLRES MTB, Pemb. Rumdin Sek Wertamrian, T.36 Koppel, Kec. Wertamrian, Desa Lorulung",8,1867166,,,2015
3031,MALUKU,3,KABUPATEN MALUKU TENGGARA BARAT,STRATEGIS,RUMAH KHUSUS,POLRI,"POLRES MTB, Pemb. Rumdin Sek Nirunmas, T.36 Koppel, Kec. Nirunmas, Desa ",8,1867166,,,2015
3032,MALUKU,3,KABUPATEN MALUKU TENGGARA BARAT,STRATEGIS,RUMAH KHUSUS,POLRI,"POLRES MTB, Pemb. Rumdin Sek Kormomolin, T.36 Koppel, Kec. Kormomolin, Desa Alusi",8,1867166,,,2015
3033,SULAWESI BARAT,2,KABUPATEN MAMUJU,STRATEGIS,RUMAH KHUSUS,TNI,"Korem 142 TNI AD, Jl. Poros Ranges Desa Boleng ",20,4457600,,,2015
3034,SULAWESI BARAT,2,KABUPATEN MAMUJU,STRATEGIS,RUMAH KHUSUS,NELAYAN,"Kec. Simboro dan Kepulauan, Desa Sumare ",100,15906499,,,2015
3035,SULAWESI BARAT,6,KABUPATEN MAMUJU TENGAH,STRATEGIS,RUMAH KHUSUS,NELAYAN,Desa Kire Kec. Budong-Budong,50,7742417,,,2015
3036,SULAWESI BARAT,1,KABUPATEN MAMUJU UTARA,STRATEGIS,RUMAH KHUSUS,SUKU TERASING,Desa Tampaure Kec. Bambalamotu,50,8249722,,,2015
3037,SULAWESI BARAT,1,KABUPATEN MAMUJU UTARA,STRATEGIS,RUMAH KHUSUS,SUKU TERASING,"Dusun Sinjangan, Desa Wulai Paket II, Kec. Bambalomatu",50,8192936,,,2015
3038,SULAWESI BARAT,1,KABUPATEN MAMUJU UTARA,STRATEGIS,RUMAH KHUSUS,NELAYAN,"Kec. Bambalamotu, Desa Rondomayang",50,8079959,,,2015
3039,SULAWESI BARAT,1,KABUPATEN MAMUJU UTARA,STRATEGIS,RUMAH KHUSUS,SUKU TERASING,"Dusun Sinjangan, Desa Wulai Paket I, Kec. Bambalomatu",50,7961107,,,2015
3040,SULAWESI BARAT,1,KABUPATEN MAMUJU UTARA,STRATEGIS,RUMAH KHUSUS,SUKU TERASING,"Desa Kalola, Kec. Bambalamotu",50,7642215,,,2015
3041,PAPUA BARAT,11,KABUPATEN MANOKWARI SELATAN,STRATEGIS,RUMAH KHUSUS,DAERAH TERTINGGAL,Pembangunan Rumah Khusus Di Kabupaten Manokwari Selatan Paket II,50,8701392,,,2015
3042,PAPUA BARAT,11,KABUPATEN MANOKWARI SELATAN,STRATEGIS,RUMAH KHUSUS,NELAYAN,"Distrik Oransbari Kp. Watariri 30, Distrik Ransiki Kp. Sapea Benyes 35, Distrik Rransiki Kp Kobre 30, Distrik Momi Kp Yekwandi dusun Kamyani 11 dan DusunMawi 14",25,3246573,,,2015
3043,SULAWESI SELATAN,9,KABUPATEN MAROS,STRATEGIS,RUMAH KHUSUS,TNI,"Kompi A/B/C Yonzipur 8/SMG Desa Pamakaya, Kec. Tanralli",20,2346105,,,2015
3044,KALIMANTAN UTARA,5,KOTA TARAKAN,STRATEGIS,RUMAH SUSUN,TNI,"TNI AL, Lanal Tarakan, Jl. Danau Sumpang RT. 05, Kel. Pamusian, Kec. Tarakan Tengah (T.45, L.3) ",35,13941878,,,2015
3045,KALIMANTAN BARAT,2,KABUPATEN MEMPAWAH,STRATEGIS,RUMAH KHUSUS,POLRI,Polsek Sei. Kunyit -Jl. Raya  Sei Duri Ds. Sei. Kunyit Laut,8,1219844,,,2015
3046,KALIMANTAN UTARA,5,KOTA TARAKAN,STRATEGIS,RUMAH SWADAYA,PENINGKATAN KUALITAS,"Kec. Tarakan Barat, Desa. Karang Rejo",18,179874,,,2015
3047,KALIMANTAN UTARA,5,KOTA TARAKAN,STRATEGIS,RUMAH SWADAYA,PENINGKATAN KUALITAS,"Kec. Tarakan Barat, Desa. Karang Anyar Pantai",92,974710,,,2015
3048,KALIMANTAN UTARA,5,KOTA TARAKAN,STRATEGIS,RUMAH SWADAYA,PEMBANGUNAN BARU,"Kec. Karang Rejo, Desa. Karang Rejo",1,20000,,,2015
3049,KALIMANTAN UTARA,5,KOTA TARAKAN,SNVT,RUMAH KHUSUS,NELAYAN,"(Boom Panjang  I, Kec Pamusian, Kota Tarakan, Kota Tarakan Tengah)",45,7643657,,,2016
3050,KALIMANTAN UTARA,5,KOTA TARAKAN,SNVT,RUMAH KHUSUS,NELAYAN,"(Boom Panjang  I, Kec Pamusian, Kota Tarakan, Kota Tarakan Tengah)",42,7641361,,,2016
3051,KALIMANTAN UTARA,3,KABUPATEN NUNUKAN,SNVT,RUMAH SWADAYA,PENINGKATAN KUALITAS,"Kec. Lumbis, Ds. Deralon",30,440000,,,2016
3052,KALIMANTAN UTARA,3,KABUPATEN NUNUKAN,SNVT,RUMAH SWADAYA,PENINGKATAN KUALITAS,"Kec. Lumbis, Ds. Patal I",121,1772500,,,2016
3053,KALIMANTAN UTARA,3,KABUPATEN NUNUKAN,SNVT,RUMAH SWADAYA,PENINGKATAN KUALITAS,"Kec. Lumbis Ogong, Ds. Sungoi",32,340000,,,2016
3054,KALIMANTAN UTARA,3,KABUPATEN NUNUKAN,SNVT,RUMAH SWADAYA,PENINGKATAN KUALITAS,"Kec. Lumbis Ogong, Ds. Sinampila II",29,305000,,,2016
3055,KALIMANTAN UTARA,2,KABUPATEN MALINAU,STRATEGIS,RUMAH KHUSUS,TNI,"KODAM VI/MLW, Yonif 614/Rjp, Desa Belayan Kec. Malinau Utara Kab. Malinau",10,,,,2016
3056,KALIMANTAN UTARA,2,KABUPATEN MALINAU,STRATEGIS,RUMAH KHUSUS,TNI,"KODAM VI/MLW,  Kodim 0910/Mln, Jl. Pusat Pemerintahan Kec. Malinau Kab Malinau",6,,,,2016
3057,KALIMANTAN UTARA,2,KABUPATEN MALINAU,STRATEGIS,RUMAH KHUSUS,TNI,"KODAM VI/MLW,  Koramil 0910-07/Mentarang, Ds. Mentarang, Kec. Mentarang, Kab. Malinau",4,,,,2016
3058,KALIMANTAN UTARA,2,KABUPATEN MALINAU,STRATEGIS,RUMAH KHUSUS,POLRI,"POLRES MALINAU, Rumdin Polsek Kayan Hulu, Desa Long Nawang Kec. Kayan hulu",9,1786858,,,2016
3059,KALIMANTAN UTARA,2,KABUPATEN MALINAU,STRATEGIS,RUMAH KHUSUS,POLRI,Rumdin Polsek Mentarang,9,1786858,,,2016
3060,KALIMANTAN UTARA,3,KABUPATEN NUNUKAN,STRATEGIS,RUMAH KHUSUS,PERBATASAN,Kec. Sembakung Atulai,50,934640,,,2016
3061,KALIMANTAN UTARA,1,KABUPATEN BULUNGAN,SNVT,RUMAH SWADAYA,PENINGKATAN KUALITAS,"Kec. Tanjung Palas, Ds. Tanjung Palas Hulu",20,200000,,,2016
3062,KALIMANTAN UTARA,1,KABUPATEN BULUNGAN,SNVT,RUMAH SWADAYA,PENINGKATAN KUALITAS,"Kec. Tanjung Palas, Ds. Tanjung Palas Tengah",78,895000,,,2016
3063,KALIMANTAN UTARA,1,KABUPATEN BULUNGAN,SNVT,RUMAH SWADAYA,PENINGKATAN KUALITAS,"Kec. Tanjung Palas, Ds. Tanjung Palas Hilir",138,1422500,,,2016
3064,KALIMANTAN UTARA,1,KABUPATEN BULUNGAN,SNVT,RUMAH SWADAYA,PENINGKATAN KUALITAS,"Kec. Tanjung Palas, Ds. Karang Anyar",30,280000,,,2016
3065,KALIMANTAN UTARA,1,KABUPATEN BULUNGAN,SNVT,RUMAH SWADAYA,PENINGKATAN KUALITAS,"Kec. Tanjung Palas, Ds. Gunung Putih",159,1250000,,,2016
3066,KALIMANTAN UTARA,1,KABUPATEN BULUNGAN,SNVT,RUMAH SWADAYA,PENINGKATAN KUALITAS,"Kec. Tanjung Palas, Ds. Pejalin",42,325000,,,2016
3067,KALIMANTAN UTARA,1,KABUPATEN BULUNGAN,SNVT,RUMAH SWADAYA,PENINGKATAN KUALITAS,"Kec. Tanjung Palas, Ds. Antutan",64,692500,,,2016
3068,KALIMANTAN UTARA,1,KABUPATEN BULUNGAN,SNVT,RUMAH SWADAYA,PENINGKATAN KUALITAS,"Kec. Tanjung Palas, Ds. Teras Baru",77,822500,,,2016
3069,KALIMANTAN UTARA,1,KABUPATEN BULUNGAN,SNVT,RUMAH SWADAYA,PENINGKATAN KUALITAS,"Kec. Tanjung Palas, Ds. Teras Nawang",106,1102500,,,2016
3070,KALIMANTAN UTARA,1,KABUPATEN BULUNGAN,SNVT,RUMAH SWADAYA,PENINGKATAN KUALITAS,"Kec. Tanjung Palas Utara, Ds. Karang Agung",131,1600000,,,2016
3071,KALIMANTAN UTARA,1,KABUPATEN BULUNGAN,SNVT,RUMAH SWADAYA,PENINGKATAN KUALITAS,"Kec. Tanjung Palas Utara, Ds. Pimping",261,3385000,,,2016
3072,KALIMANTAN UTARA,1,KABUPATEN BULUNGAN,SNVT,RUMAH SWADAYA,PENINGKATAN KUALITAS,"Kec. Tanjung Palas Utara, Ds. Panca Agung",62,785000,,,2016
3073,KALIMANTAN UTARA,1,KABUPATEN BULUNGAN,SNVT,RUMAH SWADAYA,PENINGKATAN KUALITAS,"Kec. Tanjung Palas Utara, Ds. Ruhui Rahayu",108,1137500,,,2016
3074,KALIMANTAN UTARA,1,KABUPATEN BULUNGAN,SNVT,RUMAH SWADAYA,PENINGKATAN KUALITAS,"Kec. Tanjung Palas Utara, Ds. Ardi Mulyo",25,312500,,,2016
3075,KALIMANTAN UTARA,1,KABUPATEN BULUNGAN,SNVT,RUMAH SWADAYA,PENINGKATAN KUALITAS,"Kec. Tanjung Palas Utara, Ds. Kelubir",64,622500,,,2016
3076,KALIMANTAN UTARA,1,KABUPATEN BULUNGAN,SNVT,RUMAH SWADAYA,PENINGKATAN KUALITAS,"Kec. Tanjung Palas Timur, Ds. Sajau",31,347500,,,2016
3077,KALIMANTAN UTARA,1,KABUPATEN BULUNGAN,SNVT,RUMAH SWADAYA,PENINGKATAN KUALITAS,"Kec. Tanjung Palas Timur, Ds. Tanjung Agung",157,1602848,,,2016
3078,KALIMANTAN UTARA,1,KABUPATEN BULUNGAN,SNVT,RUMAH SWADAYA,PENINGKATAN KUALITAS,"Kec. Tanjung Selor, Ds. Tanjung Selor Hilir",247,2892500,,,2016
3079,KALIMANTAN UTARA,1,KABUPATEN BULUNGAN,SNVT,RUMAH SWADAYA,PENINGKATAN KUALITAS,"Kec. Tanjung Selor, Ds. Bumi Rahayu",24,277500,,,2016
3080,KALIMANTAN UTARA,1,KABUPATEN BULUNGAN,SNVT,RUMAH SWADAYA,PENINGKATAN KUALITAS,"Kec. Tanjung Selor, Ds. Gunung Sari",23,255000,,,2016
3081,KALIMANTAN UTARA,1,KABUPATEN BULUNGAN,SNVT,RUMAH SWADAYA,PENINGKATAN KUALITAS,"Kec. Tanjung Selor, Ds. Apung",116,1272500,,,2016
3082,KALIMANTAN UTARA,1,KABUPATEN BULUNGAN,SNVT,RUMAH SWADAYA,PENINGKATAN KUALITAS,"Kec. Tanjung Selor, Ds. Tengkapak",29,325000,,,2016
3083,KALIMANTAN UTARA,5,KOTA TARAKAN,STRATEGIS,RUMAH SUSUN,TNI,"Lantamal XIII Tarakan, Jl. Kusuma Bangsa, Kel. Gunung Lingkas, Tarakan Timur (TB.1, T.45, L.3)",35,12544162,,,2016
3084,KALIMANTAN UTARA,5,KOTA TARAKAN,STRATEGIS,RUMAH SUSUN,TNI,"Lanud Tarakan, Jl. Aki Balak Karang Anyar  Pantai.Tarakan (TB.1, T.45, L.3)",35,12275601,,,2016
3085,KALIMANTAN UTARA,3,KABUPATEN NUNUKAN,STRATEGIS,RUMAH KHUSUS,POLRI,"POLRES NUNUKAN, Rumdin Polsek Krayan, Jl. Yuvai Semaring Kec. Krayan Selatan",9,1758394,,,2016
3086,KALIMANTAN UTARA,3,KABUPATEN NUNUKAN,STRATEGIS,RUMAH KHUSUS,POLRI,"POLRES NUNUKAN, Rumdin Polsek Krayan Selatan, Long Budung Long Kayu Kec. Krayan Selatan ",9,1758394,,,2016
3087,KALIMANTAN UTARA,5,KOTA TARAKAN,SNVT,RUMAH KHUSUS,TNI,"Lanal Tarakan, Jl. Pamusian, Kampung Baru",40,,,,2016
3088,KALIMANTAN UTARA,5,KOTA TARAKAN,SNVT,RUMAH SWADAYA,PENINGKATAN KUALITAS,"Kec. Tarakan Barat, Ds. Karang Balik",38,525000,,,2016
3089,KALIMANTAN UTARA,5,KOTA TARAKAN,SNVT,RUMAH SWADAYA,PENINGKATAN KUALITAS,"Kec. Tarakan Barat, Ds. Karang Harapan",34,495000,,,2016
3090,KALIMANTAN UTARA,5,KOTA TARAKAN,SNVT,RUMAH SWADAYA,PENINGKATAN KUALITAS,"Kec. Tarakan Tengah, Ds. Pamusian",34,505000,,,2016
3091,KALIMANTAN UTARA,5,KOTA TARAKAN,SNVT,RUMAH SWADAYA,PENINGKATAN KUALITAS,"Kec. Tarakan Timur, Ds. Mamburungan",59,692500,,,2016
3092,KALIMANTAN UTARA,5,KOTA TARAKAN,SNVT,RUMAH SWADAYA,PENINGKATAN KUALITAS,"Kec. Tarakan Timur, Ds. Mamburungan Timur",47,645000,,,2016
3093,KALIMANTAN UTARA,5,KOTA TARAKAN,SNVT,RUMAH SWADAYA,PENINGKATAN KUALITAS,"Kec. Tarakan Utara, Ds. Juata Laut",58,810000,,,2016
3094,KALIMANTAN UTARA,5,KOTA TARAKAN,SNVT,RUMAH SWADAYA,PENINGKATAN KUALITAS,"Kec. Tarakan Utara, Ds. Juata Permai",36,525000,,,2016
3095,SULAWESI UTARA,11,KABUPATEN BOLAANG MONGONDOW SELATAN,STRATEGIS,RUMAH SWADAYA,PENINGKATAN KUALITAS,"Kec. Bolangitang Timur, Desa. Binjeita I",33,470000,,,2015
3096,SULAWESI UTARA,11,KABUPATEN BOLAANG MONGONDOW SELATAN,STRATEGIS,RUMAH SWADAYA,PENINGKATAN KUALITAS,"Kec. Bolangitang Timur, Desa. Binjeita Ii",30,415000,,,2015
3097,SULAWESI UTARA,11,KABUPATEN BOLAANG MONGONDOW SELATAN,STRATEGIS,RUMAH SWADAYA,PENINGKATAN KUALITAS,"Kec. Bolangitang Timur, Desa. Biontong",62,865000,,,2015
3098,SULAWESI UTARA,11,KABUPATEN BOLAANG MONGONDOW SELATAN,STRATEGIS,RUMAH SWADAYA,PENINGKATAN KUALITAS,"Kec. Bolangitang Timur, Desa. Biontong Ii",45,595000,,,2015
3099,SULAWESI UTARA,11,KABUPATEN BOLAANG MONGONDOW SELATAN,STRATEGIS,RUMAH SWADAYA,PENINGKATAN KUALITAS,"Kec. Bolangitang Timur, Desa. Bohabak Ii",64,872500,,,2015
