no,PROVINSI,NO KAB/KOT,KABUPATEN/ KOTA,PERUNTUKAN,PROGRAM,KEGIATAN,LOKASI,UNIT,ANGGARAN (000), STATUS KEPENGHUNIAN , KOORDINAT GEOGRAFIS ,TAHUN
5400,JAWA TENGAH,22,KABUPATEN SEMARANG,SNVT,RUMAH SUSUN,PONPES,"Ponpes Al Madani, Gunung Pati, Kab. Semarang T. Barak / 3 Lt",30,9150000,,,2017
5401,JAWA TENGAH,22,KABUPATEN SEMARANG,STRATEGIS,RUMAH SUSUN,PONPES,"Ungaran, Kab. Semarang T. Barak / 3 Lt", - ,0,,,2017
5402,JAWA TENGAH,7,KABUPATEN WONOSOBO,SNVT,RUMAH SUSUN,MAHASISWA,"Universitas Sains Al'Quran, Jl. Raya Kalibeber, Km. 3, Kab. Wonosobo T. 24 / 3 Lt",37,9701000,,,2017
5403,JAWA TENGAH,19,KABUPATEN MAGELANG,STRATEGIS,RUMAH SUSUN,PONPES,"Ponpes Syubbanul Wathon, Jl. Hasyim As'ari No. 56, Pagutan T. Barak / 3 Lt",30,9150000,,,2017
5404,JAWA TENGAH,31,KOTA SURAKARTA,SNVT,RUMAH SUSUN,MBR,"HP 20, Kel. Mojosongo, Kota Surakarta T. 36 / 5 Lt",70,21750000,,,2017
5405,JAWA TENGAH,31,KOTA SURAKARTA,STRATEGIS,RUMAH SUSUN,MAHASISWA,"Jl. Agung Timur Mipitan, Kel. Mojosongo, Kota Surakarta T. 24 / 3 Lt",37,0,,,2017
5406,JAWA TENGAH,33,KOTA SEMARANG,STRATEGIS,RUMAH SUSUN,POLRI,Jl. Purwosari Raya RT 05 RW 02 Kel. Rejosari Kec. Semarang Timur T. 36 / 3 Lt, - ,0,,,2017
5407,JAWA TENGAH,33,KOTA SEMARANG,STRATEGIS,RUMAH SUSUN,MAHASISWA,"PGRI Semarang, Jl. Sidodadi Timur No. 24 Kota Semarang T. 24 / 3 Lt", - ,0,,,2017
5408,JAWA TENGAH,35,KOTA TEGAL,STRATEGIS,RUMAH SUSUN,MBR,"Jl. Belanak, Kel. Tegalsari, Kec. Tegal Barat, Kota Tegal T. 36/5 Lt",70,22500000,,,2017
5409,JAWA TENGAH,20,KABUPATEN JEPARA,SNVT,RUMAH KHUSUS,NELAYAN,Desa Kedungmalang Kec. Kedung,50,7500000,,,2017
5410,KALIMANTAN BARAT,4,KABUPATEN KETAPANG,STRATEGIS,RUMAH UMUM DAN KOMERSIAL,BANTUAN PSU RUMAH UMUM,Perumahan Permata Dalung 2,116,738810,,,2017
5411,KALIMANTAN BARAT,4,KABUPATEN KETAPANG,STRATEGIS,RUMAH UMUM DAN KOMERSIAL,BANTUAN PSU RUMAH UMUM,Perumahan Palm Vista Residence,67,422050,,,2017
5412,KALIMANTAN BARAT,4,KABUPATEN KETAPANG,STRATEGIS,RUMAH UMUM DAN KOMERSIAL,BANTUAN PSU RUMAH UMUM,Perumahan Sepahale,104,455600,,,2017
5413,KALIMANTAN BARAT,14,KOTA PONTIANAK,STRATEGIS,RUMAH UMUM DAN KOMERSIAL,BANTUAN PSU RUMAH UMUM,Perumahan Arwana Indah 1,154,593600,,,2017
5414,KALIMANTAN BARAT,14,KOTA PONTIANAK,STRATEGIS,RUMAH UMUM DAN KOMERSIAL,BANTUAN PSU RUMAH UMUM,Perumahan Yolzida Pesona,78,302300,,,2017
5415,KALIMANTAN BARAT,14,KOTA PONTIANAK,STRATEGIS,RUMAH UMUM DAN KOMERSIAL,BANTUAN PSU RUMAH UMUM,Perumahan Zaujati Residence,52,326480,,,2017
5416,KALIMANTAN BARAT,15,KOTA SINGKAWANG,STRATEGIS,RUMAH UMUM DAN KOMERSIAL,BANTUAN PSU RUMAH UMUM,Perumahan Marhaban Residence,73,492800,,,2017
5417,KALIMANTAN BARAT,12,KABUPATEN KUBU RAYA,STRATEGIS,RUMAH UMUM DAN KOMERSIAL,BANTUAN PSU RUMAH UMUM,Perumahan Berkat Usaha Bersama I,54,372340,,,2017
5418,KALIMANTAN BARAT,12,KABUPATEN KUBU RAYA,STRATEGIS,RUMAH UMUM DAN KOMERSIAL,BANTUAN PSU RUMAH UMUM,Perumahan Marisa 5,64,440190,,,2017
5419,KALIMANTAN BARAT,12,KABUPATEN KUBU RAYA,STRATEGIS,RUMAH UMUM DAN KOMERSIAL,BANTUAN PSU RUMAH UMUM,Perumahan Mega Griya,100,689620,,,2017
5420,KALIMANTAN BARAT,12,KABUPATEN KUBU RAYA,STRATEGIS,RUMAH UMUM DAN KOMERSIAL,BANTUAN PSU RUMAH UMUM,Perumahan Citra Arini 1,100,626190,,,2017
5421,KALIMANTAN BARAT,12,KABUPATEN KUBU RAYA,STRATEGIS,RUMAH UMUM DAN KOMERSIAL,BANTUAN PSU RUMAH UMUM,Perumahan Star Borneo Residence 10,200,1382070,,,2017
5422,KALIMANTAN BARAT,12,KABUPATEN KUBU RAYA,STRATEGIS,RUMAH UMUM DAN KOMERSIAL,BANTUAN PSU RUMAH UMUM,Perumahan Residence Borneo,67,335500,,,2017
5423,KALIMANTAN BARAT,12,KABUPATEN KUBU RAYA,STRATEGIS,RUMAH UMUM DAN KOMERSIAL,BANTUAN PSU RUMAH UMUM,Perumahan Kav 1,106,531000,,,2017
5424,KALIMANTAN BARAT,12,KABUPATEN KUBU RAYA,STRATEGIS,RUMAH UMUM DAN KOMERSIAL,BANTUAN PSU RUMAH UMUM,Perumahan Tirta Asri Residence,51,256300,,,2017
5425,KALIMANTAN BARAT,12,KABUPATEN KUBU RAYA,STRATEGIS,RUMAH UMUM DAN KOMERSIAL,BANTUAN PSU RUMAH UMUM,Perumahan Star Borneo Residence 8,164,817700,,,2017
5426,KALIMANTAN BARAT,12,KABUPATEN KUBU RAYA,STRATEGIS,RUMAH UMUM DAN KOMERSIAL,BANTUAN PSU RUMAH UMUM,Perumahan Zamrud Swadaya Residence 2,172,859000,,,2017
5427,KALIMANTAN SELATAN,3,KABUPATEN BANJAR,STRATEGIS,RUMAH UMUM DAN KOMERSIAL,BANTUAN PSU RUMAH UMUM,Perumahan MJ Perdana 2,100,679250,,,2017
5428,KALIMANTAN SELATAN,3,KABUPATEN BANJAR,STRATEGIS,RUMAH UMUM DAN KOMERSIAL,BANTUAN PSU RUMAH UMUM,Perumahan Lambung Mangkurat Regency,85,578800,,,2017
5429,KALIMANTAN SELATAN,3,KABUPATEN BANJAR,STRATEGIS,RUMAH UMUM DAN KOMERSIAL,BANTUAN PSU RUMAH UMUM,Perumahan Bumi Permata Belayung,132,730600,,,2017
5430,KALIMANTAN SELATAN,3,KABUPATEN BANJAR,STRATEGIS,RUMAH UMUM DAN KOMERSIAL,BANTUAN PSU RUMAH UMUM, Perumahan Batara Sinar Dinar,100,677750,,,2017
5431,KALIMANTAN SELATAN,3,KABUPATEN BANJAR,STRATEGIS,RUMAH UMUM DAN KOMERSIAL,BANTUAN PSU RUMAH UMUM,Perumahan Bumi Wahyu Utama VI,144,979210,,,2017
5432,KALIMANTAN SELATAN,3,KABUPATEN BANJAR,STRATEGIS,RUMAH UMUM DAN KOMERSIAL,BANTUAN PSU RUMAH UMUM,Perumahan Anugrah Jaya Bastari,100,680600,,,2017
5433,KALIMANTAN SELATAN,3,KABUPATEN BANJAR,STRATEGIS,RUMAH UMUM DAN KOMERSIAL,BANTUAN PSU RUMAH UMUM,Perumahan Bumi Wahyu Utama III,200,1356910,,,2017
5434,KALIMANTAN SELATAN,4,KABUPATEN BARITO KUALA,STRATEGIS,RUMAH UMUM DAN KOMERSIAL,BANTUAN PSU RUMAH UMUM,Perumahan Mitra Semangat Bhakti,100,709970,,,2017
5435,KALIMANTAN SELATAN,4,KABUPATEN BARITO KUALA,STRATEGIS,RUMAH UMUM DAN KOMERSIAL,BANTUAN PSU RUMAH UMUM,Perumahan Alam Peutik Permai,63,446870,,,2017
5436,KALIMANTAN SELATAN,4,KABUPATEN BARITO KUALA,STRATEGIS,RUMAH UMUM DAN KOMERSIAL,BANTUAN PSU RUMAH UMUM,Perumahan Graha Bhakti Mulia,100,678680,,,2017
5437,KALIMANTAN SELATAN,4,KABUPATEN BARITO KUALA,STRATEGIS,RUMAH UMUM DAN KOMERSIAL,BANTUAN PSU RUMAH UMUM,Perumahan Persada Permai Baru III,100,679580,,,2017
5438,KALIMANTAN SELATAN,4,KABUPATEN BARITO KUALA,STRATEGIS,RUMAH UMUM DAN KOMERSIAL,BANTUAN PSU RUMAH UMUM,Perumahan Pinang Raya,75,508740,,,2017
5439,KALIMANTAN SELATAN,10,KABUPATEN TANAH BUMBU,STRATEGIS,RUMAH UMUM DAN KOMERSIAL,BANTUAN PSU RUMAH UMUM,Perumahan Ar-Raudah 5,100,532250,,,2017
5440,KALIMANTAN SELATAN,10,KABUPATEN TANAH BUMBU,STRATEGIS,RUMAH UMUM DAN KOMERSIAL,BANTUAN PSU RUMAH UMUM,Perumahan Khoirunnisa Permai,72,427560,,,2017
5441,KALIMANTAN SELATAN,10,KABUPATEN TANAH BUMBU,STRATEGIS,RUMAH UMUM DAN KOMERSIAL,BANTUAN PSU RUMAH UMUM,Perumahan Griya Flamboyan,100,655050,,,2017
5442,JAWA TENGAH,4,KABUPATEN BANJARNEGARA,SNVT,RUMAH SWADAYA,PENINGKATAN KUALITAS,Kec. Banjarmangu Ds. Kesenet,54,810000,,,2017
5443,JAWA TENGAH,4,KABUPATEN BANJARNEGARA,SNVT,RUMAH SWADAYA,PENINGKATAN KUALITAS,Kec. Banjarmangu Ds. Paseh,100,1500000,,,2017
5444,JAWA TENGAH,4,KABUPATEN BANJARNEGARA,SNVT,RUMAH SWADAYA,PENINGKATAN KUALITAS,Kec. Banjarmangu Ds. Sipedang,60,900000,,,2017
5445,JAWA TENGAH,2,KABUPATEN BANYUMAS,SNVT,RUMAH SWADAYA,PENINGKATAN KUALITAS,Kec. Cilongok Ds. Batu Anten,50,750000,,,2017
5446,JAWA TENGAH,2,KABUPATEN BANYUMAS,SNVT,RUMAH SWADAYA,PENINGKATAN KUALITAS,Kec. Cilongok Ds. Cikidang,52,780000,,,2017
5447,JAWA TENGAH,2,KABUPATEN BANYUMAS,SNVT,RUMAH SWADAYA,PENINGKATAN KUALITAS,Kec. Cilongok Ds. Cilongok,50,750000,,,2017
5448,JAWA TENGAH,2,KABUPATEN BANYUMAS,SNVT,RUMAH SWADAYA,PENINGKATAN KUALITAS,Kec. Banyumas Ds. Pasinggangan,50,750000,,,2017
5449,JAWA TENGAH,2,KABUPATEN BANYUMAS,SNVT,RUMAH SWADAYA,PENINGKATAN KUALITAS,Kec. Karanglewas Ds. Babakan,50,750000,,,2017
5450,JAWA TENGAH,2,KABUPATEN BANYUMAS,SNVT,RUMAH SWADAYA,PENINGKATAN KUALITAS,Kec. Karanglewas Ds. Tamansari,50,750000,,,2017
5451,JAWA TENGAH,9,KABUPATEN BOYOLALI,SNVT,RUMAH SWADAYA,PENINGKATAN KUALITAS,Kec. Ampel Ds. Candi,84,1260000,,,2017
5452,JAWA TENGAH,9,KABUPATEN BOYOLALI,SNVT,RUMAH SWADAYA,PENINGKATAN KUALITAS,Kec. Ampel Ds. Kaligentong,35,525000,,,2017
5453,JAWA TENGAH,9,KABUPATEN BOYOLALI,SNVT,RUMAH SWADAYA,PENINGKATAN KUALITAS,Kec. Ampel Ds. Kembang,36,540000,,,2017
5454,JAWA TENGAH,9,KABUPATEN BOYOLALI,SNVT,RUMAH SWADAYA,PENINGKATAN KUALITAS,Kec. Ampel Ds. Ngampon,99,1485000,,,2017
5455,JAWA TENGAH,29,KABUPATEN BREBES,SNVT,RUMAH SWADAYA,PENINGKATAN KUALITAS,Kec. Banjarharjo Ds. Banjar Lor,33,495000,,,2017
5456,JAWA TENGAH,29,KABUPATEN BREBES,SNVT,RUMAH SWADAYA,PENINGKATAN KUALITAS,Kec. Banjarharjo Ds. Blandongan,94,1410000,,,2017
5457,JAWA TENGAH,29,KABUPATEN BREBES,SNVT,RUMAH SWADAYA,PENINGKATAN KUALITAS,Kec. Tonjong Ds. Galuh Timur,83,1245000,,,2017
5458,JAWA TENGAH,29,KABUPATEN BREBES,SNVT,RUMAH SWADAYA,PENINGKATAN KUALITAS,Kec. Tonjong Ds. Kalijurang,82,1230000,,,2017
5459,JAWA TENGAH,1,KABUPATEN CILACAP,SNVT,RUMAH SWADAYA,PENINGKATAN KUALITAS,Kec. Karangpucung Ds. Cidadap,50,750000,,,2017
5460,JAWA TENGAH,1,KABUPATEN CILACAP,SNVT,RUMAH SWADAYA,PENINGKATAN KUALITAS,Kec. Karangpucung Ds. Sindang Barang,75,1125000,,,2017
5461,JAWA TENGAH,1,KABUPATEN CILACAP,SNVT,RUMAH SWADAYA,PENINGKATAN KUALITAS,Kec. Karangpucung Ds. Surusunda,55,825000,,,2017
5462,JAWA TENGAH,1,KABUPATEN CILACAP,SNVT,RUMAH SWADAYA,PENINGKATAN KUALITAS,Kec. Karangpucung Ds. Tayemtimur,60,900000,,,2017
5463,JAWA TENGAH,1,KABUPATEN CILACAP,SNVT,RUMAH SWADAYA,PENINGKATAN KUALITAS,Kec. Karangpucung Ds. Gedung Telu,75,1125000,,,2017
5464,JAWA TENGAH,1,KABUPATEN CILACAP,SNVT,RUMAH SWADAYA,PENINGKATAN KUALITAS,Kec. Cilacap Selatan Ds. Tambakreja,34,510000,,,2017
5465,JAWA TENGAH,1,KABUPATEN CILACAP,SNVT,RUMAH SWADAYA,PENINGKATAN KUALITAS,Kec. Cilacap Selatan Ds. Tegalkamulyan,33,495000,,,2017
5466,JAWA TENGAH,20,KABUPATEN JEPARA,SNVT,RUMAH SWADAYA,PENINGKATAN KUALITAS,Kec. Bangsri Ds. Bondo,55,825000,,,2017
5467,JAWA TENGAH,20,KABUPATEN JEPARA,SNVT,RUMAH SWADAYA,PENINGKATAN KUALITAS,Kec. Bangsri Ds. Kedungleper,53,795000,,,2017
5468,JAWA TENGAH,20,KABUPATEN JEPARA,SNVT,RUMAH SWADAYA,PENINGKATAN KUALITAS,Kec. Bangsri Ds. Wedelan,50,750000,,,2017
5469,JAWA TENGAH,20,KABUPATEN JEPARA,SNVT,RUMAH SWADAYA,PENINGKATAN KUALITAS,Kec. Pakis Ds. Lebak,72,1080000,,,2017
5470,JAWA TENGAH,20,KABUPATEN JEPARA,SNVT,RUMAH SWADAYA,PENINGKATAN KUALITAS,Kec. Pakis Ds. Kawak,30,450000,,,2017
5471,JAWA TENGAH,5,KABUPATEN KEBUMEN,SNVT,RUMAH SWADAYA,PENINGKATAN KUALITAS,Kec. Alian Ds. Kemangguhan,77,1155000,,,2017
5472,JAWA TENGAH,5,KABUPATEN KEBUMEN,SNVT,RUMAH SWADAYA,PENINGKATAN KUALITAS,Kec. Alian Ds. Krakal,76,1140000,,,2017
5473,JAWA TENGAH,5,KABUPATEN KEBUMEN,SNVT,RUMAH SWADAYA,PENINGKATAN KUALITAS,Kec. Alian Ds. Seliling,47,705000,,,2017
5474,JAWA TENGAH,5,KABUPATEN KEBUMEN,SNVT,RUMAH SWADAYA,PENINGKATAN KUALITAS,Kec. Gombong Ds. Kalitengah,50,750000,,,2017
5475,JAWA TENGAH,5,KABUPATEN KEBUMEN,STRATEGIS,RUMAH SWADAYA,PENINGKATAN KUALITAS,Kec. Pentanahan Ds. Jatimulyo,30,450000,,,2017
5476,JAWA TENGAH,5,KABUPATEN KEBUMEN,STRATEGIS,RUMAH SWADAYA,PENINGKATAN KUALITAS,Kec. Pentanahan Ds. Kewagunan,25,375000,,,2017
5477,JAWA TENGAH,5,KABUPATEN KEBUMEN,STRATEGIS,RUMAH SWADAYA,PENINGKATAN KUALITAS,Kec. Ayah Ds. Mangunweni,20,300000,,,2017
5478,JAWA TENGAH,5,KABUPATEN KEBUMEN,STRATEGIS,RUMAH SWADAYA,PENINGKATAN KUALITAS,Kec. Ayah Ds. Jatijajar,20,300000,,,2017
5479,JAWA TENGAH,18,KABUPATEN PATI,SNVT,RUMAH SWADAYA,PENINGKATAN KUALITAS,Kec. Batangan Ds. Jembangan,36,540000,,,2017
5480,JAWA TENGAH,18,KABUPATEN PATI,SNVT,RUMAH SWADAYA,PENINGKATAN KUALITAS,Kec. Batangan Ds. Klayusiwalan,34,510000,,,2017
5481,JAWA TENGAH,18,KABUPATEN PATI,SNVT,RUMAH SWADAYA,PENINGKATAN KUALITAS,Kec. Batangan Ds. Lengkong,34,510000,,,2017
5482,JAWA TENGAH,18,KABUPATEN PATI,SNVT,RUMAH SWADAYA,PENINGKATAN KUALITAS,Kec. Batangan Ds. Tompomulyo,29,435000,,,2017
5483,JAWA TENGAH,18,KABUPATEN PATI,SNVT,RUMAH SWADAYA,PENINGKATAN KUALITAS,Kec. Cluwak Ds. Karangsari,70,1050000,,,2017
5484,JAWA TENGAH,6,KABUPATEN PURWOREJO,SNVT,RUMAH SWADAYA,PENINGKATAN KUALITAS,Kec. Bener Ds. Guntur,75,1125000,,,2017
5485,JAWA TENGAH,6,KABUPATEN PURWOREJO,SNVT,RUMAH SWADAYA,PENINGKATAN KUALITAS,Kec. Bener Ds. Nglaris,40,600000,,,2017
5486,JAWA TENGAH,6,KABUPATEN PURWOREJO,SNVT,RUMAH SWADAYA,PENINGKATAN KUALITAS,Kec. Bruno Ds. Pakisarum,75,1125000,,,2017
5487,JAWA TENGAH,6,KABUPATEN PURWOREJO,SNVT,RUMAH SWADAYA,PENINGKATAN KUALITAS,Kec. Purwodadi Ds. Ketangi,60,900000,,,2017
5488,JAWA TENGAH,6,KABUPATEN PURWOREJO,SNVT,RUMAH SWADAYA,PENINGKATAN KUALITAS,Kec. Purwodadi Ds. Purwosari,20,300000,,,2017
5489,JAWA TENGAH,22,KABUPATEN SEMARANG,SNVT,RUMAH SWADAYA,PENINGKATAN KUALITAS,Kec. Bringin Ds. Sendang,120,1800000,,,2017
5490,JAWA TENGAH,22,KABUPATEN SEMARANG,SNVT,RUMAH SWADAYA,PENINGKATAN KUALITAS,Kec. Bringin Ds. Rembes,101,1515000,,,2017
5491,JAWA TENGAH,22,KABUPATEN SEMARANG,SNVT,RUMAH SWADAYA,PENINGKATAN KUALITAS,Kec. Bringin Ds. Kalikurmo,60,900000,,,2017
5492,JAWA TENGAH,22,KABUPATEN SEMARANG,SNVT,RUMAH SWADAYA,PENINGKATAN KUALITAS,Kec. Bringin Ds. Banding,71,1065000,,,2017
5493,JAWA TENGAH,22,KABUPATEN SEMARANG,SNVT,RUMAH SWADAYA,PENINGKATAN KUALITAS,Kec. Bringin Ds. Tempuran,56,840000,,,2017
5494,JAWA TENGAH,22,KABUPATEN SEMARANG,SNVT,RUMAH SWADAYA,PENINGKATAN KUALITAS,Kec. Bringin Ds. Kalijambe,60,900000,,,2017
5495,JAWA TENGAH,22,KABUPATEN SEMARANG,STRATEGIS,RUMAH SWADAYA,PENINGKATAN KUALITAS,Kec. Bringin Ds. Rembes,30,450000,,,2017
5496,JAWA TENGAH,22,KABUPATEN SEMARANG,STRATEGIS,RUMAH SWADAYA,PENINGKATAN KUALITAS,Kec. Bringin Ds. Sendang,24,360000,,,2017
5497,JAWA TENGAH,22,KABUPATEN SEMARANG,STRATEGIS,RUMAH SWADAYA,PENINGKATAN KUALITAS,Kec. Bringin Ds. Tempuran,25,375000,,,2017
5498,JAWA TENGAH,22,KABUPATEN SEMARANG,STRATEGIS,RUMAH SWADAYA,PENINGKATAN KUALITAS,Kec. Bringin Ds. Kalijambe,25,375000,,,2017
5499,JAWA TENGAH,22,KABUPATEN SEMARANG,STRATEGIS,RUMAH SWADAYA,PENINGKATAN KUALITAS,Kec. Bringin Ds. Kalikurmo,25,375000,,,2017
