no,PROVINSI,NO KAB/KOT,KABUPATEN/ KOTA,PERUNTUKAN,PROGRAM,KEGIATAN,LOKASI,UNIT,ANGGARAN (000), STATUS KEPENGHUNIAN , KOORDINAT GEOGRAFIS ,TAHUN
4600,SUMATERA UTARA,1,KABUPATEN TAPANULI TENGAH,SNVT,RUMAH KHUSUS,NELAYAN,Desa Muara Nauli,50,8250000,,,2017
4601,SUMATERA UTARA,7,KABUPATEN DELI SERDANG,STRATEGIS,RUMAH KHUSUS,,,50,8250000,,,2017
4602,BENGKULU,10,KOTA BENGKULU,STRATEGIS,RUMAH UMUM DAN KOMERSIAL,BANTUAN PSU RUMAH UMUM,Perumahan Royal Residence 2,119,462688,,,2017
4603,BENGKULU,10,KOTA BENGKULU,STRATEGIS,RUMAH UMUM DAN KOMERSIAL,BANTUAN PSU RUMAH UMUM,Perumahan Pondok Kharisma Permai,71,276435,,,2017
4604,SUMATERA UTARA,9,KABUPATEN ASAHAN,SNVT,RUMAH SWADAYA,PENINGKATAN KUALITAS,Kec. Tanjung Balai Ds. Bagan Asahan,30,450000,,,2017
4605,SUMATERA UTARA,9,KABUPATEN ASAHAN,SNVT,RUMAH SWADAYA,PENINGKATAN KUALITAS,Kec. Tanjung Balai Ds. Bagan Asahan Pekan,34,510000,,,2017
4606,SUMATERA UTARA,9,KABUPATEN ASAHAN,SNVT,RUMAH SWADAYA,PENINGKATAN KUALITAS,Kec. Bandar Pasir Mandoge Ds. Huta Bagasan,41,615000,,,2017
4607,SUMATERA UTARA,9,KABUPATEN ASAHAN,SNVT,RUMAH SWADAYA,PENINGKATAN KUALITAS,Kec. Bandar Pasir Mandoge Ds. Tomuan Holbung,21,315000,,,2017
4608,SUMATERA UTARA,9,KABUPATEN ASAHAN,SNVT,RUMAH SWADAYA,PENINGKATAN KUALITAS,Kec. Air Joman Ds. Air Joman ,32,480000,,,2017
4609,SUMATERA UTARA,9,KABUPATEN ASAHAN,SNVT,RUMAH SWADAYA,PENINGKATAN KUALITAS,Kec. Air Joman Ds. Air Joman Baru,20,300000,,,2017
4610,SUMATERA UTARA,9,KABUPATEN ASAHAN,SNVT,RUMAH SWADAYA,PENINGKATAN KUALITAS,Kec. Air Joman Ds. Binjai Serbangan,27,405000,,,2017
4611,SUMATERA UTARA,9,KABUPATEN ASAHAN,SNVT,RUMAH SWADAYA,PENINGKATAN KUALITAS,Kec. Bandar Pulau Ds. Bandar Pulau Pekan,20,300000,,,2017
4612,SUMATERA UTARA,9,KABUPATEN ASAHAN,SNVT,RUMAH SWADAYA,PENINGKATAN KUALITAS,Kec. Bandar Pulau Ds. Bandar Pulau ,22,330000,,,2017
4613,SUMATERA UTARA,11,KABUPATEN DAIRI,SNVT,RUMAH SWADAYA,PENINGKATAN KUALITAS,Kec. Parbuluan Ds. Parbuluan I,47,705000,,,2017
4614,SUMATERA UTARA,11,KABUPATEN DAIRI,SNVT,RUMAH SWADAYA,PENINGKATAN KUALITAS,Kec. Parbuluan Ds. Parbuluan II,77,1155000,,,2017
4615,SUMATERA UTARA,11,KABUPATEN DAIRI,SNVT,RUMAH SWADAYA,PENINGKATAN KUALITAS,Kec. Parbuluan Ds. Parbuluan III,50,750000,,,2017
4616,SUMATERA UTARA,11,KABUPATEN DAIRI,SNVT,RUMAH SWADAYA,PENINGKATAN KUALITAS,Kec. Parbuluan Ds. Parbuluan IV,55,825000,,,2017
4617,SUMATERA UTARA,11,KABUPATEN DAIRI,SNVT,RUMAH SWADAYA,PENINGKATAN KUALITAS,Kec. Parbuluan Ds. Parbuluan VI,94,1410000,,,2017
4618,SUMATERA UTARA,16,KABUPATEN HUMBANG HASUNDUTAN,SNVT,RUMAH SWADAYA,PENINGKATAN KUALITAS,Kec. Dolok Sanggul Ds. Huta Gurgur,56,840000,,,2017
4619,SUMATERA UTARA,16,KABUPATEN HUMBANG HASUNDUTAN,SNVT,RUMAH SWADAYA,PENINGKATAN KUALITAS,Kec. Dolok Sanggul Ds. Hutaraja,51,765000,,,2017
4620,SUMATERA UTARA,16,KABUPATEN HUMBANG HASUNDUTAN,SNVT,RUMAH SWADAYA,PENINGKATAN KUALITAS,Kec. Dolok Sanggul Ds. Simarigung,46,690000,,,2017
4621,SUMATERA UTARA,16,KABUPATEN HUMBANG HASUNDUTAN,SNVT,RUMAH SWADAYA,PENINGKATAN KUALITAS,Kec. Dolok Sanggul Ds. Saitnihuta,39,585000,,,2017
4622,SUMATERA UTARA,16,KABUPATEN HUMBANG HASUNDUTAN,SNVT,RUMAH SWADAYA,PENINGKATAN KUALITAS,Kec. Lintong Nihuta Ds. Siponjot,29,435000,,,2017
4623,SUMATERA UTARA,16,KABUPATEN HUMBANG HASUNDUTAN,SNVT,RUMAH SWADAYA,PENINGKATAN KUALITAS,Kec. Lintong Nihuta Ds. Hutasoit II,37,555000,,,2017
4624,SUMATERA UTARA,16,KABUPATEN HUMBANG HASUNDUTAN,SNVT,RUMAH SWADAYA,PENINGKATAN KUALITAS,Kec. Lintong Nihuta Ds. Dolok Margu,23,345000,,,2017
4625,SUMATERA UTARA,16,KABUPATEN HUMBANG HASUNDUTAN,SNVT,RUMAH SWADAYA,PENINGKATAN KUALITAS,Kec. Lintong Nihuta Ds. Hutasoit I,24,360000,,,2017
4626,SUMATERA UTARA,16,KABUPATEN HUMBANG HASUNDUTAN,SNVT,RUMAH SWADAYA,PENINGKATAN KUALITAS,Kec. Lintong Nihuta Ds. Sitio II,28,420000,,,2017
4627,SUMATERA UTARA,26,KOTA MEDAN,SNVT,RUMAH SWADAYA,PENINGKATAN KUALITAS,Kec. Medan Belawan Ds. Belawan Bahari,40,600000,,,2017
4628,SUMATERA UTARA,26,KOTA MEDAN,SNVT,RUMAH SWADAYA,PENINGKATAN KUALITAS,Kec. Medan Belawan Ds. Belawan Pulau Sicanan,20,300000,,,2017
4629,SUMATERA UTARA,26,KOTA MEDAN,SNVT,RUMAH SWADAYA,PENINGKATAN KUALITAS,Kec. Medan Labuhan Ds. Pekan Labuhan,23,345000,,,2017
4630,SUMATERA UTARA,26,KOTA MEDAN,SNVT,RUMAH SWADAYA,PENINGKATAN KUALITAS,Kec. Medan Labuhan Ds. Nelayan Indah,20,300000,,,2017
4631,SUMATERA UTARA,26,KOTA MEDAN,SNVT,RUMAH SWADAYA,PENINGKATAN KUALITAS,Kec. Medan Marelan Ds. Labuhan Deli,68,1020000,,,2017
4632,SUMATERA UTARA,26,KOTA MEDAN,SNVT,RUMAH SWADAYA,PENINGKATAN KUALITAS,Kec. Medan Marelan Ds. Terjun,40,600000,,,2017
4633,SUMATERA UTARA,26,KOTA MEDAN,SNVT,RUMAH SWADAYA,PENINGKATAN KUALITAS,Kec. Medan Marelan Ds. Polonia,23,345000,,,2017
4634,SUMATERA UTARA,26,KOTA MEDAN,SNVT,RUMAH SWADAYA,PENINGKATAN KUALITAS,Kec. Medan Polonia Ds. Mabar Hilir,20,300000,,,2017
4635,SUMATERA UTARA,26,KOTA MEDAN,SNVT,RUMAH SWADAYA,PENINGKATAN KUALITAS,Kec. Medan Polonia Medan Polonia,23,345000,,,2017
4636,SUMATERA UTARA,30,KOTA BINJAI,SNVT,RUMAH SWADAYA,PENINGKATAN KUALITAS,Kec. Binjai Barat Ds. Paya Roba,29,435000,,,2017
4637,SUMATERA UTARA,30,KOTA BINJAI,SNVT,RUMAH SWADAYA,PENINGKATAN KUALITAS,Kec. Binjai Barat Ds. Suka Maju,20,300000,,,2017
4638,SUMATERA UTARA,30,KOTA BINJAI,SNVT,RUMAH SWADAYA,PENINGKATAN KUALITAS,Kec. Binjai Kota Ds. Berngam,22,330000,,,2017
4639,SUMATERA UTARA,30,KOTA BINJAI,SNVT,RUMAH SWADAYA,PENINGKATAN KUALITAS,Kec. Binjai Kota Ds. Satia,20,300000,,,2017
4640,SUMATERA UTARA,30,KOTA BINJAI,SNVT,RUMAH SWADAYA,PENINGKATAN KUALITAS,Kec. Binjai Selatan Ds. Puji Dadi,34,510000,,,2017
4641,SUMATERA UTARA,30,KOTA BINJAI,SNVT,RUMAH SWADAYA,PENINGKATAN KUALITAS,Kec. Binjai Selatan Ds. Tanah Merah,39,585000,,,2017
4642,SUMATERA UTARA,30,KOTA BINJAI,SNVT,RUMAH SWADAYA,PENINGKATAN KUALITAS,Kec. Binjai Selatan Ds. Mencirim,31,465000,,,2017
4643,SUMATERA UTARA,19,KABUPATEN BATU BARA,SNVT,RUMAH SWADAYA,PENINGKATAN KUALITAS,Kec. Tanjung Tiram Ds. Bagan Baru,53,795000,,,2017
4644,SUMATERA UTARA,19,KABUPATEN BATU BARA,SNVT,RUMAH SWADAYA,PENINGKATAN KUALITAS,Kec. Tanjung Tiram Ds. Bagan Dalam,56,840000,,,2017
4645,SUMATERA UTARA,19,KABUPATEN BATU BARA,SNVT,RUMAH SWADAYA,PENINGKATAN KUALITAS,Kec. Tanjung Tiram Ds. Bandar Sono,36,540000,,,2017
4646,SUMATERA UTARA,19,KABUPATEN BATU BARA,SNVT,RUMAH SWADAYA,PENINGKATAN KUALITAS,Kec. Tanjung Tiram Ds. Pematang Rambai,69,1035000,,,2017
4647,SUMATERA UTARA,19,KABUPATEN BATU BARA,SNVT,RUMAH SWADAYA,PENINGKATAN KUALITAS,Kec. Tanjung Tiram Ds. Sentang,33,495000,,,2017
4648,SUMATERA UTARA,13,KABUPATEN MANDAILING NATAL,SNVT,RUMAH SWADAYA,PENINGKATAN KUALITAS,Kec. Batang Natal Ds. Aek Nangali,33,495000,,,2017
4649,SUMATERA UTARA,13,KABUPATEN MANDAILING NATAL,SNVT,RUMAH SWADAYA,PENINGKATAN KUALITAS,Kec. Batang Natal Ds. Ampung Julu,50,750000,,,2017
4650,SUMATERA UTARA,13,KABUPATEN MANDAILING NATAL,SNVT,RUMAH SWADAYA,PENINGKATAN KUALITAS,Kec. Batang Natal Ds. Ampung Padang,46,690000,,,2017
4651,SUMATERA UTARA,13,KABUPATEN MANDAILING NATAL,SNVT,RUMAH SWADAYA,PENINGKATAN KUALITAS,Kec. Batang Natal Ds. Ampung Siala,26,390000,,,2017
4652,SUMATERA UTARA,13,KABUPATEN MANDAILING NATAL,SNVT,RUMAH SWADAYA,PENINGKATAN KUALITAS,Kec. Batang Natal Ds. Bangkelang ,15,225000,,,2017
4653,SUMATERA UTARA,13,KABUPATEN MANDAILING NATAL,SNVT,RUMAH SWADAYA,PENINGKATAN KUALITAS,Kec. Batang Natal Ds. Banjar Melayu,50,750000,,,2017
4654,SUMATERA UTARA,8,KABUPATEN SIMALUNGUN,SNVT,RUMAH SWADAYA,PENINGKATAN KUALITAS,Kec. Bandar Ds. Perdagangan II,29,435000,,,2017
4655,SUMATERA UTARA,8,KABUPATEN SIMALUNGUN,SNVT,RUMAH SWADAYA,PENINGKATAN KUALITAS,Kec. Bandar Ds. Sugaran Bayu,26,390000,,,2017
4656,SUMATERA UTARA,8,KABUPATEN SIMALUNGUN,SNVT,RUMAH SWADAYA,PENINGKATAN KUALITAS,Kec. Raya Ds. Bonguron Kariahan,31,465000,,,2017
4657,SUMATERA UTARA,8,KABUPATEN SIMALUNGUN,SNVT,RUMAH SWADAYA,PENINGKATAN KUALITAS,Kec. Raya Ds. Dalig Raya,21,315000,,,2017
4658,SUMATERA UTARA,8,KABUPATEN SIMALUNGUN,SNVT,RUMAH SWADAYA,PENINGKATAN KUALITAS,Kec. Raya Ds. Merek Raya,33,495000,,,2017
4659,SUMATERA UTARA,8,KABUPATEN SIMALUNGUN,SNVT,RUMAH SWADAYA,PENINGKATAN KUALITAS,Kec. Raya Ds. Pematang Raya,24,360000,,,2017
4660,SUMATERA UTARA,8,KABUPATEN SIMALUNGUN,STRATEGIS,RUMAH SWADAYA,PENINGKATAN KUALITAS,Kec. Girsang Sipangan Bolon Ds. Parapat,30,450000,,,2017
4661,SUMATERA UTARA,8,KABUPATEN SIMALUNGUN,STRATEGIS,RUMAH SWADAYA,PENINGKATAN KUALITAS,Kec. Pematang Sidamanik Ds. Pematang Tambon Raya,17,255000,,,2017
4662,SUMATERA UTARA,8,KABUPATEN SIMALUNGUN,STRATEGIS,RUMAH SWADAYA,PENINGKATAN KUALITAS,Kec. Pematang Sidamanik Ds. Sait Buttu Saribu,30,450000,,,2017
4663,SUMATERA UTARA,8,KABUPATEN SIMALUNGUN,STRATEGIS,RUMAH SWADAYA,PENINGKATAN KUALITAS,Kec. Pematang Sidamanik Ds. Pematang Sidamanik,10,150000,,,2017
4664,SUMATERA UTARA,8,KABUPATEN SIMALUNGUN,STRATEGIS,RUMAH SWADAYA,PENINGKATAN KUALITAS,Kec. Haranggaol Horison Ds. Haranggaol,30,450000,,,2017
4665,SUMATERA UTARA,8,KABUPATEN SIMALUNGUN,STRATEGIS,RUMAH SWADAYA,PENINGKATAN KUALITAS,Kec. Dolok Pardamean Ds. Togo Domu Nauli,30,450000,,,2017
4666, SUMATERA UTARA ,32, KOTA PADANGSIDIMPUAN , STRATEGIS , RUMAH KHUSUS , WKDS (Wajib Kerja Dokter Spesialis) , RSUD Padang Sidempuan ,1,0,,,2017
4667,SUMATERA UTARA,32,KOTA PADANGSIDIMPUAN,SNVT,RUMAH SWADAYA,PENINGKATAN KUALITAS,Kec. Padang Sidempuan Angkola Julu Ds. Batu Layan,30,450000,,,2017
4668,SUMATERA UTARA,32,KOTA PADANGSIDIMPUAN,SNVT,RUMAH SWADAYA,PENINGKATAN KUALITAS,Kec. Padang Sidempuan Angkola Julu Ds. Joring Lombang,39,585000,,,2017
4669,SUMATERA UTARA,32,KOTA PADANGSIDIMPUAN,SNVT,RUMAH SWADAYA,PENINGKATAN KUALITAS,Kec. Padang Sidempuan Angkola Julu Ds. Mompang,50,750000,,,2017
4670,SUMATERA UTARA,32,KOTA PADANGSIDIMPUAN,SNVT,RUMAH SWADAYA,PENINGKATAN KUALITAS,Kec. Padang Sidempuan Batunadua Ds. Aek Tuhul,26,390000,,,2017
4671,SUMATERA UTARA,32,KOTA PADANGSIDIMPUAN,SNVT,RUMAH SWADAYA,PENINGKATAN KUALITAS,Kec. Padang Sidempuan Batunadua Ds. Batunadua Jae,50,750000,,,2017
4672,SUMATERA UTARA,32,KOTA PADANGSIDIMPUAN,SNVT,RUMAH SWADAYA,PENINGKATAN KUALITAS,Kec. Padang Sidempuan Batunadua Ds. Batunadua Julu,50,750000,,,2017
4673,SUMATERA UTARA,24,KABUPATEN LABUHAN BATU,SNVT,RUMAH SWADAYA,PENINGKATAN KUALITAS,Kec. Bilah Barat Ds. Bandar Kumbul,50,750000,,,2017
4674,SUMATERA UTARA,24,KABUPATEN LABUHAN BATU,SNVT,RUMAH SWADAYA,PENINGKATAN KUALITAS,Kec. Bilah Barat Ds. Janji,50,750000,,,2017
4675,SUMATERA UTARA,24,KABUPATEN LABUHAN BATU,SNVT,RUMAH SWADAYA,PENINGKATAN KUALITAS,Kec. Bilah Barat Ds. Kampung Baru,46,690000,,,2017
4676,SUMATERA UTARA,24,KABUPATEN LABUHAN BATU,SNVT,RUMAH SWADAYA,PENINGKATAN KUALITAS,Kec. Bilah Barat Ds. Sibargot,30,450000,,,2017
4677,SUMATERA UTARA,24,KABUPATEN LABUHAN BATU,SNVT,RUMAH SWADAYA,PENINGKATAN KUALITAS,Kec. Bilah Barat Ds. Tebing Linggahara Baru,40,600000,,,2017
4678,SUMATERA UTARA,1,KABUPATEN TAPANULI TENGAH,STRATEGIS,RUMAH SWADAYA,PENINGKATAN KUALITAS,Kec. Lumut Ds. Lumut Nauli,15,225000,,,2017
4679,SUMATERA UTARA,1,KABUPATEN TAPANULI TENGAH,STRATEGIS,RUMAH SWADAYA,PENINGKATAN KUALITAS,Kec. Lumut Ds. Sialogo,12,180000,,,2017
4680,SUMATERA UTARA,1,KABUPATEN TAPANULI TENGAH,STRATEGIS,RUMAH SWADAYA,PENINGKATAN KUALITAS,Kec. Lumut Ds. Lumut ,10,150000,,,2017
4681,SUMATERA UTARA,1,KABUPATEN TAPANULI TENGAH,STRATEGIS,RUMAH SWADAYA,PENINGKATAN KUALITAS,Kec. Pinang Sori Ds. Pinang Baru,17,255000,,,2017
4682,SUMATERA UTARA,1,KABUPATEN TAPANULI TENGAH,STRATEGIS,RUMAH SWADAYA,PENINGKATAN KUALITAS,Kec. Pinang Sori Ds. Gunung Marijo,11,165000,,,2017
4683,SUMATERA UTARA,1,KABUPATEN TAPANULI TENGAH,STRATEGIS,RUMAH SWADAYA,PENINGKATAN KUALITAS,Kec. Pinang Sori Ds. Sitonang Bangu,10,150000,,,2017
4684,SUMATERA UTARA,12,KABUPATEN TOBA SAMOSIR,STRATEGIS,RUMAH SWADAYA,PENINGKATAN KUALITAS,Kec. Ajibata Ds. Motung,20,300000,,,2017
4685,SUMATERA UTARA,12,KABUPATEN TOBA SAMOSIR,STRATEGIS,RUMAH SWADAYA,PENINGKATAN KUALITAS,Kec. Ajibata Ds. Sigapiton,20,300000,,,2017
4686,SUMATERA UTARA,12,KABUPATEN TOBA SAMOSIR,STRATEGIS,RUMAH SWADAYA,PENINGKATAN KUALITAS,Kec. Ajibata Ds. Pardamean Ajibata,20,300000,,,2017
4687,SUMATERA UTARA,12,KABUPATEN TOBA SAMOSIR,STRATEGIS,RUMAH SWADAYA,PENINGKATAN KUALITAS,Kec. Balige Ds. Hutagaol Peatalum,42,630000,,,2017
4688,SUMATERA UTARA,12,KABUPATEN TOBA SAMOSIR,STRATEGIS,RUMAH SWADAYA,PENINGKATAN KUALITAS,Kec. Balige Ds. Matio,14,210000,,,2017
4689,SUMATERA UTARA,12,KABUPATEN TOBA SAMOSIR,STRATEGIS,RUMAH SWADAYA,PENINGKATAN KUALITAS,Kec. Balige Ds. Silalahi Pagar Batu,16,240000,,,2017
4690,SUMATERA UTARA,12,KABUPATEN TOBA SAMOSIR,STRATEGIS,RUMAH SWADAYA,PENINGKATAN KUALITAS,Kec. Pintu Pohan Meranti Ds. Meranti Utara,20,300000,,,2017
4691,SUMATERA UTARA,12,KABUPATEN TOBA SAMOSIR,STRATEGIS,RUMAH SWADAYA,PENINGKATAN KUALITAS,Kec. Pintu Pohan Meranti Ds. Meranti Timur,59,885000,,,2017
4692,SUMATERA UTARA,2,KABUPATEN TAPANULI UTARA,STRATEGIS,RUMAH SWADAYA,PENINGKATAN KUALITAS,Kec. Muara Ds. Bariba Niaek,30,450000,,,2017
4693,SUMATERA UTARA,2,KABUPATEN TAPANULI UTARA,STRATEGIS,RUMAH SWADAYA,PENINGKATAN KUALITAS,Kec. Muara Ds. Batu Binumbun,19,285000,,,2017
4694,SUMATERA UTARA,2,KABUPATEN TAPANULI UTARA,STRATEGIS,RUMAH SWADAYA,PENINGKATAN KUALITAS,Kec. Muara Ds. Huta Ginjang,36,540000,,,2017
4695,SUMATERA UTARA,2,KABUPATEN TAPANULI UTARA,STRATEGIS,RUMAH SWADAYA,PENINGKATAN KUALITAS,Kec. Muara Ds. Hutana Godang,27,405000,,,2017
4696,SUMATERA UTARA,2,KABUPATEN TAPANULI UTARA,STRATEGIS,RUMAH SWADAYA,PENINGKATAN KUALITAS,Kec. Adian Koting Ds. Banuaji II,30,450000,,,2017
4697,SUMATERA UTARA,2,KABUPATEN TAPANULI UTARA,STRATEGIS,RUMAH SWADAYA,PENINGKATAN KUALITAS,Kec. Adian Koting Ds. Pagaran Lambung II,19,285000,,,2017
4698,SUMATERA UTARA,2,KABUPATEN TAPANULI UTARA,STRATEGIS,RUMAH SWADAYA,PENINGKATAN KUALITAS,Kec. Adian Koting Ds. Pansur Batu,36,540000,,,2017
4699,SUMATERA UTARA,17,KABUPATEN SAMOSIR,STRATEGIS,RUMAH SWADAYA,PENINGKATAN KUALITAS,Kec. Simanindo Ds. Cinta Dame,19,285000,,,2017
