no,PROVINSI,NO KAB/KOT,KABUPATEN/ KOTA,PERUNTUKAN,PROGRAM,KEGIATAN,LOKASI,UNIT,ANGGARAN (000), STATUS KEPENGHUNIAN , KOORDINAT GEOGRAFIS ,TAHUN
800,BENGKULU,8,KABUPATEN KEPAHIANG,SNVT,RUMAH SWADAYA,PENINGKATAN KUALITAS,"Kec. Seberang Musi, Ds. Air Besi",68,990000,,,2016
801,BENGKULU,10,KOTA BENGKULU,STRATEGIS,RUMAH KHUSUS,NELAYAN,"Desa Sumberjaya, Kec. Kampung Melayu",52,7183542,,,2016
802,BENGKULU,5,KABUPATEN SELUMA,SNVT,RUMAH SWADAYA,PENINGKATAN KUALITAS,"Kec. Suka Raja, Ds. Sukaraja",104,1387500,,,2016
803,BENGKULU,5,KABUPATEN SELUMA,SNVT,RUMAH SWADAYA,PENINGKATAN KUALITAS,"Kec. Suka Raja, Ds. Cahaya Negeri",90,1222500,,,2016
804,BENGKULU,5,KABUPATEN SELUMA,SNVT,RUMAH SWADAYA,PENINGKATAN KUALITAS,"Kec. Periukan, Ds. Talang Sebaris",51,745000,,,2016
805,BENGKULU,5,KABUPATEN SELUMA,SNVT,RUMAH SWADAYA,PENINGKATAN KUALITAS,"Kec. Semidang Alas Maras, Ds. Gunung Bantan",30,397500,,,2016
806,BENGKULU,5,KABUPATEN SELUMA,SNVT,RUMAH SWADAYA,PENINGKATAN KUALITAS,"Kec. Ilir Talo, Ds. Pasar Talo",38,510000,,,2016
807,BENGKULU,5,KABUPATEN SELUMA,SNVT,RUMAH SWADAYA,PENINGKATAN KUALITAS,"Kec. Tanah Abang, Ds. Gunung Bantan",39,580000,,,2016
808,BENGKULU,10,KOTA BENGKULU,STRATEGIS,RUMAH SUSUN,PERGURUAN TINGGI,"Universitas Muhammadiyah Bengkulu (Pengganti UGM), Jalan Adam Malik Km 9, Kelurahan Gading Cempaka, Kec. Cempaka Permai (T.24, L.4)",90,17992221,,,2016
809,BENGKULU,10,KOTA BENGKULU,SNVT,RUMAH SWADAYA,PENINGKATAN KUALITAS,"Kec. Selebar, Ds. Betungan",65,832500,,,2016
810,BENGKULU,10,KOTA BENGKULU,SNVT,RUMAH SWADAYA,PENINGKATAN KUALITAS,"Kec. Muara Bangkahulu, Ds. Kandang Limun",50,605000,,,2016
811,BENGKULU,10,KOTA BENGKULU,SNVT,RUMAH SWADAYA,PENINGKATAN KUALITAS,"Kec. Muara Bangkahulu, Ds. Bentiring Permai",45,565000,,,2016
812,BENGKULU,10,KOTA BENGKULU,SNVT,RUMAH SWADAYA,PENINGKATAN KUALITAS,"Kec. Kampung Melayu, Ds. Kandang",34,457500,,,2016
813,BENGKULU,10,KOTA BENGKULU,SNVT,RUMAH SWADAYA,PENINGKATAN KUALITAS,"Kec. Kampung Melayu, Ds. Sumberjaya",73,957500,,,2016
814,BENGKULU,5,KABUPATEN SELUMA,STRATEGIS,RUMAH KHUSUS,POLRI,"POLRES SELUMA, Asrama Polres Seluma, Kel.Sembayat ",18,3362190,,,2016
815,BENGKULU,10,KOTA BENGKULU,,RUMAH UMUM DAN KOMERSIAL,BANTUAN PSU RUMAH UMUM,Betungan Rafflesia Asri,202,1404424,,,2016
816,BENGKULU,10,KOTA BENGKULU,,RUMAH UMUM DAN KOMERSIAL,BANTUAN PSU RUMAH UMUM,Ejukha Residence Permai,90,625707,,,2016
817,BENGKULU,10,KOTA BENGKULU,,RUMAH UMUM DAN KOMERSIAL,BANTUAN PSU RUMAH UMUM,Bumi Persada Indah,79,430121,,,2016
818,LAMPUNG,1,KABUPATEN LAMPUNG SELATAN,STRATEGIS,RUMAH UMUM DAN KOMERSIAL,BANTUAN PSU RUMAH UMUM,Graha Natar Lestari,217,970083,,,2015
819,LAMPUNG,1,KABUPATEN LAMPUNG SELATAN,STRATEGIS,RUMAH UMUM DAN KOMERSIAL,BANTUAN PSU RUMAH UMUM,Permata Asri,172,802923,,,2015
820,LAMPUNG,1,KABUPATEN LAMPUNG SELATAN,STRATEGIS,RUMAH UMUM DAN KOMERSIAL,BANTUAN PSU RUMAH UMUM,Serambi Sumatera Residence,200,933631,,,2015
821,LAMPUNG,2,KABUPATEN LAMPUNG TENGAH,STRATEGIS,RUMAH SUSUN,PONDOK PESANTREN," PP. Wali Songo Lampung Tengah, Desa Sukajadi Kec. Bumiratu Nuban (L.3)",30,7037529,,,2015
822,LAMPUNG,7,KABUPATEN LAMPUNG TIMUR,STRATEGIS,RUMAH SWADAYA,PENINGKATAN KUALITAS,"Kec. Braja Sebelah, Ds. Braja Gemilang",1,10000,,,2015
823,LAMPUNG,7,KABUPATEN LAMPUNG TIMUR,STRATEGIS,RUMAH SWADAYA,PENINGKATAN KUALITAS,"Kec. Braja Sebelah, Ds. Braja Indah",2,20000,,,2015
824,LAMPUNG,7,KABUPATEN LAMPUNG TIMUR,STRATEGIS,RUMAH SWADAYA,PENINGKATAN KUALITAS,"Kec. Raman Utara, Ds. Rantau Fajar",39,585000,,,2015
825,LAMPUNG,7,KABUPATEN LAMPUNG TIMUR,STRATEGIS,RUMAH SWADAYA,PENINGKATAN KUALITAS,"Kec. Raman Utara, Ds.Raman Endra",30,450000,,,2015
826,LAMPUNG,7,KABUPATEN LAMPUNG TIMUR,STRATEGIS,RUMAH SWADAYA,PEMBANGUNAN BARU,"Kec. Waway Karya, Ds. Brawijaya",87,1610000,,,2015
827,LAMPUNG,7,KABUPATEN LAMPUNG TIMUR,STRATEGIS,RUMAH SWADAYA,PEMBANGUNAN BARU,"Kec. Waway Karya, Ds. Karang Anom",75,1175000,,,2015
828,LAMPUNG,7,KABUPATEN LAMPUNG TIMUR,STRATEGIS,RUMAH SWADAYA,PEMBANGUNAN BARU,"Kec. Bandar Sribhawono, Ds. Sribhawono",150,2250000,,,2015
829,LAMPUNG,7,KABUPATEN LAMPUNG TIMUR,STRATEGIS,RUMAH SWADAYA,PEMBANGUNAN BARU,"Kec. Sekampung Udik, Ds. Sumbergede",231,3465000,,,2015
830,LAMPUNG,11,KABUPATEN MESUJI,STRATEGIS,RUMAH SUSUN,POLRI,"POLRES MESUJI, Jl. Lintas Timur Sumatera KM 180, Simpang Pematang (T.36, L.3)",48,12557998,,,2015
831,PAPUA,28,KABUPATEN DEIYAI,STRATEGIS,RUMAH KHUSUS,DAERAH TERTINGGAL,"Distrik Tigi, Tigi Barat, Paket I",40,7953379,,,2015
832,LAMPUNG,11,KABUPATEN MESUJI,STRATEGIS,RUMAH SWADAYA,PEMBANGUNAN BARU,"Kec. Mesuji, Ds. Tirtalaga",70,1050000,,,2015
833,LAMPUNG,11,KABUPATEN MESUJI,STRATEGIS,RUMAH SWADAYA,PEMBANGUNAN BARU,"Kec. Mesuji, Ds. Tanjung Serayan",68,1020000,,,2015
834,LAMPUNG,11,KABUPATEN MESUJI,STRATEGIS,RUMAH SWADAYA,PEMBANGUNAN BARU,"Kec. Mesuji, Ds. Mulyo Sari",70,1050000,,,2015
835,LAMPUNG,11,KABUPATEN MESUJI,STRATEGIS,RUMAH SWADAYA,PEMBANGUNAN BARU,"Kec. Mesuji, Ds. Sumber Makmur",70,1050000,,,2015
836,LAMPUNG,11,KABUPATEN MESUJI,STRATEGIS,RUMAH SWADAYA,PEMBANGUNAN BARU,"Kec. Mesuji, Ds. Sungai Badak",96,1452500,,,2015
837,LAMPUNG,11,KABUPATEN MESUJI,STRATEGIS,RUMAH SWADAYA,PEMBANGUNAN BARU,"Kec. Mesuji, Ds. Wiralaga I",38,680000,,,2015
838,LAMPUNG,11,KABUPATEN MESUJI,STRATEGIS,RUMAH SWADAYA,PEMBANGUNAN BARU,"Kec. Mesuji, Ds. Wiralaga II",35,525000,,,2015
839,LAMPUNG,11,KABUPATEN MESUJI,STRATEGIS,RUMAH SWADAYA,PEMBANGUNAN BARU,"Kec. Mesuji, Ds. Nipah Kuning",48,720000,,,2015
840,LAMPUNG,11,KABUPATEN MESUJI,STRATEGIS,RUMAH SWADAYA,PEMBANGUNAN BARU,"Kec. Mesuji Timur, Ds. Margo Jadi",110,1650000,,,2015
841,LAMPUNG,9,KABUPATEN PESAWARAN,STRATEGIS,RUMAH SWADAYA,PENINGKATAN KUALITAS,"Kec. Tegineneng, Ds. Batanghari Ogan",26,300000,,,2015
842,LAMPUNG,9,KABUPATEN PESAWARAN,STRATEGIS,RUMAH SWADAYA,PENINGKATAN KUALITAS,"Kec. Tegineneng, Ds.Germing",240,2685000,,,2015
843,LAMPUNG,9,KABUPATEN PESAWARAN,STRATEGIS,RUMAH SWADAYA,PENINGKATAN KUALITAS,"Kec. Tegineneng, Ds.Kejadian",63,905000,,,2015
844,LAMPUNG,9,KABUPATEN PESAWARAN,STRATEGIS,RUMAH SWADAYA,PENINGKATAN KUALITAS,"Kec. Tegineneng, Ds. Kresno Widodo",40,580000,,,2015
845,LAMPUNG,9,KABUPATEN PESAWARAN,STRATEGIS,RUMAH SWADAYA,PENINGKATAN KUALITAS,"Kec. Tegineneng, Ds. Margo Mulyo",99,1325000,,,2015
846,LAMPUNG,9,KABUPATEN PESAWARAN,STRATEGIS,RUMAH SWADAYA,PENINGKATAN KUALITAS,"Kec. Tegineneng, Ds. Margo Rejo",86,1100000,,,2015
847,LAMPUNG,9,KABUPATEN PESAWARAN,STRATEGIS,RUMAH SWADAYA,PENINGKATAN KUALITAS,"Kec. Gedongtatan, Ds. Bagelen",26,360000,,,2015
848,LAMPUNG,9,KABUPATEN PESAWARAN,STRATEGIS,RUMAH SWADAYA,PENINGKATAN KUALITAS,"Kec. Gedongtatan, Ds. Kutoarjo",29,385000,,,2015
849,LAMPUNG,9,KABUPATEN PESAWARAN,STRATEGIS,RUMAH SWADAYA,PENINGKATAN KUALITAS,"Kec. Gedongtatan, Ds. karang Anyar",32,455000,,,2015
850,LAMPUNG,9,KABUPATEN PESAWARAN,STRATEGIS,RUMAH SWADAYA,PENINGKATAN KUALITAS,"Kec. Gedongtatan, Ds. Sukadadi",24,335000,,,2015
851,LAMPUNG,9,KABUPATEN PESAWARAN,STRATEGIS,RUMAH UMUM DAN KOMERSIAL,BANTUAN PSU RUMAH UMUM,Asri Jaya Indah Permai,85,396794,,,2015
852,LAMPUNG,8,KABUPATEN WAY KANAN,STRATEGIS,RUMAH SWADAYA,PENINGKATAN KUALITAS,"Kec. Baradatu, Ds. Banjar Setia",50,575000,,,2015
853,LAMPUNG,8,KABUPATEN WAY KANAN,STRATEGIS,RUMAH SWADAYA,PENINGKATAN KUALITAS,"Kec. Baradatu, Ds. Bumi Rejo",79,790000,,,2015
854,LAMPUNG,8,KABUPATEN WAY KANAN,STRATEGIS,RUMAH SWADAYA,PENINGKATAN KUALITAS,"Kec. Baradatu, Ds. Bumi Merapi",82,820000,,,2015
855,LAMPUNG,8,KABUPATEN WAY KANAN,STRATEGIS,RUMAH SWADAYA,PENINGKATAN KUALITAS,"Kec. Baradatu, Ds. Suko Sari",102,1020000,,,2015
856,LAMPUNG,8,KABUPATEN WAY KANAN,STRATEGIS,RUMAH SWADAYA,PENINGKATAN KUALITAS,"Kec. Baradatu, Ds. Gedung Pakuon",39,395000,,,2015
857,LAMPUNG,8,KABUPATEN WAY KANAN,STRATEGIS,RUMAH SWADAYA,PENINGKATAN KUALITAS,"Kec. Baradatu, Ds. Gunung Katun",150,1500000,,,2015
858,LAMPUNG,14,KOTA BANDAR LAMPUNG,STRATEGIS,RUMAH SUSUN,POLRI,"SATBRIMOBDA BANDAR LAMPUNG, Jalan KS. Tubun No.38, Desa Rawa Laut, Kecamatan Tanjung Karang Timur (T.36, L.3)",48,13003550,,,2015
859,LAMPUNG,14,KOTA BANDAR LAMPUNG,STRATEGIS,RUMAH SWADAYA,PENINGKATAN KUALITAS,"Kec. Sukarame, Ds. Harapan Jaya",38,485000,,,2015
860,LAMPUNG,14,KOTA BANDAR LAMPUNG,STRATEGIS,RUMAH SWADAYA,PENINGKATAN KUALITAS,"Kec. Sukarame, Ds. Sukarame",15,195000,,,2015
861,LAMPUNG,14,KOTA BANDAR LAMPUNG,STRATEGIS,RUMAH SWADAYA,PENINGKATAN KUALITAS,"Kec. Sukarame, Ds. Way Dadi",18,215000,,,2015
862,LAMPUNG,14,KOTA BANDAR LAMPUNG,STRATEGIS,RUMAH SWADAYA,PENINGKATAN KUALITAS,"Kec. Teluk Betung Timur, Ds. Way Halim Permai",43,550000,,,2015
863,LAMPUNG,14,KOTA BANDAR LAMPUNG,STRATEGIS,RUMAH SWADAYA,PENINGKATAN KUALITAS,"Kec. Teluk Betung Barat, Ds. Sukarame 2",181,2250000,,,2015
864,LAMPUNG,14,KOTA BANDAR LAMPUNG,STRATEGIS,RUMAH SWADAYA,PENINGKATAN KUALITAS,"Kec. Way Halim, Ds. Gunung Sulah",17,235000,,,2015
865,LAMPUNG,14,KOTA BANDAR LAMPUNG,STRATEGIS,RUMAH SWADAYA,PENINGKATAN KUALITAS,"Kec. Way Halim, Ds. Way Halim Permai",41,565000,,,2015
866,LAMPUNG,14,KOTA BANDAR LAMPUNG,STRATEGIS,RUMAH SWADAYA,PEMBANGUNAN BARU,"Kec. Sukarame, Ds. Way Dadi",1,20000,,,2015
867,LAMPUNG,14,KOTA BANDAR LAMPUNG,STRATEGIS,RUMAH SWADAYA,PEMBANGUNAN BARU,"Kec. Teluk Betung Barat, Ds.Sukarame 2",1,20000,,,2015
868,LAMPUNG,14,KOTA BANDAR LAMPUNG,STRATEGIS,RUMAH SWADAYA,PEMBANGUNAN BARU,"Kec. Way Halim, Ds. Way Halim Permai",9,180000,,,2015
869,LAMPUNG,1,KABUPATEN LAMPUNG SELATAN,STRATEGIS,RUMAH SUSUN,PERGURUAN TINGGI,"Institut Teknologi Sumatera (ITERA), Jl. Terusan Ryacudu, Desa Way Hui, Kec. Jati Agung (TB. 2, T.24, L.5)",228,40162953,,,2016
870,LAMPUNG,2,KABUPATEN LAMPUNG TENGAH,SNVT,RUMAH SUSUN,PONDOK PESANTREN,"YPI. Al-Hikamus Salafiyah Lampung Tengah, Kampung Mujirahayu, Kec. Seputih Agung (12 LOS, L.3)",30,8639345,,,2016
871,LAMPUNG,2,KABUPATEN LAMPUNG TENGAH,SNVT,RUMAH SWADAYA,PENINGKATAN KUALITAS,"Kec. Anak Tuha, Ds. Bumi Aji",60,900000,,,2016
872,LAMPUNG,2,KABUPATEN LAMPUNG TENGAH,SNVT,RUMAH SWADAYA,PENINGKATAN KUALITAS,"Kec. Anak Tuha, Ds. Negara Bumi Ilir",40,560000,,,2016
873,LAMPUNG,2,KABUPATEN LAMPUNG TENGAH,SNVT,RUMAH SWADAYA,PENINGKATAN KUALITAS,"Kec. Gunung Sugih, Ds. Fajar Bulan",40,525000,,,2016
874,LAMPUNG,2,KABUPATEN LAMPUNG TENGAH,SNVT,RUMAH SWADAYA,PENINGKATAN KUALITAS,"Kec. Gunung Sugih, Ds. Komering Putih",60,807500,,,2016
875,LAMPUNG,2,KABUPATEN LAMPUNG TENGAH,SNVT,RUMAH SWADAYA,PENINGKATAN KUALITAS,"Kec. Padang Ratu, Ds. Haduyang Ratu",30,450000,,,2016
876,LAMPUNG,2,KABUPATEN LAMPUNG TENGAH,SNVT,RUMAH SWADAYA,PENINGKATAN KUALITAS,"Kec. Padang Ratu, Ds. Padang Ratu",30,450000,,,2016
877,LAMPUNG,2,KABUPATEN LAMPUNG TENGAH,SNVT,RUMAH SWADAYA,PENINGKATAN KUALITAS,"Kec. Trimurjo, Ds. Benawi",44,610000,,,2016
878,LAMPUNG,2,KABUPATEN LAMPUNG TENGAH,SNVT,RUMAH SWADAYA,PENINGKATAN KUALITAS,"Kec. Trimurjo, Ds. Tempuran",45,592500,,,2016
879,LAMPUNG,2,KABUPATEN LAMPUNG TENGAH,,RUMAH UMUM DAN KOMERSIAL,BANTUAN PSU RUMAH UMUM,Nuwo Lamondo,150,819346,,,2016
880,LAMPUNG,7,KABUPATEN LAMPUNG TIMUR,SNVT,RUMAH SUSUN,PONDOK PESANTREN,"PP Madinah, Ds. Karya Tani, Kec. Labuhan Maringgai, Kab. Lampung Timur, Prov. Lampung (12 LOS, L.3)",30,10120095,,,2016
881,LAMPUNG,7,KABUPATEN LAMPUNG TIMUR,STRATEGIS,RUMAH SWADAYA,PENINGKATAN KUALITAS,"Kec. Pekalongan, Ds. Jojog",100,1365000,,,2016
882,LAMPUNG,7,KABUPATEN LAMPUNG TIMUR,STRATEGIS,RUMAH SWADAYA,PENINGKATAN KUALITAS,"Kec. Way Jepara, Ds. Labuhan Ratu II",53,795000,,,2016
883,LAMPUNG,7,KABUPATEN LAMPUNG TIMUR,STRATEGIS,RUMAH SWADAYA,PENINGKATAN KUALITAS,"Kec. Bandar Sribhawono, Ds. Sadar Sriwijaya",52,780000,,,2016
884,LAMPUNG,7,KABUPATEN LAMPUNG TIMUR,,RUMAH SWADAYA,PEMBANGUNAN BARU,"Kec. Way Jepara, Ds. Labuhan Ratu Dua",2,60000,,,2016
885,LAMPUNG,9,KABUPATEN PESAWARAN,,RUMAH UMUM DAN KOMERSIAL,BANTUAN PSU RUMAH UMUM,Asri Jaya Indah Permai,150,632284,,,2016
886,LAMPUNG,9,KABUPATEN PESAWARAN,,RUMAH UMUM DAN KOMERSIAL,BANTUAN PSU RUMAH UMUM,Griya Abadi,189,909644,,,2016
887,LAMPUNG,10,KABUPATEN PRINGSEWU,STRATEGIS,RUMAH SUSUN,PERGURUAN TINGGI,"Pemkab Pringsewu, Kompleks Perkantoran Pemda Kab. Pringsewu Ds. Klaten, Kec. Pringsewu (TB. 1, T.24, L.5)",114,20054859,,,2016
888,LAMPUNG,10,KABUPATEN PRINGSEWU,SNVT,RUMAH SWADAYA,PENINGKATAN KUALITAS,"Kec. Ambarawa, Ds. Ambarawa",65,867500,,,2016
889,LAMPUNG,10,KABUPATEN PRINGSEWU,SNVT,RUMAH SWADAYA,PENINGKATAN KUALITAS,"Kec. Ambarawa, Ds. Kresno Mulyo",73,890000,,,2016
890,LAMPUNG,10,KABUPATEN PRINGSEWU,SNVT,RUMAH SWADAYA,PENINGKATAN KUALITAS,"Kec. Ambarawa, Ds. Sumber Agung ",50,695000,,,2016
891,LAMPUNG,10,KABUPATEN PRINGSEWU,SNVT,RUMAH SWADAYA,PENINGKATAN KUALITAS,"Kec. Pringsewu, Ds. Fajaresuk",37,550000,,,2016
892,LAMPUNG,10,KABUPATEN PRINGSEWU,SNVT,RUMAH SWADAYA,PENINGKATAN KUALITAS,"Kec. Pringsewu, Ds. Podosari",51,730000,,,2016
893,LAMPUNG,10,KABUPATEN PRINGSEWU,SNVT,RUMAH SWADAYA,PENINGKATAN KUALITAS,"Kec. Pringsewu, Ds. Sidoharjo",57,785000,,,2016
894,LAMPUNG,10,KABUPATEN PRINGSEWU,SNVT,RUMAH SWADAYA,PENINGKATAN KUALITAS,"Kec. Pringsewu, Ds. Waluyojati",32,430000,,,2016
895,LAMPUNG,4,KABUPATEN LAMPUNG BARAT,SNVT,RUMAH SWADAYA,PENINGKATAN KUALITAS,"Kec. Pagar Dewa, Ds. Mekar Sari",45,615000,,,2016
896,LAMPUNG,4,KABUPATEN LAMPUNG BARAT,SNVT,RUMAH SWADAYA,PENINGKATAN KUALITAS,"Kec. Pagar Dewa, Ds. Sidodadi",50,750000,,,2016
897,LAMPUNG,4,KABUPATEN LAMPUNG BARAT,SNVT,RUMAH SWADAYA,PENINGKATAN KUALITAS,"Kec. Pagar Dewa, Ds. Marga Jaya",50,735000,,,2016
898,LAMPUNG,4,KABUPATEN LAMPUNG BARAT,SNVT,RUMAH SWADAYA,PENINGKATAN KUALITAS,"Kec. Pagar Dewa, Ds. Suka Jaya ",50,620000,,,2016
899,LAMPUNG,4,KABUPATEN LAMPUNG BARAT,SNVT,RUMAH SWADAYA,PENINGKATAN KUALITAS,"Kec. Pagar Dewa, Ds. Batu Api",60,900000,,,2016
