no,PROVINSI,NO KAB/KOT,KABUPATEN/ KOTA,PERUNTUKAN,PROGRAM,KEGIATAN,LOKASI,UNIT,ANGGARAN (000), STATUS KEPENGHUNIAN , KOORDINAT GEOGRAFIS ,TAHUN
4000,GORONTALO,6,KOTA GORONTALO,STRATEGIS,RUMAH SWADAYA,PEMBANGUNAN BARU,"Kec. Kota Utara, Ds. Wangkaditi Timur",50,1500000,,,2016
4001,SULAWESI BARAT,2,KABUPATEN MAMUJU,STRATEGIS,RUMAH SUSUN,TNI,"TNI AD, Korem 142, Jl. Poros Ranges Desa Boteng Kec. Mamuju (T.45, L.3 2 TB)",70,24921800,,,2015
4002,SULAWESI BARAT,2,KABUPATEN MAMUJU,STRATEGIS,RUMAH SUSUN,TNI,"TNI AD, Kodim 1418, Jl. Ahmad Yani, Kab. Mamuju (T.24, L.5)",35,15276759,,,2015
4003,GORONTALO,4,KABUPATEN POHUWATO,STRATEGIS,RUMAH KHUSUS,POLRI,"Polres Pohuwato, Pembangunan Rumdin Anggota Polsek Patilanggio,  T.36 Desa Iloheluma Kec. Patilanggio",4,548101,,,2015
4004,GORONTALO,4,KABUPATEN POHUWATO,STRATEGIS,RUMAH KHUSUS,POLRI,"Polres Pohuwato, Pembangunan Rumdin Anggota Polsek Randangan, T.36 Motolohu Kec. Randangan",4,548101,,,2015
4005,GORONTALO,4,KABUPATEN POHUWATO,STRATEGIS,RUMAH KHUSUS,POLRI,"Polres Pohuwato, Pembangunan Rumdin Anggota Polsek Taluditi,T.36 Desa Panca Karsa Ii, Kec. Taluditi",4,548101,,,2015
4006,GORONTALO,4,KABUPATEN POHUWATO,STRATEGIS,RUMAH KHUSUS,POLRI,"Polres Pohuwato, Pembangunan Rumdin Anggota Polsek Lemito, T.36 Desa Lemito, Kec. Lemito",4,548101,,,2015
4007,GORONTALO,4,KABUPATEN POHUWATO,STRATEGIS,RUMAH KHUSUS,POLRI,"Polres Pohuwato, Pembangunan Rumdin Anggota Polsek Popayato, T.36 Desa Bukit Tingki, Kec. Popayato",4,548101,,,2015
4008,GORONTALO,4,KABUPATEN POHUWATO,STRATEGIS,RUMAH KHUSUS,POLRI,"Polres Pohuwato, Pembangunan Rumdin Anggota Polsek Popayato Barat,T.36 Desa Molosipat, Kec. Popayato Barat",4,548101,,,2015
4009,BANTEN,1,KABUPATEN PANDEGLANG,STRATEGIS,RUMAH KHUSUS,POLRI, SPN POLDA BANTEN-Jl. Bhayangkara Kp Kurung Kambing,9,1142925,,,2015
4010,SULAWESI BARAT,1,KABUPATEN MAMUJU UTARA,STRATEGIS,RUMAH SWADAYA,PENINGKATAN KUALITAS,"Kec. Bambaira,  Desa. Bambaira",24,285000,,,2015
4011,SULAWESI BARAT,1,KABUPATEN MAMUJU UTARA,STRATEGIS,RUMAH SWADAYA,PENINGKATAN KUALITAS,"Kec. Bambaira,  Desa. Tampaure",50,620000,,,2015
4012,SULAWESI BARAT,1,KABUPATEN MAMUJU UTARA,STRATEGIS,RUMAH SWADAYA,PENINGKATAN KUALITAS,"Kec. Bambaira,  Desa. Kalukunangka",28,280000,,,2015
4013,SULAWESI BARAT,1,KABUPATEN MAMUJU UTARA,STRATEGIS,RUMAH SWADAYA,PENINGKATAN KUALITAS,"Kec. Duripoku,  Desa. Tamarunang",7,70000,,,2015
4014,SULAWESI BARAT,1,KABUPATEN MAMUJU UTARA,STRATEGIS,RUMAH SWADAYA,PENINGKATAN KUALITAS,"Kec. Duripoku,  Desa. Tamarunang",163,1960000,,,2015
4015,SULAWESI BARAT,1,KABUPATEN MAMUJU UTARA,STRATEGIS,RUMAH SWADAYA,PENINGKATAN KUALITAS,"Kec. Duripoku,  Desa. Taranggi",118,1465000,,,2015
4016,SULAWESI BARAT,1,KABUPATEN MAMUJU UTARA,STRATEGIS,RUMAH SWADAYA,PENINGKATAN KUALITAS,"Kec. Sarudu,  Desa. Do Da",79,1185000,,,2015
4017,SULAWESI BARAT,1,KABUPATEN MAMUJU UTARA,STRATEGIS,RUMAH SWADAYA,PENINGKATAN KUALITAS,"Kec. Sarudu,  Desa. Sarudu",276,3785000,,,2015
4018,SULAWESI BARAT,1,KABUPATEN MAMUJU UTARA,STRATEGIS,RUMAH SWADAYA,PENINGKATAN KUALITAS,"Kec. Sarjo,  Desa. Maponu",45,510000,,,2015
4019,SULAWESI BARAT,1,KABUPATEN MAMUJU UTARA,STRATEGIS,RUMAH SWADAYA,PEMBANGUNAN BARU,"Kec. Bambaira,  Desa. Kaluku Nangka",53,795000,,,2015
4020,SULAWESI BARAT,1,KABUPATEN MAMUJU UTARA,STRATEGIS,RUMAH SWADAYA,PEMBANGUNAN BARU,"Kec. Tikke Raya,  Desa. Lariang",69,2070000,,,2015
4021,SULAWESI BARAT,1,KABUPATEN MAMUJU UTARA,STRATEGIS,RUMAH SWADAYA,PEMBANGUNAN BARU,"Kec. Duripoku,  Desa. Tamarunang",45,675000,,,2015
4022,SULAWESI BARAT,5,KABUPATEN MAJENE,STRATEGIS,RUMAH SUSUN,PERGURUAN TINGGI,"Univ. Sulawesi Barat Majene, Jl. Prof. Dr. Baharuddin Lopa, SH, Lutang (T.24, L.4)",50,15836960,,,2015
4023,BANTEN,1,KABUPATEN PANDEGLANG,STRATEGIS,RUMAH KHUSUS,POLRI,Polsek Pandeglang- Jl. Raya Labuan Km.2,5,634958,,,2015
4024,BANTEN,1,KABUPATEN PANDEGLANG,STRATEGIS,RUMAH KHUSUS,POLRI,"Polsek Cigeulis- Jl. Raya Cibaliung, Cigeulis",4,507966,,,2015
4025,BANTEN,1,KABUPATEN PANDEGLANG,STRATEGIS,RUMAH KHUSUS,POLRI,"Polsek Cikeudal-Jl. Raya Bojong Canar - Caning Km. 02, Kec. Cikedal",4,507966,,,2015
4026,SULAWESI BARAT,6,KABUPATEN MAMUJU TENGAH,STRATEGIS,RUMAH SWADAYA,PENINGKATAN KUALITAS,"Kec. Topoyo,  Desa. Tabolang",246,2955000,,,2015
4027,SULAWESI BARAT,4,KABUPATEN POLEWALI MANDAR,STRATEGIS,RUMAH SUSUN,PONDOK PESANTREN,"Pp. Asshalaty JL Masjid Syuhada desa Parappe kec. Campalagiang  (Los.12, L.3)",30,6482003,,,2015
4028,JAWA BARAT,18,KABUPATEN PANGANDARAN,STRATEGIS,RUMAH KHUSUS,NELAYAN,"Kec. Cimerak, Desa Masawah ",50,9196966,,,2015
4029,PAPUA,8,KABUPATEN PANIAI,STRATEGIS,RUMAH KHUSUS,POLRI,"POLRES PANIAI, Pemb. Rumdin Polsek Paniai (Tunggal) Kayu",20,4777500,,,2015
4030,SULAWESI BARAT,4,KABUPATEN POLEWALI MANDAR,STRATEGIS,RUMAH SWADAYA,PENINGKATAN KUALITAS,"Kec. Tinambung,  Desa. Sepa Batu",317,3735000,,,2015
4031,SULAWESI BARAT,2,KABUPATEN MAMUJU,STRATEGIS,RUMAH SUSUN,MBR,"Pemerintah Kab. Mamuju, Jl. Gatot Subroto, Kel. Karema, Kec. Mamuju (TB. 1, T.24, L.5)",114,23249953,,,2016
4032,SULAWESI BARAT,2,KABUPATEN MAMUJU,STRATEGIS,RUMAH SUSUN,POLRI,"Rusun Keluarga Polres Mamuju, JL. Ir.H. Juanda Kel. Mamunyu, Kec.Mamuju (T.36, L.3)",47,11633784,,,2016
4033,SULAWESI BARAT,2,KABUPATEN MAMUJU,STRATEGIS,RUMAH UMUM DAN KOMERSIAL,BANTUAN PSU RUMAH UMUM,Graha Nusa Tiga,122,783404,,,2016
4034,SULAWESI BARAT,6,KABUPATEN MAMUJU TENGAH,SNVT,RUMAH KHUSUS,NELAYAN,"Kec. Topoyo, Ds. Topoyo ",50,6278000,,,2016
4035,SULAWESI BARAT,6,KABUPATEN MAMUJU TENGAH,SNVT,RUMAH KHUSUS,NELAYAN,"Kec. Karossa, Ds. Kambunong",55,7155737,,,2016
4036,SULAWESI BARAT,1,KABUPATEN MAMUJU UTARA,STRATEGIS,RUMAH KHUSUS,NELAYAN,Desa Bambakoro Kec. Lariang,50,7244000,,,2016
4037,SULAWESI BARAT,1,KABUPATEN MAMUJU UTARA,SNVT,RUMAH SWADAYA,PENINGKATAN KUALITAS,"Kec. Bambalamotu, Ds. Bambalamotu",70,1035000,,,2016
4038,SULAWESI BARAT,1,KABUPATEN MAMUJU UTARA,SNVT,RUMAH SWADAYA,PENINGKATAN KUALITAS,"Kec. Bambalamotu, Ds. Randomayang",88,1125000,,,2016
4039,SULAWESI BARAT,1,KABUPATEN MAMUJU UTARA,SNVT,RUMAH SWADAYA,PENINGKATAN KUALITAS,"Kec. Bambalamotu, Ds. Kalola",72,990000,,,2016
4040,SULAWESI BARAT,1,KABUPATEN MAMUJU UTARA,SNVT,RUMAH SWADAYA,PENINGKATAN KUALITAS,"Kec. Duripoku, Ds. Tammarunang",64,960000,,,2016
4041,SULAWESI BARAT,1,KABUPATEN MAMUJU UTARA,SNVT,RUMAH SWADAYA,PENINGKATAN KUALITAS,"Kec. Duripoku, Ds. Sipakainga",98,1470000,,,2016
4042,SULAWESI BARAT,1,KABUPATEN MAMUJU UTARA,SNVT,RUMAH SWADAYA,PENINGKATAN KUALITAS,"Kec. Bulu Taba, Ds. Lilimori",55,810000,,,2016
4043,SULAWESI BARAT,1,KABUPATEN MAMUJU UTARA,SNVT,RUMAH SWADAYA,PENINGKATAN KUALITAS,"Kec. Bulu Taba, Ds. Karave",53,765000,,,2016
4044,SULAWESI BARAT,1,KABUPATEN MAMUJU UTARA,SNVT,RUMAH SWADAYA,PENINGKATAN KUALITAS,"Kec. Bulu Taba, Ds. Bukit Harapan",47,690000,,,2016
4045,SULAWESI BARAT,1,KABUPATEN MAMUJU UTARA,SNVT,RUMAH SWADAYA,PENINGKATAN KUALITAS,"Kec. Bambaira, Ds. Bambaira",68,930000,,,2016
4046,SULAWESI BARAT,1,KABUPATEN MAMUJU UTARA,SNVT,RUMAH SWADAYA,PENINGKATAN KUALITAS,"Kec. Bambaira, Ds. Kasoloang",77,1102500,,,2016
4047,SULAWESI BARAT,1,KABUPATEN MAMUJU UTARA,SNVT,RUMAH SWADAYA,PENINGKATAN KUALITAS,"Kec. Bambaira, Ds. Kaluku Nangka",96,1195000,,,2016
4048,SULAWESI BARAT,1,KABUPATEN MAMUJU UTARA,SNVT,RUMAH SWADAYA,PENINGKATAN KUALITAS,"Kec. Lariang, Ds. Batu Matoru",64,900000,,,2016
4049,SULAWESI BARAT,3,KABUPATEN MAMASA,SNVT,RUMAH SWADAYA,PENINGKATAN KUALITAS,"Kec. Tabulahan, Ds. Gandang Dewata",90,1350000,,,2016
4050,SULAWESI BARAT,3,KABUPATEN MAMASA,SNVT,RUMAH SWADAYA,PENINGKATAN KUALITAS,"Kec. Tabulahan, Ds. Tabulahan",81,1215000,,,2016
4051,SULAWESI BARAT,3,KABUPATEN MAMASA,SNVT,RUMAH SWADAYA,PENINGKATAN KUALITAS,"Kec. Tabulahan, Ds. Tampakura",234,3072500,,,2016
4052,SULAWESI BARAT,3,KABUPATEN MAMASA,SNVT,RUMAH SWADAYA,PENINGKATAN KUALITAS,"Kec. Tabulahan, Ds. Lakahang",132,1847500,,,2016
4053,SULAWESI BARAT,6,KABUPATEN MAMUJU TENGAH,SNVT,RUMAH SWADAYA,PENINGKATAN KUALITAS,"Kec. Topoyo, Ds. Pambusuang",120,1490000,,,2016
4054,SULAWESI BARAT,6,KABUPATEN MAMUJU TENGAH,SNVT,RUMAH SWADAYA,PENINGKATAN KUALITAS,"Kec. Topoyo, Ds. Kabubu",177,2250000,,,2016
4055,SULAWESI BARAT,1,KABUPATEN MAMUJU UTARA,STRATEGIS,RUMAH KHUSUS,NELAYAN,"Desa Pangiang, Kec. Bambalamotu",50,5940000,,,2016
4056,SULAWESI BARAT,1,KABUPATEN POLEWALI MANDAR,STRATEGIS,RUMAH KHUSUS,POLRI,"Rumdin Polres Polman, Kab. Polman
",10,1981211,,,2016
4057,SULAWESI BARAT,4,KABUPATEN POLEWALI MANDAR,STRATEGIS,RUMAH SUSUN,MBR,"Bupati Polewali Mandar, Jl. Sport Center Kel. Manding, Kec. Polewali (TB. 1, T.24, L.5)",114,20846513,,,2016
4058,SULAWESI BARAT,4,KABUPATEN POLEWALI MANDAR,SNVT,RUMAH SWADAYA,PENINGKATAN KUALITAS,"Kec. Balanipa, Ds. Pambusuang",168,2515000,,,2016
4059,SULAWESI BARAT,4,KABUPATEN POLEWALI MANDAR,SNVT,RUMAH SWADAYA,PENINGKATAN KUALITAS,"Kec. Balanipa, Ds. Sabang Subik",99,1480000,,,2016
4060,SULAWESI BARAT,4,KABUPATEN POLEWALI MANDAR,SNVT,RUMAH SWADAYA,PENINGKATAN KUALITAS,"Kec. Balanipa, Ds. Balanipa",71,1060000,,,2016
4061,SULAWESI BARAT,4,KABUPATEN POLEWALI MANDAR,SNVT,RUMAH SWADAYA,PENINGKATAN KUALITAS,"Kec. Tinambung, Ds. Tandung",113,1695000,,,2016
4062,SULAWESI BARAT,4,KABUPATEN POLEWALI MANDAR,STRATEGIS,RUMAH UMUM DAN KOMERSIAL,BANTUAN PSU RUMAH UMUM,Marwah Residence,317,2009135,,,2016
4063,SULAWESI BARAT,4,KABUPATEN POLEWALI MANDAR,STRATEGIS,RUMAH UMUM DAN KOMERSIAL,BANTUAN PSU RUMAH UMUM,Bulan Regency,137,872907,,,2016
4064,SULAWESI BARAT,4,KABUPATEN POLEWALI MANDAR,STRATEGIS,RUMAH UMUM DAN KOMERSIAL,BANTUAN PSU RUMAH UMUM,Perumahan Riskita Permai,122,694000,,,2017
4065,SULAWESI BARAT,4,KABUPATEN POLEWALI MANDAR,STRATEGIS,RUMAH UMUM DAN KOMERSIAL,BANTUAN PSU RUMAH UMUM,Perumahan Villa Tamara 2,123,700000,,,2017
4066,MALUKU,1,KABUPATEN MALUKU TENGAH,STRATEGIS,RUMAH SUSUN,TNI,"TNI AD, Yonif 731/Kabaresi/DAM XVI/PTM, desa Waipo Kec. Masohi (T.45, L.3)",35,16824739,,,2015
4067,MALUKU,1,KABUPATEN MALUKU TENGAH,STRATEGIS,RUMAH SUSUN,TNI,"TNI AD, Kodim 1502/Masohi. Jl. Banda desa Namaelo, Kec Kota Masohi (T.45, L.3)",35,17285162,,,2015
4068,PAPUA,8,KABUPATEN PANIAI,STRATEGIS,RUMAH KHUSUS,POLRI,"POLRES PANIAI, Pemb. Rumdin Polsek Tigi (Tunggal) Kayu",10,2388750,,,2015
4069,MALUKU,1,KABUPATEN MALUKU TENGAH,STRATEGIS,RUMAH SWADAYA,PENINGKATAN KUALITAS,"Kec. Amahai,  Desa. Hatuhenu",101,1515000,,,2015
4070,MALUKU,1,KABUPATEN MALUKU TENGAH,STRATEGIS,RUMAH SWADAYA,PENINGKATAN KUALITAS,"Kec. Amahai,  Desa. Haruru",129,1935000,,,2015
4071,MALUKU,1,KABUPATEN MALUKU TENGAH,STRATEGIS,RUMAH SWADAYA,PENINGKATAN KUALITAS,"Kec. Amahai,  Desa. Soahuku",54,810000,,,2015
4072,MALUKU,1,KABUPATEN MALUKU TENGAH,STRATEGIS,RUMAH SWADAYA,PENINGKATAN KUALITAS,"Kec. Amahai,  Desa. Rutah",61,915000,,,2015
4073,MALUKU,2,KABUPATEN MALUKU TENGGARA,STRATEGIS,RUMAH SUSUN,PONDOK PESANTREN,"PP. Nurul Jadid Tetoad (Pontren Tenujad), Desa Tetoad Kec. Kei Kecil (LOS.12, L.3)",30,11208275,,,2015
4074,PAPUA,8,KABUPATEN PANIAI,STRATEGIS,RUMAH KHUSUS,DAERAH TERTINGGAL,Distrik Ebano Desa Kito,70,14082870,,,2015
4075,MALUKU,2,KABUPATEN MALUKU TENGGARA,STRATEGIS,RUMAH SWADAYA,PENINGKATAN KUALITAS,"Kec. Kei Kecil,  Desa. Loon",2,30000,,,2015
4076,MALUKU,2,KABUPATEN MALUKU TENGGARA,STRATEGIS,RUMAH SWADAYA,PENINGKATAN KUALITAS,"Kec. Kei Kecil,  Desa. Letman",1,10000,,,2015
4077,MALUKU,2,KABUPATEN MALUKU TENGGARA,STRATEGIS,RUMAH SWADAYA,PENINGKATAN KUALITAS,"Kec. Kei Kecil,  Desa. Ohoijang Watdek",1,15000,,,2015
4078,MALUKU,2,KABUPATEN MALUKU TENGGARA,STRATEGIS,RUMAH SWADAYA,PENINGKATAN KUALITAS,"Kec. Kei Kecil,  Desa. Faan",1,10000,,,2015
4079,MALUKU,2,KABUPATEN MALUKU TENGGARA,STRATEGIS,RUMAH SWADAYA,PENINGKATAN KUALITAS,"Kec. Hoat Sorbay,  Desa. Evu",3,35000,,,2015
4080,MALUKU,2,KABUPATEN MALUKU TENGGARA,STRATEGIS,RUMAH SWADAYA,PENINGKATAN KUALITAS,"Kec. Hoat Sorbay,  Desa. Madwat",1,15000,,,2015
4081,MALUKU,2,KABUPATEN MALUKU TENGGARA,STRATEGIS,RUMAH SWADAYA,PENINGKATAN KUALITAS,"Kec. Hoat Sorbay,  Desa. Letvuan",2,25000,,,2015
4082,PAPUA,8,KABUPATEN PANIAI,STRATEGIS,RUMAH KHUSUS,DAERAH TERPENCIL-MRP,Nama Kec Tidak Ada,10,3501333,,,2015
4083,SULAWESI TENGAH,8,KABUPATEN PARIGI MOUTONG,STRATEGIS,RUMAH KHUSUS,NELAYAN,"Rumah Pintar Centra Informasi Nelayan, Desa Pelawa Baru, Kec. Parigi Selatan",1,1015403,,,2015
4084,SULAWESI TENGAH,8,KABUPATEN PARIGI MOUTONG,STRATEGIS,RUMAH KHUSUS,NELAYAN,"Desa Tindaki, Kec. Parigi Selatan",50,5770012,,,2015
4085,SULAWESI TENGAH,8,KABUPATEN PARIGI MOUTONG,STRATEGIS,RUMAH KHUSUS,NELAYAN,"Jalan Trans Sulawesi, Kec. Ampibabo",50,5755108,,,2015
4086,PAPUA BARAT,12,KABUPATEN PEGUNUNGAN ARFAK,STRATEGIS,RUMAH KHUSUS,DAERAH TERTINGGAL,Distrik Anggi,30,4259392,,,2015
4087,JAWA TENGAH,26,KABUPATEN PEKALONGAN,STRATEGIS,RUMAH KHUSUS,POLRI,"POLRES PEKALONGAN Pembangunan Asrama Polres Pekalongan, Jl. Diponegoro 140 Kajen (T.45)",10,1430710,,,2015
4088,MALUKU,4,KABUPATEN BURU,STRATEGIS,RUMAH SWADAYA,PENINGKATAN KUALITAS,"Kec. Batabual,  Desa. Namlea Ilath",44,595000,,,2015
4089,MALUKU,4,KABUPATEN BURU,STRATEGIS,RUMAH SWADAYA,PENINGKATAN KUALITAS,"Kec. Batabual,  Desa. Batu Jungku",85,1070000,,,2015
4090,MALUKU,4,KABUPATEN BURU,STRATEGIS,RUMAH SWADAYA,PENINGKATAN KUALITAS,"Kec. Batabual,  Desa. Pela",126,1325000,,,2015
4091,MALUKU,4,KABUPATEN BURU,STRATEGIS,RUMAH SWADAYA,PENINGKATAN KUALITAS,"Kec. Batabual,  Desa. Waemorat",121,1695000,,,2015
4092,MALUKU,4,KABUPATEN BURU,STRATEGIS,RUMAH SWADAYA,PENINGKATAN KUALITAS,"Kec. Batabual,  Desa. Ilath",191,2815000,,,2015
4093,MALUKU,9,KABUPATEN BURU SELATAN,STRATEGIS,RUMAH SWADAYA,PENINGKATAN KUALITAS,"Kec. Waesama,  Desa. Pohon Batu",61,610000,,,2015
4094,MALUKU,9,KABUPATEN BURU SELATAN,STRATEGIS,RUMAH SWADAYA,PENINGKATAN KUALITAS,"Kec. Waesama,  Desa. Wamsisi",50,505000,,,2015
4095,MALUKU,9,KABUPATEN BURU SELATAN,STRATEGIS,RUMAH SWADAYA,PENINGKATAN KUALITAS,"Kec. Waesama,  Desa. Waelikut",24,240000,,,2015
4096,MALUKU,9,KABUPATEN BURU SELATAN,STRATEGIS,RUMAH SWADAYA,PENINGKATAN KUALITAS,"Kec. Waesama,  Desa. Simi",51,510000,,,2015
4097,MALUKU,9,KABUPATEN BURU SELATAN,STRATEGIS,RUMAH SWADAYA,PENINGKATAN KUALITAS,"Kec. Waesama,  Desa. Lena",60,600000,,,2015
4098,MALUKU,9,KABUPATEN BURU SELATAN,STRATEGIS,RUMAH SWADAYA,PENINGKATAN KUALITAS,"Kec. Waesama,  Desa. Waisili",59,590000,,,2015
4099,ACEH,7,KABUPATEN PIDIE,STRATEGIS,RUMAH KHUSUS,NELAYAN,"Kec. Simpang Tiga, Desa Mantak Raya ",50,5933314,,,2015
