no,PROVINSI,NO KAB/KOT,KABUPATEN/ KOTA,PERUNTUKAN,PROGRAM,KEGIATAN,LOKASI,UNIT,ANGGARAN (000), STATUS KEPENGHUNIAN , KOORDINAT GEOGRAFIS ,TAHUN
6000,KALIMANTAN TENGAH,1,KABUPATEN KOTAWARINGIN BARAT,SNVT,RUMAH SWADAYA,PENINGKATAN KUALITAS,Kec. Kumai Ds. Kubu,30,450000,,,2017
6001,KALIMANTAN TENGAH,1,KABUPATEN KOTAWARINGIN BARAT,SNVT,RUMAH SWADAYA,PENINGKATAN KUALITAS,Kec. Kumai Ds. Kumai Hulu,95,1425000,,,2017
6002,KALIMANTAN TENGAH,6,KABUPATEN KATINGAN,SNVT,RUMAH SWADAYA,PENINGKATAN KUALITAS,Kec. Katingan Kuala Ds. Kampung Baru,95,1425000,,,2017
6003,KALIMANTAN TENGAH,6,KABUPATEN KATINGAN,SNVT,RUMAH SWADAYA,PENINGKATAN KUALITAS,Kec. Katingan Kuala Ds. Kampung Tengah,95,1425000,,,2017
6004,KALIMANTAN TENGAH,6,KABUPATEN KATINGAN,SNVT,RUMAH SWADAYA,PENINGKATAN KUALITAS,Kec. Pulau Malan Ds. Dahian Tunggal,125,1875000,,,2017
6005,KALIMANTAN TENGAH,4,KABUPATEN BARITO SELATAN,SNVT,RUMAH SWADAYA,PENINGKATAN KUALITAS,Kec. Dusun Selatan Ds. Lembeng,45,675000,,,2017
6006,KALIMANTAN TENGAH,4,KABUPATEN BARITO SELATAN,SNVT,RUMAH SWADAYA,PENINGKATAN KUALITAS,Kec. Dusun Utara Ds. Bundar,48,720000,,,2017
6007,KALIMANTAN TENGAH,4,KABUPATEN BARITO SELATAN,SNVT,RUMAH SWADAYA,PENINGKATAN KUALITAS,Kec. Dusun Utara Ds. Bantai Bambure,23,345000,,,2017
6008,KALIMANTAN TENGAH,4,KABUPATEN BARITO SELATAN,SNVT,RUMAH SWADAYA,PENINGKATAN KUALITAS,Kec. Gunung Bintang Awal Ds. Wungkur Baru,32,480000,,,2017
6009,KALIMANTAN TENGAH,4,KABUPATEN BARITO SELATAN,SNVT,RUMAH SWADAYA,PENINGKATAN KUALITAS,Kec. Gunung Bintang Awal Ds. Muka Haji,34,510000,,,2017
6010,KALIMANTAN TENGAH,4,KABUPATEN BARITO SELATAN,SNVT,RUMAH SWADAYA,PENINGKATAN KUALITAS,Kec. Gunung Bintang Awal Ds. Sire,39,585000,,,2017
6011,KALIMANTAN TENGAH,4,KABUPATEN BARITO SELATAN,SNVT,RUMAH SWADAYA,PENINGKATAN KUALITAS,Kec. Karau Kuala Ds. Bangkuang,56,840000,,,2017
6012,KALIMANTAN TENGAH,7,KABUPATEN SERUYAN,SNVT,RUMAH SWADAYA,PENINGKATAN KUALITAS,Kec. Seruyan Hilir Ds. Kuala Pembuang Satu,64,960000,,,2017
6013,KALIMANTAN TENGAH,7,KABUPATEN SERUYAN,SNVT,RUMAH SWADAYA,PENINGKATAN KUALITAS,Kec. Danau Sembuluh Ds. Cempaka Baru,46,690000,,,2017
6014,KALIMANTAN TENGAH,7,KABUPATEN SERUYAN,SNVT,RUMAH SWADAYA,PENINGKATAN KUALITAS,Kec. Danau Sembuluh Ds. Banua Usang,20,300000,,,2017
6015,KALIMANTAN TENGAH,3,KABUPATEN KAPUAS,SNVT,RUMAH SWADAYA,PENINGKATAN KUALITAS,Kec. Selat Ds. Panamas,70,1050000,,,2017
6016,KALIMANTAN TENGAH,3,KABUPATEN KAPUAS,SNVT,RUMAH SWADAYA,PENINGKATAN KUALITAS,Kec. Selat Ds. Pulau Telo,65,975000,,,2017
6017,KALIMANTAN TENGAH,3,KABUPATEN KAPUAS,SNVT,RUMAH SWADAYA,PENINGKATAN KUALITAS,Kec. Selat Ds. Pulau Telo Baru,40,600000,,,2017
6018,KALIMANTAN TENGAH,2,KABUPATEN KOTAWARINGIN TIMUR,SNVT,RUMAH SWADAYA,PENINGKATAN KUALITAS,Kec. Pulau Hanaut Ds. Serambut,78,1170000,,,2017
6019,KALIMANTAN TENGAH,2,KABUPATEN KOTAWARINGIN TIMUR,SNVT,RUMAH SWADAYA,PENINGKATAN KUALITAS,Kec. Mentawa Baru Ketapang Ds. Bengkuang Makmur,54,810000,,,2017
6020,KALIMANTAN TENGAH,2,KABUPATEN KOTAWARINGIN TIMUR,SNVT,RUMAH SWADAYA,PENINGKATAN KUALITAS,Kec. Kota Besi Ds. Kota Besi Hulu,80,1200000,,,2017
6021,KALIMANTAN TENGAH,14,KOTA PALANGKA RAYA,SNVT,RUMAH SWADAYA,PENINGKATAN KUALITAS,Kec. Rakumpit Ds. Panjehang,40,600000,,,2017
6022,KALIMANTAN TENGAH,14,KOTA PALANGKA RAYA,SNVT,RUMAH SWADAYA,PENINGKATAN KUALITAS,Kec. Rakumpit Ds. Bukit Sua,33,495000,,,2017
6023,KALIMANTAN TENGAH,14,KOTA PALANGKA RAYA,SNVT,RUMAH SWADAYA,PENINGKATAN KUALITAS,Kec. Sabangau Ds. Sabaru,48,720000,,,2017
6024,KALIMANTAN TENGAH,14,KOTA PALANGKA RAYA,SNVT,RUMAH SWADAYA,PENINGKATAN KUALITAS,Kec. Sabangau Ds. Kereng Bangkirai,102,1530000,,,2017
6025,KALIMANTAN TENGAH,14,KOTA PALANGKA RAYA,SNVT,RUMAH SWADAYA,PENINGKATAN KUALITAS,Kec. Sabangau Ds. Kalampangan,53,795000,,,2017
6026,KALIMANTAN TIMUR,13,KOTA SAMARINDA,STRATEGIS,RUMAH SUSUN,PNS,"Jl. Slamet Riyadi, Loktuan, Bontang Utara T. 36 / 5 Lt",70,25500000,,,2017
6027,KALIMANTAN TIMUR,13,KOTA SAMARINDA,STRATEGIS,RUMAH SUSUN,PNS,"Pemkot Bontang  (Lanjutan 2016 - Cut Off + PMK 243/2015), Jl. Tarienggang, Kel. Guntung, Kec. Bontang Utara T. 24 / 4 Lt",90,12370000,,,2017
6028,KALIMANTAN TIMUR,13,KOTA SAMARINDA,SNVT,RUMAH SUSUN,MBR,"Jl. Wanyi, Samarinda Utara, Kota Samarinda T. 36 / 5 Lt",70,25500000,,,2017
6029,KALIMANTAN TIMUR,15,KOTA BONTANG,SNVT,RUMAH KHUSUS,NELAYAN,,50,8750000,,,2017
6030,KALIMANTAN TIMUR,3,KABUPATEN BERAU,SNVT,RUMAH SWADAYA,PENINGKATAN KUALITAS,Kec. Gunung Tabur Ds. Gunung Tabur,50,750000,,,2017
6031,KALIMANTAN TIMUR,3,KABUPATEN BERAU,SNVT,RUMAH SWADAYA,PENINGKATAN KUALITAS,Kec. Gunung Tabur Ds. Samburakat,50,750000,,,2017
6032,KALIMANTAN TIMUR,3,KABUPATEN BERAU,SNVT,RUMAH SWADAYA,PENINGKATAN KUALITAS,Kec. Gunung Tabur Ds. Sambakungan,50,750000,,,2017
6033,KALIMANTAN TIMUR,3,KABUPATEN BERAU,SNVT,RUMAH SWADAYA,PENINGKATAN KUALITAS,Kec. Tanjung Redeb Ds. Gunung Panjang,50,750000,,,2017
6034,KALIMANTAN TIMUR,3,KABUPATEN BERAU,SNVT,RUMAH SWADAYA,PENINGKATAN KUALITAS,Kec. Tanjung Redeb Ds. Karang Ambun,50,750000,,,2017
6035,KALIMANTAN TIMUR,3,KABUPATEN BERAU,SNVT,RUMAH SWADAYA,PENINGKATAN KUALITAS,Kec. Tanjung Redeb Ds. Tanjung Redeb,50,750000,,,2017
6036,KALIMANTAN TIMUR,12,KOTA BALIKPAPAN,SNVT,RUMAH SWADAYA,PENINGKATAN KUALITAS,Kec. Balikpapan Timur Ds. Manggar Baru,50,750000,,,2017
6037,KALIMANTAN TIMUR,12,KOTA BALIKPAPAN,SNVT,RUMAH SWADAYA,PENINGKATAN KUALITAS,Kec. Balikpapan Timur Ds. Teritip,50,750000,,,2017
6038,KALIMANTAN TIMUR,12,KOTA BALIKPAPAN,SNVT,RUMAH SWADAYA,PENINGKATAN KUALITAS,Kec. Balikpapan Timur Ds. Lemaru,50,750000,,,2017
6039,KALIMANTAN TIMUR,12,KOTA BALIKPAPAN,SNVT,RUMAH SWADAYA,PENINGKATAN KUALITAS,Kec. Balikpapan Selatan Ds. Sepinggan,50,750000,,,2017
6040,KALIMANTAN TIMUR,7,KABUPATEN KUTAI BARAT,SNVT,RUMAH SWADAYA,PENINGKATAN KUALITAS,Kec. Melak Ds. Melak Ilir,60,900000,,,2017
6041,KALIMANTAN TIMUR,7,KABUPATEN KUTAI BARAT,SNVT,RUMAH SWADAYA,PENINGKATAN KUALITAS,Kec. Melak Ds. Melak Ulu,60,900000,,,2017
6042,KALIMANTAN TIMUR,7,KABUPATEN KUTAI BARAT,SNVT,RUMAH SWADAYA,PENINGKATAN KUALITAS,Kec. Penyinggahan Ds. Minta,25,375000,,,2017
6043,KALIMANTAN TIMUR,7,KABUPATEN KUTAI BARAT,SNVT,RUMAH SWADAYA,PENINGKATAN KUALITAS,Kec. Penyinggahan Ds. Loa Deras,35,525000,,,2017
6044,KALIMANTAN TIMUR,7,KABUPATEN KUTAI BARAT,SNVT,RUMAH SWADAYA,PENINGKATAN KUALITAS,Kec. Penyinggahan Ds. Penyinggahan Ilir,60,900000,,,2017
6045,KALIMANTAN TIMUR,7,KABUPATEN KUTAI BARAT,SNVT,RUMAH SWADAYA,PENINGKATAN KUALITAS,Kec. Penyinggahan Ds. Penginggahan Ulu,50,750000,,,2017
6046,KALIMANTAN TIMUR,2,KABUPATEN KUTAI KARTANEGARA,SNVT,RUMAH SWADAYA,PENINGKATAN KUALITAS,Kec. Semboja Ds. Beringin Agung,52,780000,,,2017
6047,KALIMANTAN TIMUR,2,KABUPATEN KUTAI KARTANEGARA,SNVT,RUMAH SWADAYA,PENINGKATAN KUALITAS,Kec. Semboja Ds. Bukit Raya,45,675000,,,2017
6048,KALIMANTAN TIMUR,2,KABUPATEN KUTAI KARTANEGARA,SNVT,RUMAH SWADAYA,PENINGKATAN KUALITAS,Kec. Semboja Ds. Karya Jaya,40,600000,,,2017
6049,KALIMANTAN TIMUR,2,KABUPATEN KUTAI KARTANEGARA,SNVT,RUMAH SWADAYA,PENINGKATAN KUALITAS,Kec. Tenggarong Ds. Jahab,60,900000,,,2017
6050,KALIMANTAN TIMUR,2,KABUPATEN KUTAI KARTANEGARA,SNVT,RUMAH SWADAYA,PENINGKATAN KUALITAS,Kec. Tenggarong Ds. Bukit Biru,30,450000,,,2017
6051,KALIMANTAN TIMUR,2,KABUPATEN KUTAI KARTANEGARA,SNVT,RUMAH SWADAYA,PENINGKATAN KUALITAS,Kec. Tenggarong Ds. Loa Tebu,54,810000,,,2017
6052,KALIMANTAN TIMUR,2,KABUPATEN KUTAI KARTANEGARA,SNVT,RUMAH SWADAYA,PENINGKATAN KUALITAS,Kec. Muara Wis Ds. Melintang,60,900000,,,2017
6053,KALIMANTAN TIMUR,2,KABUPATEN KUTAI KARTANEGARA,SNVT,RUMAH SWADAYA,PENINGKATAN KUALITAS,Kec. Loa Kulu Ds. Sumber Sari,30,450000,,,2017
6054,KALIMANTAN TIMUR,2,KABUPATEN KUTAI KARTANEGARA,SNVT,RUMAH SWADAYA,PENINGKATAN KUALITAS,Kec. Loa Kulu Ds. Loh Sumber,30,450000,,,2017
6055,KALIMANTAN TIMUR,2,KABUPATEN KUTAI KARTANEGARA,SNVT,RUMAH SWADAYA,PENINGKATAN KUALITAS,Kec. Kota Bangun Ds. Kota Bangun Seberang,50,750000,,,2017
6056,KALIMANTAN TIMUR,4,KABUPATEN KUTAI TIMUR,SNVT,RUMAH SWADAYA,PENINGKATAN KUALITAS,Kec. Sangatta Selatan Ds. Sangatta Selatan,50,750000,,,2017
6057,KALIMANTAN TIMUR,4,KABUPATEN KUTAI TIMUR,SNVT,RUMAH SWADAYA,PENINGKATAN KUALITAS,Kec. Sangatta Selatan Ds. Sangkima,50,750000,,,2017
6058,KALIMANTAN TIMUR,4,KABUPATEN KUTAI TIMUR,SNVT,RUMAH SWADAYA,PENINGKATAN KUALITAS,Kec. Sangatta Selatan Ds. Singa Geweh,50,750000,,,2017
6059,KALIMANTAN TIMUR,4,KABUPATEN KUTAI TIMUR,SNVT,RUMAH SWADAYA,PENINGKATAN KUALITAS,Kec. Teluk Pandan Ds. Kandolo,50,750000,,,2017
6060,KALIMANTAN TIMUR,4,KABUPATEN KUTAI TIMUR,SNVT,RUMAH SWADAYA,PENINGKATAN KUALITAS,Kec. Teluk Pandan Ds. Suka Rahmat,50,750000,,,2017
6061,KALIMANTAN TIMUR,4,KABUPATEN KUTAI TIMUR,SNVT,RUMAH SWADAYA,PENINGKATAN KUALITAS,Kec. Kaliorang Ds. Bukit Harapan,30,450000,,,2017
6062,KALIMANTAN TIMUR,9,KABUPATEN PENAJAM PASER UTARA,SNVT,RUMAH SWADAYA,PENINGKATAN KUALITAS,Kec. Sepaku Ds. Mentawir,30,450000,,,2017
6063,KALIMANTAN TIMUR,9,KABUPATEN PENAJAM PASER UTARA,SNVT,RUMAH SWADAYA,PENINGKATAN KUALITAS,Kec. Sepaku Ds. Sukaraja,50,750000,,,2017
6064,KALIMANTAN TIMUR,9,KABUPATEN PENAJAM PASER UTARA,SNVT,RUMAH SWADAYA,PENINGKATAN KUALITAS,Kec. Sepaku Ds. Tengin Baru,30,450000,,,2017
6065,KALIMANTAN TIMUR,9,KABUPATEN PENAJAM PASER UTARA,SNVT,RUMAH SWADAYA,PENINGKATAN KUALITAS,Kec. Sepaku Ds. Argo Mulyo,30,450000,,,2017
6066,KALIMANTAN TIMUR,9,KABUPATEN PENAJAM PASER UTARA,SNVT,RUMAH SWADAYA,PENINGKATAN KUALITAS,Kec. Sepaku Ds. Suko Mulyo,30,450000,,,2017
6067,KALIMANTAN TIMUR,9,KABUPATEN PENAJAM PASER UTARA,SNVT,RUMAH SWADAYA,PENINGKATAN KUALITAS,Kec. Waru Ds. Sesulu,50,750000,,,2017
6068,KALIMANTAN TIMUR,9,KABUPATEN PENAJAM PASER UTARA,SNVT,RUMAH SWADAYA,PENINGKATAN KUALITAS,Kec. Waru Ds. Waru,50,750000,,,2017
6069,KALIMANTAN TIMUR,9,KABUPATEN PENAJAM PASER UTARA,SNVT,RUMAH SWADAYA,PENINGKATAN KUALITAS,Kec. Waru Ds. Bangun Mulya,30,450000,,,2017
6070,KALIMANTAN TIMUR,9,KABUPATEN PENAJAM PASER UTARA,SNVT,RUMAH SWADAYA,PENINGKATAN KUALITAS,Kec. Waru Ds. Api Api,30,450000,,,2017
6071,KALIMANTAN TIMUR,15,KOTA BONTANG,SNVT,RUMAH SWADAYA,PENINGKATAN KUALITAS,Kec. Bontang Selatan Ds. Bontang Lestari,60,900000,,,2017
6072,KALIMANTAN TIMUR,15,KOTA BONTANG,SNVT,RUMAH SWADAYA,PENINGKATAN KUALITAS,Kec. Bontang Selatan Ds. Berbas Tengah,83,1245000,,,2017
6073,KALIMANTAN TIMUR,15,KOTA BONTANG,SNVT,RUMAH SWADAYA,PENINGKATAN KUALITAS,Kec. Bontang Utara Ds. Gunung Elai,50,750000,,,2017
6074,KALIMANTAN TIMUR,15,KOTA BONTANG,SNVT,RUMAH SWADAYA,PENINGKATAN KUALITAS,Kec. Bontang Utara Ds. Bontang Kuala,80,1200000,,,2017
6075,KALIMANTAN TIMUR,15,KOTA BONTANG,SNVT,RUMAH SWADAYA,PENINGKATAN KUALITAS,Kec. Bontang Barat Ds. Belimbing,26,390000,,,2017
6076,KALIMANTAN TIMUR,13,KOTA SAMARINDA,SNVT,RUMAH SWADAYA,PENINGKATAN KUALITAS,Kec. Samarinda Ilir Ds. Sidomulyo,88,1320000,,,2017
6077,KALIMANTAN TIMUR,13,KOTA SAMARINDA,SNVT,RUMAH SWADAYA,PENINGKATAN KUALITAS,Kec. Samarinda Kota Ds. Sungai Pinang Luar,44,660000,,,2017
6078,KALIMANTAN TIMUR,13,KOTA SAMARINDA,SNVT,RUMAH SWADAYA,PENINGKATAN KUALITAS,Kec. Samarinda Kota Ds. Karang Munus,44,660000,,,2017
6079,KALIMANTAN TIMUR,13,KOTA SAMARINDA,SNVT,RUMAH SWADAYA,PENINGKATAN KUALITAS,Kec. Samarinda Ulu Ds. Teluk Lerong Ilir,44,660000,,,2017
6080,KALIMANTAN TIMUR,13,KOTA SAMARINDA,SNVT,RUMAH SWADAYA,PENINGKATAN KUALITAS,Kec. Samarinda Ulu Ds. Air Hitam,44,660000,,,2017
6081,KALIMANTAN TIMUR,13,KOTA SAMARINDA,SNVT,RUMAH SWADAYA,PENINGKATAN KUALITAS,Kec. Sungai Kunjang Ds. Teluk Lerong Ulu,43,645000,,,2017
6082,KALIMANTAN TIMUR,13,KOTA SAMARINDA,SNVT,RUMAH SWADAYA,PENINGKATAN KUALITAS,Kec. Sungai Kunjang Ds. Lok Bahu,44,660000,,,2017
6083,GORONTALO,5,KABUPATEN GORONTALO UTARA,SNVT,RUMAH SUSUN,MBR,"Jl. Pelabuhan Anggrek, Dusun Pilomujia, Desa Ilangata, Kec. Kwandang, Kab. Gorontalo Utara, T. 36 / 5 Lt ",70,26500000,,,2017
6084,GORONTALO,6,KOTA GORONTALO,STRATEGIS,RUMAH SUSUN,MBR,"Jl. Kancil, Kel. Bullide, Kec. Kota Barat, Kota Gorontalo T. 24 / 4 Lt",90,15970000,,,2017
6085,GORONTALO,6,KOTA GORONTALO,STRATEGIS,RUMAH SUSUN,TNI,"Jl. R. Atje Slamet, Kel. Leato Selatan, Kec. Dumbo Raya, Kota Gorontalo T. 45 / 3 Lt", - ,0,,,2017
6086,GORONTALO,5,KABUPATEN GORONTALO UTARA,SNVT,RUMAH SUSUN,MBR,"Jl. Pelabuhan Anggrek, Dusun Pilomujia, Desa Ilangata, Kec. Kwandang (T. 36 / 5 Lt)",70,26500000,,,2017
6087,GORONTALO,5,KABUPATEN GORONTALO UTARA,SNVT,RUMAH KHUSUS,NELAYAN," Kec. Gentuma Raya, Ds Dumolodo,",40,5439630,,,2017
6088,GORONTALO,5,KABUPATEN GORONTALO UTARA,SNVT,RUMAH KHUSUS,NELAYAN," Kec. Anggrek, Ds Langge,",40,5597227,,,2017
6089,GORONTALO,4,KABUPATEN POHUWATO,STRATEGIS,RUMAH KHUSUS,SA,,50,8000000,,,2017
6090,GORONTALO,5,KABUPATEN GORONTALO UTARA,SNVT,RUMAH KHUSUS,NELAYAN,"Dusun Malagoso, Desa Dumolodo, Kec. Gentuma Raya",40,6400000,,,2017
6091,GORONTALO,5,KABUPATEN GORONTALO UTARA,SNVT,RUMAH KHUSUS,NELAYAN,Desa Langge Kec. Anggrek,40,6400000,,,2017
6092,GORONTALO,4,KABUPATEN POHUWATO,STRATEGIS,RUMAH KHUSUS,SA,Belum ada nama Kec.,,8000000,,,2017
6093,GORONTALO,2,KABUPATEN BOALEMO,SNVT,RUMAH SWADAYA,PENINGKATAN KUALITAS,Kec. Wonosari Ds. Saritani,30,450000,,,2017
6094,GORONTALO,2,KABUPATEN BOALEMO,SNVT,RUMAH SWADAYA,PENINGKATAN KUALITAS,Kec. Wonosari Ds. Mekar Jaya,53,795000,,,2017
6095,GORONTALO,2,KABUPATEN BOALEMO,SNVT,RUMAH SWADAYA,PENINGKATAN KUALITAS,Kec. Wonosari Ds. Tanjung Harapan,43,645000,,,2017
6096,GORONTALO,2,KABUPATEN BOALEMO,SNVT,RUMAH SWADAYA,PENINGKATAN KUALITAS,Kec. Wonosari Ds. Pangea,67,1005000,,,2017
6097,GORONTALO,2,KABUPATEN BOALEMO,SNVT,RUMAH SWADAYA,PENINGKATAN KUALITAS,Kec. Paguyaman Ds. Rejonegoro,46,690000,,,2017
6098,GORONTALO,2,KABUPATEN BOALEMO,SNVT,RUMAH SWADAYA,PENINGKATAN KUALITAS,Kec. Paguyaman Ds. Tenilo,41,615000,,,2017
6099,GORONTALO,2,KABUPATEN BOALEMO,SNVT,RUMAH SWADAYA,PENINGKATAN KUALITAS,Kec. Paguyaman Ds. Tangkobu,44,660000,,,2017
