no,PROVINSI,NO KAB/KOT,KABUPATEN/ KOTA,PERUNTUKAN,PROGRAM,KEGIATAN,LOKASI,UNIT,ANGGARAN (000), STATUS KEPENGHUNIAN , KOORDINAT GEOGRAFIS ,TAHUN
5800,KALIMANTAN BARAT,4,KABUPATEN KETAPANG,SNVT,RUMAH SWADAYA,PENINGKATAN KUALITAS,Kec. Delta Pawan Ds. Kali Nilam,64,960000,,,2017
5801,KALIMANTAN BARAT,4,KABUPATEN KETAPANG,SNVT,RUMAH SWADAYA,PENINGKATAN KUALITAS,Kec. Delta Pawan Ds. Sampit,30,450000,,,2017
5802,KALIMANTAN BARAT,12,KABUPATEN KUBU RAYA,SNVT,RUMAH SWADAYA,PENINGKATAN KUALITAS,Kec. Sungai Ambawang Ds. Mega Timur,50,750000,,,2017
5803,KALIMANTAN BARAT,12,KABUPATEN KUBU RAYA,SNVT,RUMAH SWADAYA,PENINGKATAN KUALITAS,Kec. Sungai Ambawang Ds. Sungai Malaya,50,750000,,,2017
5804,KALIMANTAN BARAT,12,KABUPATEN KUBU RAYA,SNVT,RUMAH SWADAYA,PENINGKATAN KUALITAS,Kec. Sungai Ambawang Ds. Ampera Raya,25,375000,,,2017
5805,KALIMANTAN BARAT,12,KABUPATEN KUBU RAYA,SNVT,RUMAH SWADAYA,PENINGKATAN KUALITAS,Kec. Sungai Ambawang Ds. Jawa Tengah,30,450000,,,2017
5806,KALIMANTAN BARAT,12,KABUPATEN KUBU RAYA,SNVT,RUMAH SWADAYA,PENINGKATAN KUALITAS,Kec. Sungai Ambawang Ds. Ambawang Kuala,30,450000,,,2017
5807,KALIMANTAN BARAT,12,KABUPATEN KUBU RAYA,SNVT,RUMAH SWADAYA,PENINGKATAN KUALITAS,Kec. Sungai Ambawang Ds. Durian,50,750000,,,2017
5808,KALIMANTAN BARAT,12,KABUPATEN KUBU RAYA,SNVT,RUMAH SWADAYA,PENINGKATAN KUALITAS,Kec. Sungai Ambawang Ds. Simpang Kanan,50,750000,,,2017
5809,KALIMANTAN BARAT,12,KABUPATEN KUBU RAYA,STRATEGIS,RUMAH SWADAYA,PENINGKATAN KUALITAS,Kec. Sungai Kakap Ds. Punggur Besar,30,450000,,,2017
5810,KALIMANTAN BARAT,12,KABUPATEN KUBU RAYA,STRATEGIS,RUMAH SWADAYA,PENINGKATAN KUALITAS,Kec. Sungai Kakap Ds. Punggur Kecil,20,300000,,,2017
5811,KALIMANTAN BARAT,12,KABUPATEN KUBU RAYA,STRATEGIS,RUMAH SWADAYA,PENINGKATAN KUALITAS,Kec. Sungai Kakap Ds. Sungai Kakap,28,420000,,,2017
5812,KALIMANTAN BARAT,8,KABUPATEN LANDAK,SNVT,RUMAH SWADAYA,PENINGKATAN KUALITAS,Kec. Sompak Ds. Galar,51,765000,,,2017
5813,KALIMANTAN BARAT,8,KABUPATEN LANDAK,SNVT,RUMAH SWADAYA,PENINGKATAN KUALITAS,Kec. Sompak Ds. Lingkonong,20,300000,,,2017
5814,KALIMANTAN BARAT,8,KABUPATEN LANDAK,SNVT,RUMAH SWADAYA,PENINGKATAN KUALITAS,Kec. Sompak Ds. Karangan,36,540000,,,2017
5815,KALIMANTAN BARAT,8,KABUPATEN LANDAK,SNVT,RUMAH SWADAYA,PENINGKATAN KUALITAS,Kec. Mandor Ds. Ngarak,159,2385000,,,2017
5816,KALIMANTAN BARAT,8,KABUPATEN LANDAK,SNVT,RUMAH SWADAYA,PENINGKATAN KUALITAS,Kec. Mandor Ds. Simpang Kasturi,119,1785000,,,2017
5817,KALIMANTAN BARAT,10,KABUPATEN MELAWI,SNVT,RUMAH SWADAYA,PENINGKATAN KUALITAS,Kec. Pinoh Utara Ds. Merah Arai,69,1035000,,,2017
5818,KALIMANTAN BARAT,10,KABUPATEN MELAWI,SNVT,RUMAH SWADAYA,PENINGKATAN KUALITAS,Kec. Pinoh Utara Ds. Senibung,119,1785000,,,2017
5819,KALIMANTAN BARAT,10,KABUPATEN MELAWI,SNVT,RUMAH SWADAYA,PENINGKATAN KUALITAS,Kec. Pinoh Utara Ds. Sungai Pinang,84,1260000,,,2017
5820,KALIMANTAN BARAT,2,KABUPATEN MEMPAWAH,SNVT,RUMAH SWADAYA,PENINGKATAN KUALITAS,Kec. Anjongan Ds. Anjungan Dalam,53,795000,,,2017
5821,KALIMANTAN BARAT,2,KABUPATEN MEMPAWAH,SNVT,RUMAH SWADAYA,PENINGKATAN KUALITAS,Kec. Anjongan Ds. Dema,72,1080000,,,2017
5822,KALIMANTAN BARAT,2,KABUPATEN MEMPAWAH,SNVT,RUMAH SWADAYA,PENINGKATAN KUALITAS,Kec. Anjongan Ds. Kepayang,88,1320000,,,2017
5823,KALIMANTAN BARAT,2,KABUPATEN MEMPAWAH,SNVT,RUMAH SWADAYA,PENINGKATAN KUALITAS,Kec. Anjongan Ds. Pak Bulu,47,705000,,,2017
5824,KALIMANTAN BARAT,2,KABUPATEN MEMPAWAH,SNVT,RUMAH SWADAYA,PENINGKATAN KUALITAS,Kec. Anjongan Ds. Anjungan Melancar,129,1935000,,,2017
5825,KALIMANTAN BARAT,1,KABUPATEN SAMBAS,SNVT,RUMAH SWADAYA,PENINGKATAN KUALITAS,Kec. Semparuk Ds. Seburing,107,1605000,,,2017
5826,KALIMANTAN BARAT,1,KABUPATEN SAMBAS,SNVT,RUMAH SWADAYA,PENINGKATAN KUALITAS,Kec. Semparuk Ds. Sepadu,88,1320000,,,2017
5827,KALIMANTAN BARAT,1,KABUPATEN SAMBAS,SNVT,RUMAH SWADAYA,PENINGKATAN KUALITAS,Kec. Semparuk Ds. Sepinggan,150,2250000,,,2017
5828,KALIMANTAN BARAT,3,KABUPATEN SANGGAU,SNVT,RUMAH SWADAYA,PENINGKATAN KUALITAS,Kec. Balai Ds. Hilir,32,480000,,,2017
5829,KALIMANTAN BARAT,3,KABUPATEN SANGGAU,SNVT,RUMAH SWADAYA,PENINGKATAN KUALITAS,Kec. Balai Ds. Kebadu,35,525000,,,2017
5830,KALIMANTAN BARAT,3,KABUPATEN SANGGAU,SNVT,RUMAH SWADAYA,PENINGKATAN KUALITAS,Kec. Balai Ds. Senyabang,88,1320000,,,2017
5831,KALIMANTAN BARAT,3,KABUPATEN SANGGAU,SNVT,RUMAH SWADAYA,PENINGKATAN KUALITAS,Kec. Balai Ds. Temiang Mali,73,1095000,,,2017
5832,KALIMANTAN BARAT,3,KABUPATEN SANGGAU,SNVT,RUMAH SWADAYA,PENINGKATAN KUALITAS,Kec. Bonti Ds. Kampuh,57,855000,,,2017
5833,KALIMANTAN BARAT,9,KABUPATEN SEKADAU,SNVT,RUMAH SWADAYA,PENINGKATAN KUALITAS,Kec. Sekadau Hilir Ds. Gonis Tekam,30,450000,,,2017
5834,KALIMANTAN BARAT,9,KABUPATEN SEKADAU,SNVT,RUMAH SWADAYA,PENINGKATAN KUALITAS,Kec. Sekadau Hilir Ds. Tapang Semadak,49,735000,,,2017
5835,KALIMANTAN BARAT,9,KABUPATEN SEKADAU,SNVT,RUMAH SWADAYA,PENINGKATAN KUALITAS,Kec. Sekadau Hilir Ds. Timpuk,50,750000,,,2017
5836,KALIMANTAN BARAT,9,KABUPATEN SEKADAU,SNVT,RUMAH SWADAYA,PENINGKATAN KUALITAS,Kec. Sekadau Hilir Ds. Sungai Ringin,87,1305000,,,2017
5837,KALIMANTAN BARAT,9,KABUPATEN SEKADAU,SNVT,RUMAH SWADAYA,PENINGKATAN KUALITAS,Kec. Sekadau Hilir Ds. Merapi,25,375000,,,2017
5838,KALIMANTAN BARAT,5,KABUPATEN SINTANG,SNVT,RUMAH SWADAYA,PENINGKATAN KUALITAS,Kec. Sintang Ds. Ladang,50,750000,,,2017
5839,KALIMANTAN BARAT,5,KABUPATEN SINTANG,SNVT,RUMAH SWADAYA,PENINGKATAN KUALITAS,Kec. Ketungau Hulu Ds. Sepiluk,75,1125000,,,2017
5840,KALIMANTAN BARAT,5,KABUPATEN SINTANG,SNVT,RUMAH SWADAYA,PENINGKATAN KUALITAS,Kec. Ketungau Hulu Ds. Empunak Tapang Keladan,75,1125000,,,2017
5841,KALIMANTAN BARAT,5,KABUPATEN SINTANG,SNVT,RUMAH SWADAYA,PENINGKATAN KUALITAS,Kec. Ketungau Tengah Ds. Mungguk Gelombang,50,750000,,,2017
5842,KALIMANTAN BARAT,5,KABUPATEN SINTANG,SNVT,RUMAH SWADAYA,PENINGKATAN KUALITAS,Kec. Kelam Permai Ds. Sungai Pukat,50,750000,,,2017
5843,KALIMANTAN BARAT,14,KOTA PONTIANAK,SNVT,RUMAH SWADAYA,PENINGKATAN KUALITAS,Kec. Pontianak Barat Ds. Sungai Beliung,110,1650000,,,2017
5844,KALIMANTAN BARAT,14,KOTA PONTIANAK,SNVT,RUMAH SWADAYA,PENINGKATAN KUALITAS,Kec. Pontianak Barat Ds. Sungai Jawi Luar,89,1335000,,,2017
5845,KALIMANTAN BARAT,14,KOTA PONTIANAK,SNVT,RUMAH SWADAYA,PENINGKATAN KUALITAS,Kec. Pontianak Barat Ds. Sungai Beliung Dalam,81,1215000,,,2017
5846,KALIMANTAN BARAT,14,KOTA PONTIANAK,SNVT,RUMAH SWADAYA,PENINGKATAN KUALITAS,Kec. Pontianak Timur Ds. Banjar Serasan,53,795000,,,2017
5847,KALIMANTAN BARAT,14,KOTA PONTIANAK,SNVT,RUMAH SWADAYA,PENINGKATAN KUALITAS,Kec. Pontianak Timur Ds. Dalam Bugis,50,750000,,,2017
5848,KALIMANTAN BARAT,14,KOTA PONTIANAK,SNVT,RUMAH SWADAYA,PENINGKATAN KUALITAS,Kec. Pontianak Timur Ds. Tambelan Sampit,65,975000,,,2017
5849,KALIMANTAN BARAT,14,KOTA PONTIANAK,SNVT,RUMAH SWADAYA,PENINGKATAN KUALITAS,Kec. Pontianak Timur Ds. Tanjung Hilir,50,750000,,,2017
5850,KALIMANTAN BARAT,14,KOTA PONTIANAK,SNVT,RUMAH SWADAYA,PENINGKATAN KUALITAS,Kec. Pontianak Utara Ds. Siantan Tengah,50,750000,,,2017
5851,KALIMANTAN BARAT,15,KOTA SINGKAWANG,SNVT,RUMAH SWADAYA,PENINGKATAN KUALITAS,Kec. Singkawang Tengah Ds. Sungai Wie,50,750000,,,2017
5852,KALIMANTAN BARAT,15,KOTA SINGKAWANG,SNVT,RUMAH SWADAYA,PENINGKATAN KUALITAS,Kec. Singkawang Selatan Ds. Sedau,100,1500000,,,2017
5853,KALIMANTAN UTARA,5,KOTA TARAKAN,SNVT,RUMAH KHUSUS,MBR,"Kel. Kampung Empat, Kec. Tarakan Timur",100,17500000,,,2017
5854,KALIMANTAN UTARA,1,KABUPATEN BULUNGAN,SNVT,RUMAH SWADAYA,PENINGKATAN KUALITAS,Kec. Sekatak Ds. Pentian,35,525000,,,2017
5855,KALIMANTAN UTARA,1,KABUPATEN BULUNGAN,SNVT,RUMAH SWADAYA,PENINGKATAN KUALITAS,Kec. Sekatak Ds. Pungit,40,600000,,,2017
5856,KALIMANTAN UTARA,1,KABUPATEN BULUNGAN,SNVT,RUMAH SWADAYA,PENINGKATAN KUALITAS,Kec. Sekatak Ds. Sekatak Bengara,35,525000,,,2017
5857,KALIMANTAN UTARA,1,KABUPATEN BULUNGAN,SNVT,RUMAH SWADAYA,PENINGKATAN KUALITAS,Kec. Tanjung Palas Timur Ds. Sajau Hilir,44,660000,,,2017
5858,KALIMANTAN UTARA,1,KABUPATEN BULUNGAN,SNVT,RUMAH SWADAYA,PENINGKATAN KUALITAS,Kec. Tanjung Palas Timur Ds. Mangku Padi,55,825000,,,2017
5859,KALIMANTAN UTARA,1,KABUPATEN BULUNGAN,SNVT,RUMAH SWADAYA,PENINGKATAN KUALITAS,Kec. Tanjung Palas Timur Ds. Binai,53,795000,,,2017
5860,KALIMANTAN UTARA,1,KABUPATEN BULUNGAN,SNVT,RUMAH SWADAYA,PENINGKATAN KUALITAS,Kec. Tanjung Palas Timur Ds. Pura Sajau,56,840000,,,2017
5861,KALIMANTAN UTARA,1,KABUPATEN BULUNGAN,SNVT,RUMAH SWADAYA,PENINGKATAN KUALITAS,Kec. Tanjung Selor Ds. Tanjung Selor Hulu,37,555000,,,2017
5862,KALIMANTAN UTARA,1,KABUPATEN BULUNGAN,SNVT,RUMAH SWADAYA,PENINGKATAN KUALITAS,Kec. Tanjung Selor Ds. Tanjung Selor Timur,50,750000,,,2017
5863,KALIMANTAN UTARA,5,KOTA TARAKAN,SNVT,RUMAH SWADAYA,PENINGKATAN KUALITAS,Kec. Tarakan Tengah Ds. Sebengkok,42,630000,,,2017
5864,KALIMANTAN UTARA,5,KOTA TARAKAN,SNVT,RUMAH SWADAYA,PENINGKATAN KUALITAS,Kec. Tarakan Tengah Ds. Kampung Satu Skip,35,525000,,,2017
5865,KALIMANTAN UTARA,5,KOTA TARAKAN,SNVT,RUMAH SWADAYA,PENINGKATAN KUALITAS,Kec. Tarakan Timur Ds. Pantai Amal,60,900000,,,2017
5866,KALIMANTAN UTARA,5,KOTA TARAKAN,SNVT,RUMAH SWADAYA,PENINGKATAN KUALITAS,Kec. Tarakan Utara Ds. Juata Krikil,50,750000,,,2017
5867,KALIMANTAN UTARA,2,KABUPATEN MALINAU,SNVT,RUMAH SWADAYA,PENINGKATAN KUALITAS,Kec. Malinau Selatan Hulu Ds. Long Lake,35,525000,,,2017
5868,KALIMANTAN UTARA,2,KABUPATEN MALINAU,SNVT,RUMAH SWADAYA,PENINGKATAN KUALITAS,Kec. Malinau Selatan Hulu Ds. Punan Mirau,35,525000,,,2017
5869,KALIMANTAN UTARA,2,KABUPATEN MALINAU,SNVT,RUMAH SWADAYA,PENINGKATAN KUALITAS,Kec. Malinau Ds. Malinau Hulu,46,690000,,,2017
5870,KALIMANTAN UTARA,2,KABUPATEN MALINAU,SNVT,RUMAH SWADAYA,PENINGKATAN KUALITAS,Kec. Malinau Kota Ds. Malinau Seberang,73,1095000,,,2017
5871,KALIMANTAN UTARA,2,KABUPATEN MALINAU,SNVT,RUMAH SWADAYA,PENINGKATAN KUALITAS,Kec. Malinau Kota Ds. Pelita Kanaan,35,525000,,,2017
5872,KALIMANTAN UTARA,3,KABUPATEN NUNUKAN,SNVT,RUMAH SWADAYA,PENINGKATAN KUALITAS,Kec. Lumbis Ds. Mansalong,35,525000,,,2017
5873,KALIMANTAN UTARA,3,KABUPATEN NUNUKAN,SNVT,RUMAH SWADAYA,PENINGKATAN KUALITAS,Kec. Lumbis Ds. Nainsid,41,615000,,,2017
5874,KALIMANTAN UTARA,3,KABUPATEN NUNUKAN,SNVT,RUMAH SWADAYA,PENINGKATAN KUALITAS,Kec. Lumbis Ds. Tanjung Hulu,43,645000,,,2017
5875,KALIMANTAN UTARA,3,KABUPATEN NUNUKAN,SNVT,RUMAH SWADAYA,PENINGKATAN KUALITAS,Kec. Lumbis Ds. Tubus,45,675000,,,2017
5876,KALIMANTAN UTARA,3,KABUPATEN NUNUKAN,SNVT,RUMAH SWADAYA,PENINGKATAN KUALITAS,Kec. Lumbis Ds. Sapuyan,35,525000,,,2017
5877,KALIMANTAN UTARA,3,KABUPATEN NUNUKAN,SNVT,RUMAH SWADAYA,PENINGKATAN KUALITAS,Kec. Nunukan Selatan Ds. Mansapa,43,645000,,,2017
5878,KALIMANTAN UTARA,3,KABUPATEN NUNUKAN,SNVT,RUMAH SWADAYA,PENINGKATAN KUALITAS,Kec. Nunukan Selatan Ds. Nunukan Selatan,56,840000,,,2017
5879,KALIMANTAN UTARA,3,KABUPATEN NUNUKAN,SNVT,RUMAH SWADAYA,PENINGKATAN KUALITAS,Kec. Nunukan Selatan Ds. Selisun,39,585000,,,2017
5880,KALIMANTAN UTARA,3,KABUPATEN NUNUKAN,SNVT,RUMAH SWADAYA,PENINGKATAN KUALITAS,Kec. Nunukan Selatan Ds. Tanjung Harapan,59,885000,,,2017
5881,KALIMANTAN UTARA,3,KABUPATEN NUNUKAN,SNVT,RUMAH SWADAYA,PENINGKATAN KUALITAS,Kec. Sebatik Tengah Ds. Bukit Harapan,40,600000,,,2017
5882,KALIMANTAN UTARA,3,KABUPATEN NUNUKAN,SNVT,RUMAH SWADAYA,PENINGKATAN KUALITAS,Kec. Sebatik Tengah Ds. Sungai Limau,92,1380000,,,2017
5883,KALIMANTAN UTARA,3,KABUPATEN NUNUKAN,SNVT,RUMAH SWADAYA,PENINGKATAN KUALITAS,Kec. Nunukan Ds. Binusan,58,870000,,,2017
5884,KALIMANTAN UTARA,3,KABUPATEN NUNUKAN,SNVT,RUMAH SWADAYA,PENINGKATAN KUALITAS,Kec. Nunukan Ds. Nunukan Timur,63,945000,,,2017
5885,KALIMANTAN UTARA,3,KABUPATEN NUNUKAN,SNVT,RUMAH SWADAYA,PENINGKATAN KUALITAS,Kec. Nunukan Ds. Nunukan Utara,35,525000,,,2017
5886,KALIMANTAN SELATAN,10,KABUPATEN TANAH BUMBU,SNVT,RUMAH SUSUN,MBR,"Jl. Dharma Praya, Desa/Kel. Gunung Tinggi, Kec. Batulicin, Kab. Tanah Bumbu T. 36 / 5 Lt",70,25500000,,,2017
5887,KALIMANTAN SELATAN,6,KABUPATEN HULU SUNGAI SELATAN,SNVT,RUMAH SUSUN,PONPES,"Ds. Telaga Bidadari, Kec. Sungai Raya, Kab. Hulu Sungai Selatan T. Barak / 3 Lt",30,11050000,,,2017
5888,KALIMANTAN SELATAN,2,KABUPATEN KOTABARU,STRATEGIS,RUMAH KHUSUS,,,50,8362000,,,2017
5889,KALIMANTAN SELATAN,13,KOTA BANJARBARU,STRATEGIS,RUMAH UMUM DAN KOMERSIAL,BANTUAN PSU RUMAH UMUM,Puri Peramuan Indah,100,704440,,,2017
5890,KALIMANTAN SELATAN,13,KOTA BANJARBARU,STRATEGIS,RUMAH UMUM DAN KOMERSIAL,BANTUAN PSU RUMAH UMUM,Perumahan Danau Seran Indah,50,350590,,,2017
5891,KALIMANTAN SELATAN,13,KOTA BANJARBARU,STRATEGIS,RUMAH UMUM DAN KOMERSIAL,BANTUAN PSU RUMAH UMUM,Perumahan Vila Mahatama,76,511230,,,2017
5892,KALIMANTAN SELATAN,13,KOTA BANJARBARU,STRATEGIS,RUMAH UMUM DAN KOMERSIAL,BANTUAN PSU RUMAH UMUM,Perumahan Mustika Abadi Griyatama,59,396280,,,2017
5893,KALIMANTAN TENGAH,14,KOTA PALANGKA RAYA,STRATEGIS,RUMAH UMUM DAN KOMERSIAL,BANTUAN PSU RUMAH UMUM,Rumah Umum di Perumahan Borneo Sejahtera,99,663910,,,2017
5894,KALIMANTAN TENGAH,14,KOTA PALANGKA RAYA,STRATEGIS,RUMAH UMUM DAN KOMERSIAL,BANTUAN PSU RUMAH UMUM,Perumahan Griya Haka,300,1247100,,,2017
5895,KALIMANTAN TENGAH,13,KABUPATEN KOTAWARINGIN,STRATEGIS,RUMAH UMUM DAN KOMERSIAL,BANTUAN PSU RUMAH UMUM,Perumahan Griya Marunting Lamatua,52,347230,,,2017
5896,KALIMANTAN TENGAH,1,KABUPATEN KOTAWARINGIN BARAT,STRATEGIS,RUMAH UMUM DAN KOMERSIAL,BANTUAN PSU RUMAH UMUM,Perumahan Graha Mas,200,1128000,,,2017
5897,KALIMANTAN TENGAH,1,KABUPATEN KOTAWARINGIN BARAT,STRATEGIS,RUMAH UMUM DAN KOMERSIAL,BANTUAN PSU RUMAH UMUM,Perumahan Griya Jati Mas,50,297800,,,2017
5898,KEPULAUAN RIAU,7,KOTA TANJUNG PINANG,STRATEGIS,RUMAH UMUM DAN KOMERSIAL,BANTUAN PSU RUMAH UMUM,Perumahan Bukit Anungrah Lestari,88,348333,,,2017
5899,KEPULAUAN RIAU,7,KOTA TANJUNG PINANG,STRATEGIS,RUMAH UMUM DAN KOMERSIAL,BANTUAN PSU RUMAH UMUM,Perumahan Kenangan Jaya 6,200,783113,,,2017
