no,PROVINSI,NO KAB/KOT,KABUPATEN/ KOTA,PERUNTUKAN,PROGRAM,KEGIATAN,LOKASI,UNIT,ANGGARAN (000), STATUS KEPENGHUNIAN , KOORDINAT GEOGRAFIS ,TAHUN
4500,PAPUA BARAT,5,KABUPATEN RAJA AMPAT,SNVT,RUMAH SWADAYA,PENINGKATAN KUALITAS,"Dis. Waigeo Utara , Ds. Bonsayor",49,735000,,,2016
4501,PAPUA BARAT,5,KABUPATEN RAJA AMPAT,SNVT,RUMAH SWADAYA,PENINGKATAN KUALITAS,"Dis. Waigeo Utara , Ds. Kalisade",19,270000,,,2016
4502,PAPUA BARAT,5,KABUPATEN RAJA AMPAT,SNVT,RUMAH SWADAYA,PENINGKATAN KUALITAS,"Dis. Waigeo Utara , Ds. Anday",20,300000,,,2016
4503,PAPUA BARAT,5,KABUPATEN RAJA AMPAT,SNVT,RUMAH SWADAYA,PENINGKATAN KUALITAS,"Dis. Waigeo Utara , Ds. Asukwery",20,300000,,,2016
4504,PAPUA BARAT,10,KABUPATEN MAYBRAT,SNVT,RUMAH SWADAYA,PENINGKATAN KUALITAS,"Kec. Aifat Selatan, Ds. Kisor",23,345000,,,2016
4505,PAPUA BARAT,10,KABUPATEN MAYBRAT,SNVT,RUMAH SWADAYA,PENINGKATAN KUALITAS,"Kec. Aifat Selatan, Ds. Imsun",10,150000,,,2016
4506,PAPUA BARAT,10,KABUPATEN MAYBRAT,SNVT,RUMAH SWADAYA,PENINGKATAN KUALITAS,"Kec. Aifat Selatan, Ds. Krus",15,225000,,,2016
4507,PAPUA BARAT,10,KABUPATEN MAYBRAT,SNVT,RUMAH SWADAYA,PENINGKATAN KUALITAS,"Kec. Aifat Selatan, Ds. Yeek",12,180000,,,2016
4508,PAPUA BARAT,10,KABUPATEN MAYBRAT,SNVT,RUMAH SWADAYA,PENINGKATAN KUALITAS,"Kec. Aifat Selatan, Ds. Mrataim (+)",15,225000,,,2016
4509,PAPUA BARAT,10,KABUPATEN MAYBRAT,SNVT,RUMAH SWADAYA,PENINGKATAN KUALITAS,"Kec. Aifat Selatan, Ds. Busha (+)",15,225000,,,2016
4510,PAPUA BARAT,10,KABUPATEN MAYBRAT,SNVT,RUMAH SWADAYA,PENINGKATAN KUALITAS,"Kec. Aifat Timur Tengah, Ds. Kamat",14,210000,,,2016
4511,PAPUA BARAT,10,KABUPATEN MAYBRAT,SNVT,RUMAH SWADAYA,PENINGKATAN KUALITAS,"Kec. Aifat Timur Tengah, Ds. Ayata",11,165000,,,2016
4512,PAPUA BARAT,10,KABUPATEN MAYBRAT,SNVT,RUMAH SWADAYA,PENINGKATAN KUALITAS,"Kec. Aifat Timur Tengah, Ds. Aikus",20,300000,,,2016
4513,PAPUA BARAT,10,KABUPATEN MAYBRAT,SNVT,RUMAH SWADAYA,PENINGKATAN KUALITAS,"Kec. Aifat Timur Tengah, Ds. Tiam",16,240000,,,2016
4514,PAPUA BARAT,10,KABUPATEN MAYBRAT,SNVT,RUMAH SWADAYA,PENINGKATAN KUALITAS,"Kec. Aifat Timur Tengah, Ds. Assem",10,150000,,,2016
4515,PAPUA BARAT,10,KABUPATEN MAYBRAT,SNVT,RUMAH SWADAYA,PENINGKATAN KUALITAS,"Kec. Aifat Timur Tengah, Ds. Aikrer (+)",42,630000,,,2016
4516,PAPUA BARAT,8,KABUPATEN KAIMANA,SNVT,RUMAH SWADAYA,PENINGKATAN KUALITAS,"Dis. Kaimana , Ds. Coa ",47,705000,,,2016
4517,PAPUA BARAT,8,KABUPATEN KAIMANA,SNVT,RUMAH SWADAYA,PENINGKATAN KUALITAS,"Dis. Kaimana , Ds.Trikora",53,795000,,,2016
4518,PAPUA BARAT,8,KABUPATEN KAIMANA,SNVT,RUMAH SWADAYA,PENINGKATAN KUALITAS,"Dis. Kaimana , Ds.Krooy",183,2745000,,,2016
4519,PAPUA BARAT,8,KABUPATEN KAIMANA,SNVT,RUMAH SWADAYA,PENINGKATAN KUALITAS,"Dis. Kaimana , Ds. Kaimana Kota",167,2505000,,,2016
4520,PAPUA BARAT,2,KABUPATEN MANOKWARI,SNVT,RUMAH SWADAYA,PENINGKATAN KUALITAS,"Dis. Manokwari Timur, Ds. Pasir Putih",104,1560000,,,2016
4521,PAPUA BARAT,2,KABUPATEN MANOKWARI,SNVT,RUMAH SWADAYA,PENINGKATAN KUALITAS,"Dis. Manokwari Timur, Ds. Aipiri",53,795000,,,2016
4522,PAPUA BARAT,2,KABUPATEN MANOKWARI,SNVT,RUMAH SWADAYA,PENINGKATAN KUALITAS,"Dis. Manokwari Timur, Ds. Mansinam",12,180000,,,2016
4523,PAPUA BARAT,2,KABUPATEN MANOKWARI,SNVT,RUMAH SWADAYA,PENINGKATAN KUALITAS,"Dis. Manokwari Barat, Ds. Wosi",48,720000,,,2016
4524,PAPUA BARAT,13,KOTA SORONG,STRATEGIS,RUMAH KHUSUS,TNI,"Lantamal XIV Sorong, Jl. Bubara No.1",10,2887810,,,2016
4525,PAPUA BARAT,2,KABUPATEN MANOKWARI,STRATEGIS,RUMAH SUSUN,TNI,"Makodam Papua Barat, Jl. Manokwari-Bintuni, Arfai (TB.1, T.45, L.3)",35,19318260,,,2016
4526,ACEH,11,KABUPATEN BIREUEN,SNVT,RUMAH SWADAYA,PENINGKATAN KUALITAS,Kec. Ganda Pura Ds. Paya Baro,31,465000,,,2017
4527,ACEH,11,KABUPATEN BIREUEN,SNVT,RUMAH SWADAYA,PENINGKATAN KUALITAS,Kec. Ganda Pura Ds. Pulo Gisa,43,645000,,,2017
4528,ACEH,11,KABUPATEN BIREUEN,SNVT,RUMAH SWADAYA,PENINGKATAN KUALITAS,Kec. Juli Ds. Mane Meujingki,33,495000,,,2017
4529,ACEH,11,KABUPATEN BIREUEN,SNVT,RUMAH SWADAYA,PENINGKATAN KUALITAS,Kec. Juli Ds. Simpang Jaya,65,975000,,,2017
4530,ACEH,11,KABUPATEN BIREUEN,SNVT,RUMAH SWADAYA,PENINGKATAN KUALITAS,Kec. Juli Ds. Ranto Panyang,53,795000,,,2017
4531,ACEH,15,KABUPATEN NAGAN RAYA,SNVT,RUMAH SWADAYA,PENINGKATAN KUALITAS,Kec. Beutong Ds. Blang Dalam,43,645000,,,2017
4532,ACEH,15,KABUPATEN NAGAN RAYA,SNVT,RUMAH SWADAYA,PENINGKATAN KUALITAS,Kec. Darul Makmur Ds. Alue Raya,90,1350000,,,2017
4533,ACEH,15,KABUPATEN NAGAN RAYA,SNVT,RUMAH SWADAYA,PENINGKATAN KUALITAS,Kec. Darul Makmur Ds. Alue Wakie,52,780000,,,2017
4534,ACEH,15,KABUPATEN NAGAN RAYA,SNVT,RUMAH SWADAYA,PENINGKATAN KUALITAS,Kec. Darul Makmur Ds. Gunung Cut,50,750000,,,2017
4535,ACEH,15,KABUPATEN NAGAN RAYA,SNVT,RUMAH SWADAYA,PENINGKATAN KUALITAS,Kec. Darul Makmur Ds. Krueng Alem,50,750000,,,2017
4536,ACEH,18,KABUPATEN PIDIE JAYA,SNVT,RUMAH SWADAYA,PENINGKATAN KUALITAS,Kec. Bandar Baru Ds. Meunasah Sagoe,48,720000,,,2017
4537,ACEH,18,KABUPATEN PIDIE JAYA,SNVT,RUMAH SWADAYA,PENINGKATAN KUALITAS,Kec. Bandar Baru Ds. Mns Baroh Lancok,50,750000,,,2017
4538,ACEH,18,KABUPATEN PIDIE JAYA,SNVT,RUMAH SWADAYA,PENINGKATAN KUALITAS,Kec. Bandar Baru Ds. Mns Blang Sukon,55,825000,,,2017
4539,ACEH,22,KOTA LANGSA,SNVT,RUMAH SWADAYA,PENINGKATAN KUALITAS,Kec. Langsa Barat Ds. Lhok Banie,48,720000,,,2017
4540,ACEH,22,KOTA LANGSA,SNVT,RUMAH SWADAYA,PENINGKATAN KUALITAS,Kec. Langsa Barat Ds. Sungai Pauh Tanjong,52,780000,,,2017
4541,ACEH,22,KOTA LANGSA,SNVT,RUMAH SWADAYA,PENINGKATAN KUALITAS,Kec. Langsa Barat Ds. Sungai Pauh,38,570000,,,2017
4542,ACEH,22,KOTA LANGSA,SNVT,RUMAH SWADAYA,PENINGKATAN KUALITAS,Kec. Langsa Baro Ds. Birem Puntong,43,645000,,,2017
4543,ACEH,22,KOTA LANGSA,SNVT,RUMAH SWADAYA,PENINGKATAN KUALITAS,Kec. Langsa Baro Ds. Geudubang Aceh,50,750000,,,2017
4544,ACEH,22,KOTA LANGSA,SNVT,RUMAH SWADAYA,PENINGKATAN KUALITAS,Kec. Langsa Kota Ds. Alui Berawe,58,870000,,,2017
4545,ACEH,22,KOTA LANGSA,SNVT,RUMAH SWADAYA,PENINGKATAN KUALITAS,Kec. Langsa Timur Ds. Bukit Pulo,50,750000,,,2017
4546,ACEH,8,KABUPATEN ACEH UTARA,STRATEGIS,RUMAH SWADAYA,PENINGKATAN KUALITAS,Kec. Baktiya Ds. Geulumpang Bungkok,10,150000,,,2017
4547,ACEH,8,KABUPATEN ACEH UTARA,STRATEGIS,RUMAH SWADAYA,PENINGKATAN KUALITAS,Kec. Baktiya Ds. Geulumpang Samlako,10,150000,,,2017
4548,ACEH,8,KABUPATEN ACEH UTARA,STRATEGIS,RUMAH SWADAYA,PENINGKATAN KUALITAS,Kec. Baktiya Ds. Meunasah Geundong,11,165000,,,2017
4549,ACEH,8,KABUPATEN ACEH UTARA,STRATEGIS,RUMAH SWADAYA,PENINGKATAN KUALITAS,Kec. Baktiya Ds. Krueng Lingka Barat,16,240000,,,2017
4550,ACEH,8,KABUPATEN ACEH UTARA,STRATEGIS,RUMAH SWADAYA,PENINGKATAN KUALITAS,Kec. Baktiya Ds. Alue Anou Timur,10,150000,,,2017
4551,ACEH,6,KABUPATEN ACEH BESAR,STRATEGIS,RUMAH SUSUN,TNI,"Asr. Yonif 112/Raider, Jl. Japekeh kelurahan Japekeh Kecamatan Darul Imarah (T.45, L.3)",35,15124524,,,2016
4552,ACEH,6,KABUPATEN ACEH BESAR,SNVT,RUMAH SWADAYA,PENINGKATAN KUALITAS,"Kec. Darussalam, Ds. Cot",43,572500,,,2016
4553,ACEH,6,KABUPATEN ACEH BESAR,SNVT,RUMAH SWADAYA,PENINGKATAN KUALITAS,"Kec. Darussalam, Ds. Krueng Kalee",45,512500,,,2016
4554,ACEH,6,KABUPATEN ACEH BESAR,SNVT,RUMAH SWADAYA,PENINGKATAN KUALITAS,"Kec. Darussalam, Ds. Lam Asan",32,432500,,,2016
4555,ACEH,6,KABUPATEN ACEH BESAR,SNVT,RUMAH SWADAYA,PENINGKATAN KUALITAS,"Kec. Darussalam, Ds. Lam Baro Sukon",33,480000,,,2016
4556,ACEH,6,KABUPATEN ACEH BESAR,SNVT,RUMAH SWADAYA,PENINGKATAN KUALITAS,"Kec. Darussalam, Ds. Lam Duro",49,600000,,,2016
4557,ACEH,6,KABUPATEN ACEH BESAR,SNVT,RUMAH SWADAYA,PENINGKATAN KUALITAS,"Kec. Darussalam, Ds. Lam Keuneung",36,430000,,,2016
4558,ACEH,6,KABUPATEN ACEH BESAR,SNVT,RUMAH SWADAYA,PENINGKATAN KUALITAS,"Kec. Darussalam, Ds. Lamklat",40,482500,,,2016
4559,ACEH,6,KABUPATEN ACEH BESAR,SNVT,RUMAH SWADAYA,PENINGKATAN KUALITAS,"Kec. Darussalam, Ds. Siem",32,435000,,,2016
4560,ACEH,18,KABUPATEN PIDIE JAYA,SNVT,RUMAH SWADAYA,PENINGKATAN KUALITAS,"Kec. Ulim, Ds. Tijiem Husen",33,355000,,,2016
4561,ACEH,18,KABUPATEN PIDIE JAYA,SNVT,RUMAH SWADAYA,PENINGKATAN KUALITAS,"Kec. Ulim, Ds. Dayah Leubue",51,565000,,,2016
4562,ACEH,18,KABUPATEN PIDIE JAYA,SNVT,RUMAH SWADAYA,PENINGKATAN KUALITAS,"Kec. Ulim, Ds. Tijen Daboh",40,427500,,,2016
4563,ACEH,18,KABUPATEN PIDIE JAYA,SNVT,RUMAH SWADAYA,PENINGKATAN KUALITAS,"Kec. Ulim, Ds. Balee Ulim",48,565000,,,2016
4564,ACEH,18,KABUPATEN PIDIE JAYA,SNVT,RUMAH SWADAYA,PENINGKATAN KUALITAS,"Kec. Ulim, Ds. Meunasah Kumbang",30,362500,,,2016
4565,ACEH,18,KABUPATEN PIDIE JAYA,SNVT,RUMAH SWADAYA,PENINGKATAN KUALITAS,"Kec. Ulim, Ds. Tanjong Ulim",46,595000,,,2016
4566,ACEH,18,KABUPATEN PIDIE JAYA,SNVT,RUMAH SWADAYA,PENINGKATAN KUALITAS,"Kec. Ulim, Ds. Pulo Ulim",60,735000,,,2016
4567,ACEH,18,KABUPATEN PIDIE JAYA,SNVT,RUMAH SWADAYA,PENINGKATAN KUALITAS,"Kec. Ulim, Ds. Nanggroe Barat",53,642500,,,2016
4568,ACEH,18,KABUPATEN PIDIE JAYA,SNVT,RUMAH SWADAYA,PENINGKATAN KUALITAS,"Kec. Ulim, Ds. Cot Seutui",35,452500,,,2016
4569,ACEH,1,KABUPATEN ACEH SELATAN,STRATEGIS,RUMAH KHUSUS,POLRI,"SAT BRIMOBDA, Rumdin Sub 2 Den B POR di Aceh Timur Ds. Ie Jeureuneh Kec. Trumon Timur",8,1541475,,,2016
4570,ACEH,11,KABUPATEN BIREUEN,SNVT,RUMAH SUSUN,PONDOK PESANTREN,"PP. Al Madina Tuddiniyah babussalam, Ds. Blangbadeh, Kec. Jeumpa (TB.1, T. Barak, L.3)",30,7802767,,,2016
4571,ACEH,3,KABUPATEN ACEH TIMUR,SNVT,RUMAH SUSUN,PONDOK PESANTREN,"PP. Dayah Bustanul Huda, Jl. Banda Aceh -  Medan, KM 342 Desa Alue Cek Doi, Kec. Julok (TB.1, T. Barak, L.3)",30,8169600,,,2016
4572,ACEH,3,KABUPATEN ACEH TIMUR,STRATEGIS,RUMAH KHUSUS,POLRI,"SAT BRIMOBDA, Rumdin Sub 2 Den B POR di Aceh Timur Ds.Aramiah Kec.Birem Bayeun",8,1541873,,,2016
4573,ACEH,3,KABUPATEN ACEH TIMUR,SNVT,RUMAH SWADAYA,PENINGKATAN KUALITAS,"Kec. Simpang Ulim, Ds. Alue Buloh Dua",62,870000,,,2016
4574,ACEH,3,KABUPATEN ACEH TIMUR,SNVT,RUMAH SWADAYA,PENINGKATAN KUALITAS,"Kec. Simpang Ulim, Ds. Arakundo",61,915000,,,2016
4575,ACEH,3,KABUPATEN ACEH TIMUR,SNVT,RUMAH SWADAYA,PENINGKATAN KUALITAS,"Kec. Simpang Ulim, Ds. Matang Kumbang",69,977500,,,2016
4576,ACEH,3,KABUPATEN ACEH TIMUR,SNVT,RUMAH SWADAYA,PENINGKATAN KUALITAS,"Kec. Simpang Ulim, Ds. Matang Rayeuk",63,945000,,,2016
4577,ACEH,3,KABUPATEN ACEH TIMUR,SNVT,RUMAH SWADAYA,PENINGKATAN KUALITAS,"Kec. Simpang Ulim, Ds. Matang Weng",43,645000,,,2016
4578,ACEH,3,KABUPATEN ACEH TIMUR,SNVT,RUMAH SWADAYA,PENINGKATAN KUALITAS,"Kec. Simpang Ulim, Ds. Pucok Alue Dua",73,1095000,,,2016
4579, ACEH ,17, KABUPATEN BENER MERIAH , STRATEGIS , RUMAH KHUSUS , WKDS (Wajib Kerja Dokter Spesialis) , RSUD Muyang Kute Radelong ,1,0,,,2017
4580,ACEH,17,KABUPATEN BENER MERIAH,SNVT,RUMAH SWADAYA,PENINGKATAN KUALITAS,"Kec. Permata, Ds. Weh Tenang Uken",122,1240000,,,2016
4581,ACEH,17,KABUPATEN BENER MERIAH,SNVT,RUMAH SWADAYA,PENINGKATAN KUALITAS,"Kec. Permata, Ds. Darul Aman",33,337500,,,2016
4582,ACEH,17,KABUPATEN BENER MERIAH,SNVT,RUMAH SWADAYA,PENINGKATAN KUALITAS,"Kec. Permata, Ds. Pantan Tengah Jaya",44,435000,,,2016
4583,ACEH,20,KOTA SABANG,SNVT,RUMAH SWADAYA,PENINGKATAN KUALITAS,"Kec. Sukakarya, Ds. Gampong Iboih",104,1525000,,,2016
4584,ACEH,20,KOTA SABANG,SNVT,RUMAH SWADAYA,PENINGKATAN KUALITAS,"Kec. Sukakarya, Ds. Gampong Kuta Timu",46,597500,,,2016
4585,ACEH,19,KOTA BANDA ACEH,STRATEGIS,RUMAH KHUSUS,TNI,"KODAM IM, Asrama Gabungan KODAM IM, Jl. Fatahilah",26,5876484,,,2016
4586,ACEH,22,KOTA LANGSA,SNVT,RUMAH SWADAYA,PENINGKATAN KUALITAS,"Kec. Langsa Lama, Ds. GP. Seulawah",75,1005000,,,2016
4587,ACEH,22,KOTA LANGSA,SNVT,RUMAH SWADAYA,PENINGKATAN KUALITAS,"Kec. Langsa Lama, Ds. Batee Puteh",50,695000,,,2016
4588,ACEH,22,KOTA LANGSA,SNVT,RUMAH SWADAYA,PENINGKATAN KUALITAS,"Kec. Langsa Barat, Ds. GP. Sungai Pauh Pusaka",49,725000,,,2016
4589,ACEH,22,KOTA LANGSA,SNVT,RUMAH SWADAYA,PENINGKATAN KUALITAS,"Kec. Langsa Barat, Ds. GP. Seuriget",49,675000,,,2016
4590,ACEH,22,KOTA LANGSA,SNVT,RUMAH SWADAYA,PENINGKATAN KUALITAS,"Kec. Langsa Barat, Ds. GP. Sungai Pauh Firdaus",49,700000,,,2016
4591,ACEH,22,KOTA LANGSA,SNVT,RUMAH SWADAYA,PENINGKATAN KUALITAS,"Kec. Langsa Barat, Ds. GP. Matang Seulimeng",49,735000,,,2016
4592,ACEH,22,KOTA LANGSA,SNVT,RUMAH SWADAYA,PENINGKATAN KUALITAS,"Kec. Langsa Timur, Ds. Cinta Raja",50,750000,,,2016
4593,ACEH,22,KOTA LANGSA,SNVT,RUMAH SWADAYA,PENINGKATAN KUALITAS,"Kec. Langsa Timur, Ds. Sukarejo",75,1115000,,,2016
4594,ACEH,22,KOTA LANGSA,SNVT,RUMAH SWADAYA,PENINGKATAN KUALITAS,"Kec. Langsa Baro, Ds. PB. Tunong",74,1055000,,,2016
4595,ACEH,21,KOTA LHOKSEUMAWE,SNVT,RUMAH SUSUN,PERGURUAN TINGGI,"STAIN Malikussaleh Jl. Medan Aceh Desa Alue Awee, Kec. Muara Dua (TB.1, T.24, L.3)",56,12130867,,,2016
4596,ACEH,21,KOTA LHOKSEUMAWE,STRATEGIS,RUMAH KHUSUS,TNI,Batalyon Komando 469 Paskhas Jl. Malikussaleh,10,2593207,,,2016
4597,SUMATERA UTARA,13,KABUPATEN MANDAILING NATAL,SNVT,RUMAH SUSUN,PONPES,"Ponpes Musthofawiyah Purba Baru, Kec. Lembah Sorik Marapi, Kab. Mandailing Natal T. Barak / 3 Lt",30,9800000,,,2017
4598,SUMATERA UTARA,26,KOTA MEDAN,STRATEGIS,RUMAH SUSUN,MBR," Jl. Seruai Kel. Sei Mati, Kec. Medan Labuan, Kota Medan T. 24 / 5 Lt", - ,0,,,2017
4599,SUMATERA UTARA,4,KABUPATEN NIAS,SNVT,RUMAH KHUSUS,NELAYAN,Kec. Bawolato,50,8250000,,,2017
